{
    "_id": "mMXHyWdmmAN0GPvG",
    "data": {
        "attributes": {
            "ac": {
                "value": 10
            },
            "hardness": 0,
            "hasHealth": false,
            "hp": {
                "details": "",
                "max": 0,
                "temp": 0,
                "tempmax": 0,
                "value": 0
            },
            "stealth": {
                "details": "(legendary)",
                "value": 30
            }
        },
        "creatureType": "",
        "details": {
            "description": "A magically contagious <i>wail of the banshee</i> spell is trapped in the larynx of an invisible, mummified elf.",
            "disable": "Thievery DC 42 (master) to pierce the invisible larynx so precisely that the magic releases in a trickle before the trap activates, Thievery DC 44 (legendary) three times to deconstruct the larynx while the trap is active in such a way that it tears the spell apart, or spell DC 38 (9th level) to counteract the <i>wail of the banshee</i> before the trap activates",
            "isComplex": true,
            "level": 18,
            "reset": "The trap ends when the trap is unable to make a creature scream (usually because no creature failed its save on the previous turn or because all creatures have critically succeeded in the past). It then resets over 24 hours, as a new scream builds up in the mummified larynx.",
            "routine": "(1 action) The trap uses its action to force one random creature that failed its save against <em>wail of the banshee</em> last turn to emit a <em>wail of the banshee</em> with the same statistics as the initial one. The creature wails even if it is dead or unable to speak, no matter how far away from the trap it is. Unlike a casting of the spell, the drained condition from this trap's <em>wail of the banshee</em> spells increases the targets' drained condition values. A creature that critically succeeds at any of its saves can still be affected by the trap on future rounds, but can't be forced to wail by the trap.</p>"
        },
        "flavourText": "",
        "nethysUrl": "",
        "recallKnowledgeText": "",
        "saves": {
            "fortitude": {
                "rank": 0,
                "saveDetail": "",
                "value": 0
            },
            "reflex": {
                "rank": 0,
                "saveDetail": "",
                "value": 0
            },
            "will": {
                "rank": 0,
                "saveDetail": "",
                "value": 0
            }
        },
        "schema": {
            "version": {
                "value": ""
            }
        },
        "sidebarText": "",
        "source": {
            "value": ""
        },
        "statusEffects": [],
        "traits": {
            "ci": [],
            "di": {
                "custom": "",
                "selected": {},
                "value": []
            },
            "dr": [],
            "dv": [],
            "rarity": {
                "value": "common"
            },
            "size": {
                "value": "med"
            },
            "traits": {
                "custom": "",
                "value": [
                    "magical"
                ]
            }
        }
    },
    "effects": [],
    "flags": {},
    "img": "systems/pf2e/icons/default-icons/hazard.svg",
    "items": [
        {
            "_id": "nqcgUfOiRWy6Kti7",
            "data": {
                "actionCategory": {
                    "value": ""
                },
                "actionType": {
                    "value": "reaction"
                },
                "actions": {
                    "value": ""
                },
                "description": {
                    "chat": "",
                    "unidentified": "",
                    "value": "<p><strong>Trigger</strong> Three or more living creatures remain within 100 feet of the trap for 6 seconds or longer. <br /><strong>Effect</strong> The trap releases an arcane <i>wail of the banshee</i> (DC 40) with a 100-foot-radius emanation instead of 40 feet, targeting all living creatures in the area, and rolls initiative.</p>"
                },
                "requirements": {
                    "value": ""
                },
                "rules": [],
                "slug": null,
                "source": {
                    "value": ""
                },
                "traits": {
                    "custom": "",
                    "rarity": {
                        "value": "common"
                    },
                    "value": []
                },
                "trigger": {
                    "value": ""
                },
                "usage": {
                    "value": "held-in-one-hand"
                },
                "weapon": {
                    "value": ""
                }
            },
            "effects": [],
            "flags": {},
            "img": "systems/pf2e/icons/actions/Reaction.png",
            "name": "Scream",
            "sort": 100000,
            "type": "action"
        }
    ],
    "name": "Banshee's Symphony",
    "permission": {
        "default": 0
    },
    "token": {
        "actorId": "mMXHyWdmmAN0GPvG",
        "actorLink": false,
        "bar1": {
            "attribute": "attributes.hp"
        },
        "bar2": {},
        "brightLight": 0,
        "brightSight": 0,
        "dimLight": 0,
        "dimSight": 0,
        "displayBars": 20,
        "displayName": 20,
        "disposition": 0,
        "flags": {},
        "height": 1,
        "img": "systems/pf2e/icons/default-icons/hazard.svg",
        "lightAlpha": 1,
        "lightAngle": 360,
        "lightAnimation": {
            "intensity": 5,
            "speed": 5
        },
        "lockRotation": false,
        "name": "Banshee's Symphony",
        "randomImg": false,
        "rotation": 0,
        "scale": 1,
        "sightAngle": 360,
        "tint": null,
        "vision": false,
        "width": 1
    },
    "type": "hazard"
}
