{
    "_id": "98rS64gLzy1ReXoR",
    "data": {
        "attributes": {
            "ac": {
                "value": 19
            },
            "hardness": 0,
            "hasHealth": true,
            "hp": {
                "details": "",
                "max": 26,
                "temp": 0,
                "tempmax": 0,
                "value": 26
            },
            "stealth": {
                "details": "(expert)",
                "value": 8
            }
        },
        "creatureType": "",
        "details": {
            "description": "Semitransparent sheets of webbing span the entryway, ready to capture small insects or hamper larger creatures that pass through.",
            "disable": "DC 17 Survival (trained) to dislodge it",
            "isComplex": false,
            "level": 1,
            "reset": "",
            "routine": ""
        },
        "flavourText": "",
        "nethysUrl": "",
        "recallKnowledgeText": "",
        "saves": {
            "fortitude": {
                "rank": 0,
                "saveDetail": "",
                "value": 10
            },
            "reflex": {
                "rank": 0,
                "saveDetail": "",
                "value": 11
            },
            "will": {
                "rank": 0,
                "saveDetail": "",
                "value": 0
            }
        },
        "schema": {
            "version": {
                "value": ""
            }
        },
        "sidebarText": "",
        "source": {
            "value": ""
        },
        "statusEffects": [],
        "traits": {
            "ci": [],
            "di": {
                "custom": "",
                "selected": {},
                "value": [
                    "critical-hits",
                    "object-immunities",
                    "precision"
                ]
            },
            "dr": [],
            "dv": [],
            "rarity": {
                "value": "common"
            },
            "size": {
                "value": "med"
            },
            "traits": {
                "custom": "",
                "value": [
                    "environmental"
                ]
            }
        }
    },
    "effects": [],
    "flags": {},
    "img": "systems/pf2e/icons/default-icons/hazard.svg",
    "items": [
        {
            "_id": "CHZ0RRKgpq6eI2AS",
            "data": {
                "actionCategory": {
                    "value": ""
                },
                "actionType": {
                    "value": "reaction"
                },
                "actions": {
                    "value": ""
                },
                "description": {
                    "chat": "",
                    "unidentified": "",
                    "value": "<p><strong>Trigger</strong> A creature that isn't a spider walks into the web. <br /><strong>Effect</strong> The web wraps around the triggering creature's body, clinging to their limbs. The triggering creature must succeed at a DC 20 Reflex save or take a -10-foot circumstance penalty to all their Speeds until they Escape the web (DC 20). On a critical failure, the webbing also clings to the creature's face, making them sickened 1, and they can't attempt to reduce this condition until they Escape the web.</p>"
                },
                "requirements": {
                    "value": ""
                },
                "rules": [],
                "slug": null,
                "source": {
                    "value": ""
                },
                "traits": {
                    "custom": "",
                    "rarity": {
                        "value": "common"
                    },
                    "value": []
                },
                "trigger": {
                    "value": ""
                },
                "usage": {
                    "value": "held-in-one-hand"
                },
                "weapon": {
                    "value": ""
                }
            },
            "effects": [],
            "flags": {},
            "img": "systems/pf2e/icons/actions/Reaction.png",
            "name": "Ensnare",
            "sort": 100000,
            "type": "action"
        }
    ],
    "name": "Hampering Web",
    "permission": {
        "default": 0
    },
    "token": {
        "actorId": "98rS64gLzy1ReXoR",
        "actorLink": false,
        "bar1": {
            "attribute": "attributes.hp"
        },
        "bar2": {},
        "brightLight": 0,
        "brightSight": 0,
        "dimLight": 0,
        "dimSight": 0,
        "displayBars": 20,
        "displayName": 20,
        "disposition": 0,
        "flags": {},
        "height": 1,
        "img": "systems/pf2e/icons/default-icons/hazard.svg",
        "lightAlpha": 1,
        "lightAngle": 360,
        "lightAnimation": {
            "intensity": 5,
            "speed": 5
        },
        "lockRotation": false,
        "name": "Hampering Web",
        "randomImg": false,
        "rotation": 0,
        "scale": 1,
        "sightAngle": 360,
        "tint": null,
        "vision": false,
        "width": 1
    },
    "type": "hazard"
}
