{
    "_id": "V4LPaPABVm9YYqdH",
    "data": {
        "attributes": {
            "ac": {
                "value": 40
            },
            "hardness": 26,
            "hasHealth": true,
            "hp": {
                "details": "",
                "max": 104,
                "temp": 0,
                "tempmax": 0,
                "value": 104
            },
            "stealth": {
                "details": "<p>DC 42 (master) to spot the triggering rod beneath the black sand.</p>",
                "value": 32
            }
        },
        "creatureType": "",
        "details": {
            "description": "<p>A hidden stone rod causes two immense stone doors to fall forward from their gate, crushing anything beneath them. The doors also fall forward if touched.</p>",
            "disable": "<p>Thievery DC 42 (expert) to secure the doors in place without triggering the trap</p>",
            "isComplex": false,
            "level": 16,
            "reset": "",
            "routine": ""
        },
        "flavourText": "",
        "nethysUrl": "",
        "recallKnowledgeText": "",
        "saves": {
            "fortitude": {
                "rank": 0,
                "saveDetail": "",
                "value": 32
            },
            "reflex": {
                "rank": 0,
                "saveDetail": "",
                "value": 25
            },
            "will": {
                "rank": 0,
                "saveDetail": "",
                "value": null
            }
        },
        "schema": {
            "version": {
                "value": ""
            }
        },
        "sidebarText": "",
        "source": {
            "value": ""
        },
        "statusEffects": [],
        "traits": {
            "ci": [],
            "di": {
                "custom": "",
                "selected": {},
                "value": [
                    "critical-hits",
                    "object-immunities",
                    "precision"
                ]
            },
            "dr": [],
            "dv": [],
            "rarity": {
                "value": "common"
            },
            "size": {
                "value": "med"
            },
            "traits": {
                "custom": "",
                "value": []
            }
        }
    },
    "effects": [],
    "flags": {},
    "img": "systems/pf2e/icons/default-icons/hazard.svg",
    "items": [
        {
            "_id": "RvNmrpkeCr0FxRBy",
            "data": {
                "actionCategory": {
                    "value": ""
                },
                "actionType": {
                    "value": "reaction"
                },
                "actions": {
                    "value": ""
                },
                "description": {
                    "value": "<p><strong>Trigger</strong> The stone rod is moved or either door is touched;</p>\n<p><strong>Effect</strong> The two falling doors deal [[/r 6d12+35 #bludgeoning]] bludgeoning damage (DC 37 basic Reflex save) to all creatures within 15 feet of the gate. On a failure, a creature is also pinned beneath the door and immobilized until the door is moved (DC 34 Athletics) or destroyed; each door has the same AC, Fortitude save, Hardness, and Hit Points as the trap itself. On a critical failure, the creature is trapped in such a way that it can’t attempt to free itself. Moving or destroying one door doesn’t help free anyone trapped by the other door.</p>"
                },
                "requirements": {
                    "value": ""
                },
                "rules": [],
                "slug": null,
                "source": {
                    "value": ""
                },
                "traits": {
                    "custom": "",
                    "rarity": {
                        "value": "common"
                    },
                    "value": [
                        "attack"
                    ]
                },
                "trigger": {
                    "value": ""
                },
                "weapon": {
                    "value": ""
                }
            },
            "effects": [],
            "flags": {},
            "img": "systems/pf2e/icons/actions/Reaction.png",
            "name": "Gate Collapse",
            "sort": 100000,
            "type": "action"
        }
    ],
    "name": "Crushing Gate Trap",
    "permission": {
        "default": 0
    },
    "token": {
        "actorId": "V4LPaPABVm9YYqdH",
        "actorLink": false,
        "bar1": {
            "attribute": "attributes.hp"
        },
        "bar2": {},
        "brightLight": 0,
        "brightSight": 0,
        "dimLight": 0,
        "dimSight": 0,
        "displayBars": 20,
        "displayName": 20,
        "disposition": 0,
        "flags": {},
        "height": 1,
        "img": "systems/pf2e/icons/default-icons/hazard.svg",
        "lightAlpha": 1,
        "lightAngle": 360,
        "lightAnimation": {
            "intensity": 5,
            "speed": 5
        },
        "lockRotation": false,
        "name": "Crushing Gate Trap",
        "randomImg": false,
        "rotation": 0,
        "scale": 1,
        "sightAngle": 360,
        "tint": null,
        "vision": false,
        "width": 1
    },
    "type": "hazard"
}
