{
    "_id": "a8BmnIIUR7AYog5B",
    "data": {
        "boosts": {
            "0": {
                "value": [
                    "cha",
                    "con"
                ]
            },
            "1": {
                "value": [
                    "cha",
                    "con",
                    "dex",
                    "int",
                    "str",
                    "wis"
                ]
            }
        },
        "description": {
            "chat": "",
            "unidentified": "",
            "value": "<p>You have five specialties: hefting barrels, drinking, polishing steins, drinking, and drinking. You worked in a bar, where you learned how to hold your liquor and rowdily socialize.<br /><br />Choose two ability boosts. One must be to <strong>Constitution</strong> or <strong>Charisma</strong>, and one is a free ability boost.<br /><br />You're trained in the Diplomacy skill and the Alcohol Lore skill. You gain the @Compendium[pf2e.feats-srd.Hobnobber]{Hobnobber} skill feat.</p>"
        },
        "items": {
            "dzcua": {
                "id": "4RjDxgvNXNl5GG9d",
                "img": "systems/pf2e/icons/features/feats/feats.jpg",
                "level": "1",
                "name": "Hobnobber",
                "pack": "pf2e.feats-srd"
            }
        },
        "rules": [],
        "source": {
            "value": ""
        },
        "trainedLore": "Alcohol Lore",
        "trainedSkills": {
            "value": [
                "dip"
            ]
        },
        "traits": {
            "custom": "",
            "rarity": {
                "value": "common"
            },
            "value": []
        },
        "usage": {
            "value": "held-in-one-hand"
        }
    },
    "effects": [],
    "flags": {},
    "img": "icons/svg/mystery-man.svg",
    "name": "Barkeep",
    "permission": {
        "default": 0
    },
    "type": "background"
}
