{
    "_id": "vjhB0ZTV9OZgSuSz",
    "data": {
        "boosts": {
            "0": {
                "value": [
                    "con",
                    "int"
                ]
            },
            "1": {
                "value": [
                    "cha",
                    "con",
                    "dex",
                    "int",
                    "str",
                    "wis"
                ]
            }
        },
        "description": {
            "chat": "",
            "unidentified": "",
            "value": "<p>As archaeologists uncovered and explored ever-larger numbers of Thassilonian ruins, you were among the eager explorers who sought out the Runelords' ancient secrets. You may have been the apprentice to another Pathfinder who perished on an expedition, leaving you their discoveries and notes. Or perhaps you explored several of these sites yourself, quickly learning to parse the arcane secrets before lest the eldritch magic extinguish your life.</p>\n<p>Choose two ability boosts. One must be to <strong>Constitution</strong> or <strong>Intelligence</strong>, and one is a free ability boost.</p>\n<p>You're trained in the Arcana skill and the Thassilonian History Lore skill. You gain the @Compendium[pf2e.feats-srd.Arcane Sense]{Arcane Sense} skill feat. Add <strong>Thassilonian</strong> to the list of additional languages you can learn for having a high Intelligence modifier.</p>\n<hr />\n<p><strong>Special</strong>: You can select this background only if you have earned credit for at least 5 First Edition scenarios from Season 4 of the Pathfinder Society organized play campaign.</p>"
        },
        "items": {
            "56qln": {
                "id": "blMeVamjGz4ODWxq",
                "img": "systems/pf2e/icons/features/feats/feats.jpg",
                "level": "1",
                "name": "Arcane Sense",
                "pack": "pf2e.feats-srd"
            }
        },
        "rules": [],
        "source": {
            "value": ""
        },
        "trainedLore": "Thassilonian History Lore",
        "trainedSkills": {
            "value": [
                "arc"
            ]
        },
        "traits": {
            "custom": "",
            "rarity": {
                "value": "common"
            },
            "value": []
        }
    },
    "effects": [],
    "flags": {},
    "img": "icons/svg/mystery-man.svg",
    "name": "Thassilonian Delver",
    "permission": {
        "default": 0
    },
    "type": "background"
}
