{
    "_id": "MslumKt6iwJ85GKZ",
    "data": {
        "boosts": {
            "0": {
                "value": [
                    "cha",
                    "str"
                ]
            },
            "1": {
                "value": [
                    "cha",
                    "con",
                    "dex",
                    "int",
                    "str",
                    "wis"
                ]
            }
        },
        "description": {
            "chat": "",
            "unidentified": "",
            "value": "<p><strong>Prerequisite</strong>: Region - Golden Road</p>\n<hr />\n<p>You believe the city-states of Thuvia should be united into one nation under the rule of your home city (most commonly Aspenthar), and you're willing to do whatever it takes to make it happen.</p>\n<p>Choose two ability boosts. One must be to <strong>Strength</strong> or <strong>Charisma</strong>, and one is a free ability boost.</p>\n<p>You're trained in the Intimidation skill and the Politics Lore skill. You gain the @Compendium[pf2e.feats-srd.Quick Coercion]{Quick Coercion} skill feat.</p>"
        },
        "items": {
            "5y5lm": {
                "id": "ar2DUlvDK4LDcH9J",
                "img": "systems/pf2e/icons/features/feats/feats.jpg",
                "level": "1",
                "name": "Quick Coercion",
                "pack": "pf2e.feats-srd"
            }
        },
        "rules": [],
        "source": {
            "value": ""
        },
        "trainedLore": "Politics Lore",
        "trainedSkills": {
            "value": [
                "itm"
            ]
        },
        "traits": {
            "custom": "",
            "rarity": {
                "value": "common"
            },
            "value": []
        }
    },
    "effects": [],
    "flags": {},
    "img": "icons/svg/mystery-man.svg",
    "name": "Thuvian Unifier",
    "permission": {
        "default": 0
    },
    "type": "background"
}
