{
    "_id": "SJ3nNOI5A8A4hK0Q",
    "data": {
        "boosts": {
            "0": {
                "value": [
                    "cha",
                    "con"
                ]
            },
            "1": {
                "value": [
                    "cha",
                    "con",
                    "dex",
                    "int",
                    "str",
                    "wis"
                ]
            }
        },
        "description": {
            "chat": "",
            "unidentified": "",
            "value": "<p><strong>Prerequisite</strong>: Region - Saga Lands</p>\n<hr />\n<p>Your or one of your ancestors hails from Irrisen, and some spark of the icy region's magic has manifested itself within your bones. The blood of Baba Yaga's legacy runs in your veins, and you are at one with the mysteries and dangers of the frozen land.</p>\n<p>Choose two ability boosts. One must be to <strong>Constitution</strong> or <strong>Charisma</strong>, and one is a free ability boost.</p>\n<p>You're trained in the Arcana skill and the Weather Lore skill. You gain the @Compendium[pf2e.feats-srd.Arcane Sense]{Arcane Sense} skill feat.</p>"
        },
        "items": {
            "k3n7x": {
                "id": "blMeVamjGz4ODWxq",
                "img": "systems/pf2e/icons/features/feats/feats.jpg",
                "level": "1",
                "name": "Arcane Sense",
                "pack": "pf2e.feats-srd"
            }
        },
        "rules": [],
        "source": {
            "value": ""
        },
        "trainedLore": "Weather Lore",
        "trainedSkills": {
            "value": [
                "arc"
            ]
        },
        "traits": {
            "custom": "",
            "rarity": {
                "value": "common"
            },
            "value": []
        }
    },
    "effects": [],
    "flags": {},
    "img": "icons/svg/mystery-man.svg",
    "name": "Winter's Child",
    "permission": {
        "default": 0
    },
    "type": "background"
}
