{
    "_id": "7JVgLiNTAs4clEW8",
    "data": {
        "baseItem": null,
        "brokenThreshold": {
            "value": 0
        },
        "bulkCapacity": {
            "value": ""
        },
        "collapsed": {
            "value": false
        },
        "containerId": {
            "value": ""
        },
        "description": {
            "chat": "",
            "unidentified": "",
            "value": "<p>These brass goggles are engraved with flame patterns and have thick, heavy lenses.</p>\n<p>While worn, they give you a +1 item bonus to Crafting checks to Craft alchemical items and a +1 item bonus to attack rolls with alchemical bombs.</p>\n<p>You can also ignore lesser cover when making Strikes with alchemical bombs.</p>\n<hr />\n<p>Automatically applied effects:</p>\n<ul>\n<li>+1 item bonus to Crafting alchemical item</li>\n<li>+1 item bonus to attack rolls with bombs</li>\n</ul>"
        },
        "equipped": {
            "value": false
        },
        "equippedBulk": {
            "value": ""
        },
        "hardness": {
            "value": 0
        },
        "hp": {
            "value": 0
        },
        "identification": {
            "status": "identified"
        },
        "identified": {
            "value": true
        },
        "invested": {
            "value": false
        },
        "level": {
            "value": "4"
        },
        "maxHp": {
            "value": 0
        },
        "negateBulk": {
            "value": ""
        },
        "originalName": "",
        "preciousMaterial": {
            "value": ""
        },
        "preciousMaterialGrade": {
            "value": ""
        },
        "price": {
            "value": "100 gp"
        },
        "quantity": {
            "value": "1"
        },
        "rules": [
            {
                "key": "PF2E.RuleElement.FlatModifier",
                "label": "Alchemist Goggles (craft alchemical items)",
                "predicate": {
                    "all": [
                        "alchemical",
                        "action:craft"
                    ]
                },
                "selector": "crafting",
                "type": "item",
                "value": 1
            },
            {
                "key": "PF2E.RuleElement.FlatModifier",
                "label": "Alchemist Goggles (alchemical bombs)",
                "predicate": {
                    "all": [
                        "alchemical",
                        "bomb"
                    ]
                },
                "selector": "attack",
                "type": "item",
                "value": 1
            }
        ],
        "size": {
            "value": "med"
        },
        "source": {
            "value": ""
        },
        "stackGroup": {
            "value": ""
        },
        "traits": {
            "custom": "",
            "rarity": {
                "value": "common"
            },
            "usage": {
                "value": "worneyepiece"
            },
            "value": [
                "invested",
                "magical",
                "transmutation"
            ]
        },
        "usage": {
            "value": "held-in-one-hand"
        },
        "weight": {
            "value": "-"
        }
    },
    "effects": [],
    "flags": {},
    "img": "systems/pf2e/icons/equipment/worn-items/other-worn-items/alchemist-goggles.jpg",
    "name": "Alchemist Goggles",
    "permission": {
        "default": 0
    },
    "type": "equipment"
}
