{
    "_id": "UMAXLDpI6YLSfYX1",
    "data": {
        "activation": {
            "condition": "",
            "cost": 0,
            "type": ""
        },
        "autoDestroy": {
            "_deprecated": true,
            "value": true
        },
        "autoUse": {
            "_deprecated": true,
            "value": true
        },
        "baseItem": null,
        "brokenThreshold": {
            "value": 0
        },
        "bulkCapacity": {
            "value": ""
        },
        "charges": {
            "_deprecated": true,
            "max": "1",
            "value": "1"
        },
        "collapsed": {
            "value": false
        },
        "consumableType": {
            "value": "other"
        },
        "consume": {
            "_deprecated": true,
            "value": ""
        },
        "containerId": {
            "value": ""
        },
        "description": {
            "chat": "",
            "unidentified": "",
            "value": "<p>Alcohol is a common substance available in stunning variety. The Price of a dose of alcohol depends on the specific beverage. You can't recover from the sickened condition from alcohol while affected.</p>\n<p>If you fail a saving throw against alcohol other than initial saves, the affliction's stage doesn't increase; the only way to increase the stage of alcohol's affliction is to consume more alcohol.</p>\n<hr />\n<p><strong>Activate</strong> <span style=\"font-family: 'Pathfinder2eActions'; font-size: 1.8em; display: inline;\">A</span> Interact (Ingested)</p>\n<p><strong>Saving Throw</strong> DC 12 Fortitude</p>\n<p><strong>Onset</strong> 10 minutes</p>\n<p><strong>Stage 1</strong> +1 item bonus to saving throws against fear (10 minutes)</p>\n<p><strong>Stage 2</strong> @Compendium[pf2e.conditionitems.Flat-Footed]{Flat-Footed}, +1 item bonus to saving throws against fear effects (10 minutes)</p>\n<p><strong>Stage 3</strong> @Compendium[pf2e.conditionitems.Clumsy]{Clumsy} 1, flat-footed, @Compendium[pf2e.conditionitems.Stupefied]{Stupefied} 2 (10 minutes)</p>\n<p><strong>Stage 4</strong> clumsy 2 and @Compendium[pf2e.conditionitems.Sickened]{Sickened} 2 (10 minutes)</p>\n<p><strong>Stage 5</strong> clumsy 2, sickened 2, and stupefied 2 (10 minutes)</p>\n<p><strong>Stage 6</strong> @Compendium[pf2e.conditionitems.Unconscious]{Unconscious} (8 hours)</p>\n<p><strong>Stage 7</strong> death</p>"
        },
        "duration": {
            "units": "",
            "value": null
        },
        "equipped": {
            "value": false
        },
        "equippedBulk": {
            "value": ""
        },
        "hardness": {
            "value": 0
        },
        "hp": {
            "value": 0
        },
        "identification": {
            "status": "identified"
        },
        "identified": {
            "value": true
        },
        "invested": {
            "value": false
        },
        "level": {
            "value": "0"
        },
        "maxHp": {
            "value": 0
        },
        "negateBulk": {
            "value": "0"
        },
        "preciousMaterial": {
            "value": ""
        },
        "preciousMaterialGrade": {
            "value": ""
        },
        "price": {
            "value": "1 cp (or more)"
        },
        "quantity": {
            "value": "1"
        },
        "range": {
            "long": null,
            "units": "",
            "value": null
        },
        "rules": [],
        "size": {
            "value": "med"
        },
        "source": {
            "value": ""
        },
        "spell": {
            "data": null,
            "heightenedLevel": null
        },
        "stackGroup": {
            "value": ""
        },
        "target": {
            "type": "",
            "units": "",
            "value": null
        },
        "traits": {
            "custom": "",
            "rarity": {
                "value": "common"
            },
            "usage": {
                "value": "held-in-one-hand"
            },
            "value": [
                "alchemical",
                "consumable",
                "drug",
                "ingested",
                "poison"
            ]
        },
        "usage": {
            "value": "held-in-one-hand"
        },
        "uses": {
            "autoDestroy": true,
            "autoUse": true,
            "max": 0,
            "per": null,
            "value": 0
        },
        "weight": {
            "value": "L"
        }
    },
    "effects": [],
    "flags": {},
    "img": "systems/pf2e/icons/equipment/alchemical-items/drugs/alcohol.jpg",
    "name": "Alcohol",
    "permission": {
        "default": 0
    },
    "type": "consumable"
}
