{
    "_id": "lRdrk7Dh9eVlXFHi",
    "data": {
        "baseItem": null,
        "brokenThreshold": {
            "value": 0
        },
        "bulkCapacity": {
            "value": ""
        },
        "collapsed": {
            "value": false
        },
        "containerId": {
            "value": ""
        },
        "description": {
            "chat": "",
            "unidentified": "",
            "value": "<p><span>A <em>dreamstone</em> is a disc-shaped object carved with imagery or words sacred to Desna-be it her religious symbol, a short prayer, or merely the shape of a single star. When you carry a <em>dreamstone</em>, you find it easier to fall asleep, and you gain improved effects from the resulting rest. You always fall asleep within 5 minutes of lying down with the intention of sleeping, and you require only 2 hours of sleep per day to gain the benefits of 8 hours of sleep, provided you have carried the <em>dreamstone</em> for at least 24 hours prior to resting. As long as you carry a <em>dreamstone</em>, you gain a +2 item bonus to saving throws against sleep effects.<br /></span></p>\n<p><span><strong>Activate</strong> <span style=\"font-family: 'Pathfinder2eActions'; font-size: 1.8em; display: inline;\">A</span> Interact (metamagic); <strong>Frequency</strong> once per day; <strong>Effect</strong> If the next action you use is to Cast a Spell of 4th level or lower that has the sleep trait or is associated with dreams, the spell slot is not expended. </span></p>\n<hr />\n<p>Automatically applied effects:</p>\n<ul>\n<li>+2 item bonus to saving throws against sleep effects</li>\n</ul>"
        },
        "equipped": {
            "value": false
        },
        "equippedBulk": {
            "value": ""
        },
        "hardness": {
            "value": 0
        },
        "hp": {
            "value": 0
        },
        "identification": {
            "status": "identified"
        },
        "identified": {
            "value": true
        },
        "invested": {
            "value": false
        },
        "level": {
            "value": "9"
        },
        "maxHp": {
            "value": 0
        },
        "negateBulk": {
            "value": ""
        },
        "preciousMaterial": {
            "value": ""
        },
        "preciousMaterialGrade": {
            "value": ""
        },
        "price": {
            "value": "700 gp"
        },
        "quantity": {
            "value": "1"
        },
        "rules": [
            {
                "key": "PF2E.RuleElement.FlatModifier",
                "predicate": {
                    "any": [
                        "sleep"
                    ]
                },
                "selector": "saving-throw",
                "type": "item",
                "value": 2
            }
        ],
        "size": {
            "value": "med"
        },
        "source": {
            "value": ""
        },
        "stackGroup": {
            "value": ""
        },
        "traits": {
            "custom": "",
            "rarity": {
                "value": "uncommon"
            },
            "usage": {
                "value": "held-in-one-hand"
            },
            "value": [
                "enchantment",
                "magical"
            ]
        },
        "usage": {
            "value": "held-in-one-hand"
        },
        "weight": {
            "value": "L"
        }
    },
    "effects": [],
    "flags": {},
    "img": "systems/pf2e/icons/equipment/held-items/dreamstone.jpg",
    "name": "Dreamstone",
    "permission": {
        "default": 0
    },
    "type": "equipment"
}
