{
    "_id": "QZaOQ8luuxWXpFqJ",
    "data": {
        "baseItem": null,
        "brokenThreshold": {
            "value": 0
        },
        "bulkCapacity": {
            "value": ""
        },
        "collapsed": {
            "value": false
        },
        "containerId": {
            "value": ""
        },
        "description": {
            "chat": "",
            "unidentified": "",
            "value": "<p><span><strong>Perception</strong> +22; precise vision 30 feet, imprecise hearing 30 feet, constant detect magic <br /><strong>Communication</strong> speech (Common, Draconic, and eight other common languages)<br /><strong>Skills</strong> Arcana +34, seven Lore skills +28, Occultism +28, Society +28<br /><strong>Int</strong> +8, <strong>Wis</strong> +0, <strong>Cha</strong> +4<br /><strong>Will</strong> +24</span></p>\n<hr />\n<p>The genius diadem is a diadem of intellect that typically acts like an arrogant professor or mentor, often boasting that it is a certified greater intellect and far superior to your own intelligence, even after the benefits the diadem grants you. The genius diadem encourages you to learn things for yourself rather than actually attempting to Recall Knowledge for you, though you or your allies might be able to play on its arrogance using Deception to trick it into doing so. In addition to allowing you to activate it, the diadem can use the diadem of intellect's hypercognition activation with its own actions, though if it does so, the diadem gains the benefits instead of you. Only the diadem can use the following activation.</p>\n<p><strong>Activate</strong> <span style=\"font-family: 'Pathfinder2eActions'; font-size: 1.8em; display: inline;\">D</span> command, Interact; <strong>Frequency</strong> once per hour; <strong>Effect</strong> The <em>genius diadem</em> casts 7th-level feeblemind.</p>"
        },
        "equipped": {
            "value": false
        },
        "equippedBulk": {
            "value": ""
        },
        "hardness": {
            "value": 0
        },
        "hp": {
            "value": 0
        },
        "identification": {
            "status": "identified"
        },
        "identified": {
            "value": true
        },
        "invested": {
            "value": false
        },
        "level": {
            "value": "18"
        },
        "maxHp": {
            "value": 0
        },
        "negateBulk": {
            "value": ""
        },
        "preciousMaterial": {
            "value": ""
        },
        "preciousMaterialGrade": {
            "value": ""
        },
        "price": {
            "value": ""
        },
        "quantity": {
            "value": "1"
        },
        "rules": [],
        "size": {
            "value": "med"
        },
        "source": {
            "value": ""
        },
        "stackGroup": {
            "value": ""
        },
        "traits": {
            "custom": "",
            "rarity": {
                "value": "rare"
            },
            "usage": {
                "value": "held-in-one-hand"
            },
            "value": [
                "apex",
                "arcane",
                "divination",
                "intelligent"
            ]
        },
        "usage": {
            "value": "held-in-one-hand"
        },
        "weight": {
            "value": "L"
        }
    },
    "effects": [],
    "flags": {},
    "img": "systems/pf2e/icons/equipment/intelligent-items/genius-diadem.jpg",
    "name": "Genius Diadem",
    "permission": {
        "default": 0
    },
    "type": "equipment"
}
