{
    "_id": "WQ3yrHtv2fN5UO57",
    "data": {
        "baseItem": null,
        "brokenThreshold": {
            "value": 0
        },
        "bulkCapacity": {
            "value": ""
        },
        "collapsed": {
            "value": false
        },
        "containerId": {
            "value": ""
        },
        "description": {
            "chat": "",
            "unidentified": "",
            "value": "<p>It’s said that the pale blue light of this eldritch lantern shines from another dimension or even is linked, somehow, to the glow of a ghost when it is consumed by the Outer Goddess Nhimbaloth. A lantern of empty light is not intrinsically an evil item, though it remains a favored tool of those who would manipulate the minds of others for sinister reasons. It can be used as a normal bull’s-eye lantern, but prolonged use tends to instill in the user a vague sense of being watched by unseen eyes.</p>\n<hr />\n<p><strong>Activate</strong> <span style=\"font-family: 'Pathfinder2eActions'; font-size: 1.8em; display: inline;\">2</span> Interact (emotion, visual);</p>\n<p><strong>Frequency</strong> once per day;</p>\n<p><strong>Effect</strong> You direct the lantern’s light upon a single living creature within 60 feet. That creature must attempt a DC 20 Will save to resist the light’s effects.</p>\n<hr />\n<p><strong>Critical Success</strong> The creature is unaffected and realizes that you attempted to mentally influence them with the light.</p>\n<p><strong>Success</strong> The creature is unaffected but thinks the light was harmless, unless it knows the true nature of the lantern already.</p>\n<p><strong>Failure</strong> The creature becomes @Compendium[pf2e.conditionitems.Fascinated]{Fascinated} by the lantern’s light, and remains fascinated as long as you Sustain the Activation, up to 10 minutes.</p>\n<p><strong>Critical Failure</strong> As failure, but you can Sustain the Activation for up to 1 hour. When the effect ends, the fascinated creature remembers any events that took place while fascinated only as indistinct, dream-like memories.</p>\n<hr />\n<p><strong>Activate</strong> <span style=\"font-family: 'Pathfinder2eActions'; font-size: 1.8em; display: inline;\">2</span> Interact;</p>\n<p><strong>Frequency</strong> once per day;</p>\n<p><strong>Effect</strong> You direct the lantern’s light upon a single incorporeal undead creature within 60 feet to siphon away some of the creature’s essence, dealing [[/r 4d8 #positive]] positive damage to the creature (DC 20 basic Will save).</p>"
        },
        "equipped": {
            "value": false
        },
        "equippedBulk": {
            "value": ""
        },
        "hardness": {
            "value": 0
        },
        "hp": {
            "value": 0
        },
        "identification": {
            "status": "identified"
        },
        "identified": {
            "value": true
        },
        "invested": {
            "value": false
        },
        "level": {
            "value": "6"
        },
        "maxHp": {
            "value": 0
        },
        "negateBulk": {
            "value": "0"
        },
        "preciousMaterial": {
            "value": ""
        },
        "preciousMaterialGrade": {
            "value": ""
        },
        "price": {
            "value": "240 gp"
        },
        "quantity": {
            "value": "1"
        },
        "rules": [],
        "size": {
            "value": "med"
        },
        "source": {
            "value": ""
        },
        "stackGroup": {
            "value": ""
        },
        "traits": {
            "custom": "",
            "rarity": {
                "value": "rare"
            },
            "usage": {
                "value": "held-in-one-hand"
            },
            "value": []
        },
        "usage": {
            "value": ""
        },
        "weight": {
            "value": "1"
        }
    },
    "effects": [],
    "flags": {},
    "img": "systems/pf2e/icons/equipment/held-items/lantern-of-empty-light.jpg",
    "name": "Lantern of Empty Light",
    "permission": {
        "default": 0
    },
    "type": "equipment"
}
