{
    "_id": "NLF4Z7jn44Sf3RGS",
    "data": {
        "baseItem": null,
        "brokenThreshold": {
            "value": 0
        },
        "bulkCapacity": {
            "value": ""
        },
        "collapsed": {
            "value": false
        },
        "containerId": {
            "value": ""
        },
        "description": {
            "chat": "",
            "unidentified": "",
            "value": "<p>This beautiful necklace appears to be a magical item such as a necklace of fireballs or a pendant of the occult. When invested, it magically locks in place, suspiciously tightly, and fuses to you. When you enter a situation of extreme stress (as determined by the GM), the necklace tightens around your neck, suffocating you and dealing 30 bludgeoning damage to you at the end of each of your turns. Once per round, you can spend a single action to attempt a DC 34 Athletics check or Fortitude save; success means you don't take the damage on your current turn, but you continue suffocating. The necklace loosens after you've been dead for a month.</p>"
        },
        "equipped": {
            "value": false
        },
        "equippedBulk": {
            "value": ""
        },
        "hardness": {
            "value": 0
        },
        "hp": {
            "value": 0
        },
        "identification": {
            "status": "identified"
        },
        "identified": {
            "value": true
        },
        "invested": {
            "value": false
        },
        "level": {
            "value": "15"
        },
        "maxHp": {
            "value": 0
        },
        "negateBulk": {
            "value": ""
        },
        "preciousMaterial": {
            "value": ""
        },
        "preciousMaterialGrade": {
            "value": ""
        },
        "price": {
            "value": ""
        },
        "quantity": {
            "value": "1"
        },
        "rules": [],
        "size": {
            "value": "med"
        },
        "source": {
            "value": ""
        },
        "stackGroup": {
            "value": ""
        },
        "traits": {
            "custom": "",
            "rarity": {
                "value": "rare"
            },
            "usage": {
                "value": "held-in-one-hand"
            },
            "value": [
                "cursed",
                "invested",
                "magical",
                "transmutation"
            ]
        },
        "usage": {
            "value": "held-in-one-hand"
        },
        "weight": {
            "value": "L"
        }
    },
    "effects": [],
    "flags": {},
    "img": "systems/pf2e/icons/equipment/cursed-items/necklace-of-strangulation.jpg",
    "name": "Necklace of Strangulation",
    "permission": {
        "default": 0
    },
    "type": "equipment"
}
