{
    "_id": "9uP6Dfv53H4Fa32c",
    "data": {
        "abilities": {
            "cha": {
                "min": 3,
                "mod": 6,
                "value": 22
            },
            "con": {
                "min": 3,
                "mod": 8,
                "value": 26
            },
            "dex": {
                "min": 3,
                "mod": 5,
                "value": 20
            },
            "int": {
                "min": 3,
                "mod": -2,
                "value": 6
            },
            "str": {
                "min": 3,
                "mod": 0,
                "value": 10
            },
            "wis": {
                "min": 3,
                "mod": 2,
                "value": 14
            }
        },
        "attributes": {
            "ac": {
                "check": 0,
                "details": "",
                "dex": 0,
                "item": 0,
                "min": 0,
                "value": 32
            },
            "allSaves": {
                "value": null
            },
            "bonusEncumbranceBulk": 0,
            "bonusLimitBulk": 0,
            "flatbonushp": 0,
            "flatbonussp": 0,
            "hp": {
                "details": "",
                "max": 200,
                "min": 0,
                "temp": 0,
                "value": 200
            },
            "init": {
                "bonus": 0,
                "value": 0
            },
            "initiative": {
                "ability": "",
                "circumstance": 0,
                "status": 0
            },
            "levelbonushp": 0,
            "levelbonussp": 0,
            "perception": {
                "ability": "wis",
                "item": 0,
                "rank": 0,
                "value": 23
            },
            "resolve": {
                "value": 0
            },
            "shield": {
                "ac": 2,
                "brokenThreshold": 0,
                "hardness": 0,
                "max": 0,
                "min": 0,
                "value": 0
            },
            "sp": {
                "details": "",
                "max": 0,
                "min": 0,
                "value": 0
            },
            "speed": {
                "otherSpeeds": [
                    {
                        "exceptions": "",
                        "label": "Fly",
                        "type": "fly",
                        "value": "40"
                    }
                ],
                "special": "",
                "value": "10"
            }
        },
        "currency": {
            "cp": {
                "value": 0
            },
            "gp": {
                "value": 0
            },
            "pp": {
                "value": 0
            },
            "sp": {
                "value": 0
            }
        },
        "details": {
            "alignment": {
                "value": "N"
            },
            "ancestry": {
                "value": ""
            },
            "biography": {
                "public": "",
                "value": ""
            },
            "class": {
                "value": ""
            },
            "creatureType": "",
            "deity": {
                "image": "systems/pf2e/assets/sheet/deity.png",
                "value": ""
            },
            "flavorText": "<p>Floods of crystalline blades called consonite choirs surge through the caverns and tunnels of the Plane of Earth. Although their resonant chimes can be among the most beautiful music in the planes, those who intrude on their territory are instead confronted with a bone-shaking wall of sound and a barrage of razor-sharp crystals.</p>\n<p>The blades form naturally, just one of the many wondrous types of crystal on the Plane of Earth. Razor-edged consonite stalactites hum and chime along with the plane&rsquo;s grinding movement. As large collections of these crystals begin to communicate with each other through their shared song, they awaken into a sort of musical collective.</p>\n<p>Eventually, consonite choirs&rsquo; songs grow loud and complex enough to shake these colonies loose of their stone moorings and free them to explore the Plane of Earth. Consonite choirs typically prefer to stay near their spawning grounds but might be coerced to perform in the homes of wealthy shaitans or serve other powerful creatures of earth. They willingly leave the comfort of their homes to hunt down the hated xorns, who enjoy the flavor of their immobile consonite brethren.</p>\n<p>Consonite choirs who leave the Plane of Earth, either through natural portals or by answering the calls of powerful rituals, often find the open spaces of other planes more to their liking. They enjoy the sensation of high winds moving through their chimes and search tirelessly for skilled performance partners. Crueler fates trap other choirs&mdash;more powerful beings might mystically bind them to service or bully them into becoming living trophies.</p>\n<p>Over years of movement, the individual crystal blades of a choir naturally chip and break down. In their native caverns, consonite choirs can easily find new members. Trapped elsewhere, they must rely on others for replacement blades or eventually fall into torpor.</p>",
            "flavourText": "",
            "heritage": {
                "value": ""
            },
            "keyability": {
                "value": "str"
            },
            "level": {
                "min": 1,
                "value": 13
            },
            "nethysUrl": "",
            "recallKnowledgeText": "",
            "sidebarText": "",
            "source": {
                "value": ""
            }
        },
        "martial": {
            "advanced": {
                "rank": 0,
                "value": 0
            },
            "heavy": {
                "rank": 0,
                "value": 0
            },
            "light": {
                "rank": 0,
                "value": 0
            },
            "martial": {
                "rank": 0,
                "value": 0
            },
            "medium": {
                "rank": 0,
                "value": 0
            },
            "simple": {
                "rank": 0,
                "value": 0
            },
            "unarmed": {
                "rank": 0,
                "value": 0
            },
            "unarmored": {
                "rank": 0,
                "value": 0
            }
        },
        "saves": {
            "fortitude": {
                "ability": "con",
                "item": 0,
                "rank": 0,
                "saveDetail": "",
                "value": 27
            },
            "reflex": {
                "ability": "dex",
                "item": 0,
                "rank": 0,
                "saveDetail": "",
                "value": 22
            },
            "will": {
                "ability": "wis",
                "item": 0,
                "rank": 0,
                "saveDetail": "",
                "value": 21
            }
        },
        "schema": {
            "version": {
                "value": ""
            }
        },
        "spells": {
            "spell0": {
                "max": 0
            },
            "spell1": {
                "max": 0
            },
            "spell10": {
                "max": 0
            },
            "spell11": {
                "max": 0
            },
            "spell2": {
                "max": 0
            },
            "spell3": {
                "max": 0
            },
            "spell4": {
                "max": 0
            },
            "spell5": {
                "max": 0
            },
            "spell6": {
                "max": 0
            },
            "spell7": {
                "max": 0
            },
            "spell8": {
                "max": 0
            },
            "spell9": {
                "max": 0
            }
        },
        "statusEffects": [],
        "traits": {
            "attitude": {
                "value": "hostile"
            },
            "ci": [],
            "di": {
                "custom": "",
                "value": [
                    "precision",
                    "swarm-mind"
                ]
            },
            "dr": [
                {
                    "exceptions": "",
                    "label": "Bludgeoning",
                    "type": "bludgeoning",
                    "value": 8
                },
                {
                    "exceptions": "",
                    "label": "Piercing",
                    "type": "piercing",
                    "value": 15
                },
                {
                    "exceptions": "",
                    "label": "Slashing",
                    "type": "slashing",
                    "value": 15
                }
            ],
            "dv": [
                {
                    "exceptions": "",
                    "label": "Area Damage",
                    "type": "area-damage",
                    "value": "8"
                },
                {
                    "exceptions": "",
                    "label": "Splash Damage",
                    "type": "splash-damage",
                    "value": "8"
                }
            ],
            "languages": {
                "custom": "",
                "selected": [],
                "value": [
                    "terran"
                ]
            },
            "rarity": {
                "value": "uncommon"
            },
            "senses": {
                "value": "darkvision, echolocation (precise) 120 feet"
            },
            "size": {
                "value": "grg"
            },
            "traits": {
                "custom": "",
                "value": [
                    "earth",
                    "elemental",
                    "swarm"
                ]
            }
        }
    },
    "effects": [],
    "flags": {},
    "img": "icons/svg/mystery-man.svg",
    "items": [
        {
            "_id": "B5cFXl5CIucCzoy0",
            "data": {
                "attack": {
                    "value": ""
                },
                "attackEffects": {
                    "custom": "",
                    "value": []
                },
                "baseItem": null,
                "bonus": {
                    "value": 26
                },
                "brokenThreshold": {
                    "value": 0
                },
                "bulkCapacity": {
                    "value": ""
                },
                "collapsed": {
                    "value": false
                },
                "containerId": {
                    "value": ""
                },
                "damageRolls": {
                    "0": {
                        "damage": "6d6",
                        "damageType": "piercing"
                    },
                    "cqmmnrqjk5x1pllk1hsx": {
                        "damage": "2d6",
                        "damageType": "sonic"
                    }
                },
                "description": {
                    "value": ""
                },
                "equipped": {
                    "value": false
                },
                "equippedBulk": {
                    "value": ""
                },
                "hardness": {
                    "value": 0
                },
                "hp": {
                    "value": 0
                },
                "identification": {
                    "status": "identified"
                },
                "identified": {
                    "value": true
                },
                "invested": {
                    "value": false
                },
                "maxHp": {
                    "value": 0
                },
                "negateBulk": {
                    "value": "0"
                },
                "preciousMaterial": {
                    "value": ""
                },
                "preciousMaterialGrade": {
                    "value": ""
                },
                "price": {
                    "value": 0
                },
                "quantity": {
                    "value": 1
                },
                "rules": [],
                "size": {
                    "value": "med"
                },
                "slug": null,
                "source": {
                    "value": ""
                },
                "stackGroup": {
                    "value": ""
                },
                "traits": {
                    "custom": "",
                    "rarity": {
                        "value": "common"
                    },
                    "value": [
                        "magical",
                        "range-increment-120",
                        "sonic"
                    ]
                },
                "weaponType": {
                    "value": "ranged"
                },
                "weight": {
                    "value": 0
                }
            },
            "effects": [],
            "flags": {},
            "img": "icons/svg/mystery-man.svg",
            "name": "Launched Blade",
            "sort": 100000,
            "type": "melee"
        },
        {
            "_id": "QJZgoLZp0BfuvxvJ",
            "data": {
                "actionCategory": {
                    "value": "interaction"
                },
                "actionType": {
                    "value": "passive"
                },
                "actions": {
                    "value": ""
                },
                "description": {
                    "value": "<p>The consonite choir can use hearing as a precise sense at the listed range.</p>"
                },
                "requirements": {
                    "value": ""
                },
                "rules": [],
                "slug": null,
                "source": {
                    "value": ""
                },
                "traits": {
                    "custom": "",
                    "rarity": {
                        "value": "common"
                    },
                    "value": []
                },
                "trigger": {
                    "value": ""
                },
                "weapon": {
                    "value": ""
                }
            },
            "effects": [],
            "flags": {},
            "img": "icons/svg/mystery-man.svg",
            "name": "Echolocation (Precise) 120 Feet",
            "sort": 200000,
            "type": "action"
        },
        {
            "_id": "Od7iJnyDe7bcM2fD",
            "data": {
                "actionCategory": {
                    "value": "interaction"
                },
                "actionType": {
                    "value": "passive"
                },
                "actions": {
                    "value": ""
                },
                "description": {
                    "chat": "",
                    "unidentified": "",
                    "value": "<p>A monster with darkvision can see perfectly well in areas of darkness and dim light, though such vision is in black and white only. Some forms of magical darkness, such as a 4th-level @Compendium[pf2e.spells-srd.Darkness]{Darkness} spell, block normal darkvision. A monster with @Compendium[pf2e.bestiary-ability-glossary-srd.Greater Darkvision]{Greater Darkvision}, however, can see through even these forms of magical darkness.</p>"
                },
                "requirements": {
                    "value": ""
                },
                "rules": [],
                "slug": "darkvision",
                "source": {
                    "value": ""
                },
                "traits": {
                    "custom": "",
                    "rarity": {
                        "value": "common"
                    },
                    "value": []
                },
                "trigger": {
                    "value": ""
                },
                "weapon": {
                    "value": ""
                }
            },
            "effects": [],
            "flags": {
                "core": {
                    "sourceId": "Compendium.pf2e.bestiary-ability-glossary-srd.qCCLZhnp2HhP3Ex6"
                }
            },
            "img": "systems/pf2e/icons/default-icons/action.svg",
            "name": "Darkvision",
            "sort": 300000,
            "type": "action"
        },
        {
            "_id": "znuFqFCIX1YQTcWx",
            "data": {
                "actionCategory": {
                    "value": "defensive"
                },
                "actionType": {
                    "value": "passive"
                },
                "actions": {
                    "value": ""
                },
                "description": {
                    "value": "<p>30 feet. @Compendium[pf2e.bestiary-ability-glossary-srd.Aura]{Aura}</p>\n<hr />\n<p>The consonite choir’s tones resonate within physical objects. A creature that begins its turn in the aura deals an additional [[/r 2d6 #sonic]] sonic damage on any Strike using a weapon.</p>"
                },
                "requirements": {
                    "value": ""
                },
                "rules": [],
                "slug": null,
                "source": {
                    "value": ""
                },
                "traits": {
                    "custom": "",
                    "rarity": {
                        "value": "common"
                    },
                    "value": [
                        "aura",
                        "evocation",
                        "sonic"
                    ]
                },
                "trigger": {
                    "value": ""
                },
                "weapon": {
                    "value": ""
                }
            },
            "effects": [],
            "flags": {},
            "img": "icons/svg/mystery-man.svg",
            "name": "Resonant Chimes",
            "sort": 400000,
            "type": "action"
        },
        {
            "_id": "tX4NpGH9LfAqWKz6",
            "data": {
                "actionCategory": {
                    "value": "defensive"
                },
                "actionType": {
                    "value": "passive"
                },
                "actions": {
                    "value": ""
                },
                "description": {
                    "chat": "",
                    "unidentified": "",
                    "value": "<p>This monster doesn't have a single mind (typically because it's a swarm of smaller creatures), and is immune to mental effects that target only a specific number of creatures. It is still subject to mental effects that affect all creatures in an area.</p>"
                },
                "requirements": {
                    "value": ""
                },
                "rules": [],
                "slug": "swarm-mind",
                "source": {
                    "value": ""
                },
                "traits": {
                    "custom": "",
                    "rarity": {
                        "value": "common"
                    },
                    "value": []
                },
                "trigger": {
                    "value": ""
                },
                "weapon": {
                    "value": ""
                }
            },
            "effects": [],
            "flags": {
                "core": {
                    "sourceId": "Compendium.pf2e.bestiary-ability-glossary-srd.baA0nSMhQyFyJIia"
                }
            },
            "img": "systems/pf2e/icons/default-icons/action.svg",
            "name": "Swarm Mind",
            "sort": 500000,
            "type": "action"
        },
        {
            "_id": "MIgppLmIY2AofKTC",
            "data": {
                "actionCategory": {
                    "value": "offensive"
                },
                "actionType": {
                    "value": "action"
                },
                "actions": {
                    "value": "1"
                },
                "description": {
                    "value": "<p>The swarm deals [[/r 4d6 #slashing]] slashing damage plus [[/r 2d6 #sonic]] sonic damage to each enemy in the swarm’s space (DC 33 basic Reflex save). On a critical failure, the enemy is also @Compendium[pf2e.conditionitems.Deafened]{Deafened} for 1 minute.</p>"
                },
                "requirements": {
                    "value": ""
                },
                "rules": [],
                "slug": null,
                "source": {
                    "value": ""
                },
                "traits": {
                    "custom": "",
                    "rarity": {
                        "value": "common"
                    },
                    "value": []
                },
                "trigger": {
                    "value": ""
                },
                "weapon": {
                    "value": ""
                }
            },
            "effects": [],
            "flags": {},
            "img": "systems/pf2e/icons/actions/OneAction.png",
            "name": "Swarming Chimes",
            "sort": 600000,
            "type": "action"
        },
        {
            "_id": "6FQm3ZqmEY78MDys",
            "data": {
                "description": {
                    "value": ""
                },
                "item": {
                    "value": 0
                },
                "mod": {
                    "value": 24
                },
                "proficient": {
                    "value": 0
                },
                "rules": [],
                "slug": null,
                "source": {
                    "value": ""
                },
                "traits": {
                    "custom": "",
                    "rarity": {
                        "value": "common"
                    },
                    "value": []
                }
            },
            "effects": [],
            "flags": {},
            "img": "icons/svg/mystery-man.svg",
            "name": "Acrobatics",
            "sort": 700000,
            "type": "lore"
        },
        {
            "_id": "ZRrI2IFK8LtBD6uK",
            "data": {
                "description": {
                    "value": ""
                },
                "item": {
                    "value": 0
                },
                "mod": {
                    "value": 27
                },
                "proficient": {
                    "value": 0
                },
                "rules": [],
                "slug": null,
                "source": {
                    "value": ""
                },
                "traits": {
                    "custom": "",
                    "rarity": {
                        "value": "common"
                    },
                    "value": []
                }
            },
            "effects": [],
            "flags": {},
            "img": "icons/svg/mystery-man.svg",
            "name": "Performance",
            "sort": 800000,
            "type": "lore"
        }
    ],
    "name": "Consonite Choir",
    "permission": {
        "default": 0
    },
    "token": {
        "actorId": "9uP6Dfv53H4Fa32c",
        "actorLink": false,
        "bar1": {
            "attribute": "attributes.hp"
        },
        "bar2": {
            "attribute": ""
        },
        "brightLight": 0,
        "brightSight": 0,
        "dimLight": 0,
        "dimSight": 0,
        "displayBars": 20,
        "displayName": 20,
        "disposition": -1,
        "flags": {},
        "height": 4,
        "img": "icons/svg/mystery-man.svg",
        "lightAlpha": 1,
        "lightAngle": 360,
        "lightAnimation": {
            "intensity": 5,
            "speed": 5,
            "type": ""
        },
        "lightColor": "",
        "lockRotation": false,
        "mirrorX": false,
        "mirrorY": false,
        "name": "Consonite Choir",
        "randomImg": false,
        "rotation": 0,
        "scale": 1,
        "sightAngle": 360,
        "tint": "",
        "vision": false,
        "width": 4
    },
    "type": "npc"
}
