{
    "_id": "2pQoqcUxyHsTLhjw",
    "data": {
        "abilities": {
            "cha": {
                "min": 3,
                "mod": -3,
                "value": 4
            },
            "con": {
                "min": 3,
                "mod": 3,
                "value": 16
            },
            "dex": {
                "min": 3,
                "mod": 5,
                "value": 20
            },
            "int": {
                "min": 3,
                "mod": -4,
                "value": 2
            },
            "str": {
                "min": 3,
                "mod": 1,
                "value": 12
            },
            "wis": {
                "min": 3,
                "mod": 2,
                "value": 14
            }
        },
        "attributes": {
            "ac": {
                "check": 0,
                "details": "",
                "dex": 0,
                "item": 0,
                "min": 0,
                "value": 18
            },
            "allSaves": {
                "value": null
            },
            "bonusEncumbranceBulk": 0,
            "bonusLimitBulk": 0,
            "flatbonushp": 0,
            "flatbonussp": 0,
            "hp": {
                "details": "",
                "max": 50,
                "min": 0,
                "temp": 0,
                "value": 50
            },
            "init": {
                "bonus": 0,
                "value": 0
            },
            "initiative": {
                "ability": "",
                "circumstance": 0,
                "status": 0
            },
            "levelbonushp": 0,
            "levelbonussp": 0,
            "perception": {
                "ability": "wis",
                "item": 0,
                "rank": 0,
                "value": 12
            },
            "resolve": {
                "value": 0
            },
            "shield": {
                "ac": 2,
                "brokenThreshold": 0,
                "hardness": 0,
                "max": 0,
                "min": 0,
                "value": 0
            },
            "sp": {
                "details": "",
                "max": 0,
                "min": 0,
                "value": 0
            },
            "speed": {
                "otherSpeeds": [
                    {
                        "exceptions": "",
                        "label": "Climb",
                        "type": "climb",
                        "value": "30"
                    },
                    {
                        "exceptions": "",
                        "label": "Swim",
                        "type": "swim",
                        "value": "30"
                    }
                ],
                "special": "",
                "value": "30"
            }
        },
        "currency": {
            "cp": {
                "value": 0
            },
            "gp": {
                "value": 0
            },
            "pp": {
                "value": 0
            },
            "sp": {
                "value": 0
            }
        },
        "details": {
            "alignment": {
                "value": "N"
            },
            "ancestry": {
                "value": ""
            },
            "biography": {
                "public": "",
                "value": ""
            },
            "class": {
                "value": ""
            },
            "creatureType": "",
            "deity": {
                "image": "systems/pf2e/assets/sheet/deity.png",
                "value": ""
            },
            "flavorText": "<p>While normally solitary creatures, snakes sometimes congregate in large masses. Whether gathered in the depths of a cave for warmth, a craggy mountainside for breeding, or through magical means for inscrutable purposes, these slithering swarms shouldn&rsquo;t be underestimated.</p>\n<hr />\n<p>The frightening mass of shining scales, gleaming eyes, and fangs dripping with venom that comprise a viper swarm has brought an end to many an unlucky adventurer. Normally nocturnal, these notoriously aggressive snakes strike at anything that comes within reach, be it limb or weapon. Their venom is a potent toxin that leaves victims shaky and weak.</p>",
            "flavourText": "",
            "heritage": {
                "value": ""
            },
            "keyability": {
                "value": "str"
            },
            "level": {
                "min": 1,
                "value": 4
            },
            "nethysUrl": "",
            "recallKnowledgeText": "",
            "sidebarText": "",
            "source": {
                "value": ""
            }
        },
        "martial": {
            "advanced": {
                "rank": 0,
                "value": 0
            },
            "heavy": {
                "rank": 0,
                "value": 0
            },
            "light": {
                "rank": 0,
                "value": 0
            },
            "martial": {
                "rank": 0,
                "value": 0
            },
            "medium": {
                "rank": 0,
                "value": 0
            },
            "simple": {
                "rank": 0,
                "value": 0
            },
            "unarmed": {
                "rank": 0,
                "value": 0
            },
            "unarmored": {
                "rank": 0,
                "value": 0
            }
        },
        "saves": {
            "fortitude": {
                "ability": "con",
                "item": 0,
                "rank": 0,
                "saveDetail": "",
                "value": 11
            },
            "reflex": {
                "ability": "dex",
                "item": 0,
                "rank": 0,
                "saveDetail": "",
                "value": 13
            },
            "will": {
                "ability": "wis",
                "item": 0,
                "rank": 0,
                "saveDetail": "",
                "value": 10
            }
        },
        "schema": {
            "version": {
                "value": ""
            }
        },
        "spells": {
            "spell0": {
                "max": 0
            },
            "spell1": {
                "max": 0
            },
            "spell10": {
                "max": 0
            },
            "spell11": {
                "max": 0
            },
            "spell2": {
                "max": 0
            },
            "spell3": {
                "max": 0
            },
            "spell4": {
                "max": 0
            },
            "spell5": {
                "max": 0
            },
            "spell6": {
                "max": 0
            },
            "spell7": {
                "max": 0
            },
            "spell8": {
                "max": 0
            },
            "spell9": {
                "max": 0
            }
        },
        "statusEffects": [],
        "traits": {
            "attitude": {
                "value": "hostile"
            },
            "ci": [],
            "di": {
                "custom": "",
                "value": [
                    "precision",
                    "swarm-mind"
                ]
            },
            "dr": [
                {
                    "exceptions": "",
                    "label": "Bludgeoning",
                    "type": "bludgeoning",
                    "value": 5
                },
                {
                    "exceptions": "",
                    "label": "Piercing",
                    "type": "piercing",
                    "value": 5
                },
                {
                    "exceptions": "",
                    "label": "Slashing",
                    "type": "slashing",
                    "value": 3
                }
            ],
            "dv": [
                {
                    "exceptions": "",
                    "label": "Area Damage",
                    "type": "area-damage",
                    "value": "5"
                },
                {
                    "exceptions": "",
                    "label": "Splash Damage",
                    "type": "splash-damage",
                    "value": "5"
                }
            ],
            "languages": {
                "custom": "",
                "selected": [],
                "value": []
            },
            "rarity": {
                "value": "common"
            },
            "senses": {
                "value": "low-light vision, scent (imprecise) 60 feet"
            },
            "size": {
                "value": "lg"
            },
            "traits": {
                "custom": "",
                "value": [
                    "animal",
                    "swarm"
                ]
            }
        }
    },
    "effects": [],
    "flags": {},
    "img": "icons/svg/mystery-man.svg",
    "items": [
        {
            "_id": "ggqzAen8OXMFadmR",
            "data": {
                "actionCategory": {
                    "value": "interaction"
                },
                "actionType": {
                    "value": "passive"
                },
                "actions": {
                    "value": ""
                },
                "description": {
                    "chat": "",
                    "unidentified": "",
                    "value": "<p>The monster can see in dim light as though it were bright light, so it ignores the @Compendium[pf2e.conditionitems.Concealed]{Concealed} condition due to dim light.</p>"
                },
                "requirements": {
                    "value": ""
                },
                "rules": [],
                "slug": "low-light-vision",
                "source": {
                    "value": ""
                },
                "traits": {
                    "custom": "",
                    "rarity": {
                        "value": "common"
                    },
                    "value": []
                },
                "trigger": {
                    "value": ""
                },
                "weapon": {
                    "value": ""
                }
            },
            "effects": [],
            "flags": {
                "core": {
                    "sourceId": "Compendium.pf2e.bestiary-ability-glossary-srd.fFu2sZz4KB01fVRc"
                }
            },
            "img": "systems/pf2e/icons/default-icons/action.svg",
            "name": "Low-Light Vision",
            "sort": 100000,
            "type": "action"
        },
        {
            "_id": "CEHvST4zuzVjG0oO",
            "data": {
                "actionCategory": {
                    "value": "interaction"
                },
                "actionType": {
                    "value": "passive"
                },
                "actions": {
                    "value": ""
                },
                "description": {
                    "chat": "",
                    "unidentified": "",
                    "value": "<p>Scent involves sensing creatures or objects by smell, and is usually a vague sense. The range is listed in the ability, and it functions only if the creature or object being detected emits an aroma (for instance, incorporeal creatures usually do not exude an aroma).</p>\n<p>If a creature emits a heavy aroma or is upwind, the GM can double or even triple the range of scent abilities used to detect that creature, and the GM can reduce the range if a creature is downwind.</p>"
                },
                "requirements": {
                    "value": ""
                },
                "rules": [],
                "slug": "scent",
                "source": {
                    "value": ""
                },
                "traits": {
                    "custom": "",
                    "rarity": {
                        "value": "common"
                    },
                    "value": []
                },
                "trigger": {
                    "value": ""
                },
                "weapon": {
                    "value": ""
                }
            },
            "effects": [],
            "flags": {
                "core": {
                    "sourceId": "Compendium.pf2e.bestiary-ability-glossary-srd.rqfnQ5VHT5hxm25r"
                }
            },
            "img": "icons/svg/mystery-man.svg",
            "name": "Scent (Imprecise) 60 feet",
            "sort": 200000,
            "type": "action"
        },
        {
            "_id": "MoM2zK3F63zlLyW3",
            "data": {
                "actionCategory": {
                    "value": "offensive"
                },
                "actionType": {
                    "value": "action"
                },
                "actions": {
                    "value": "2"
                },
                "description": {
                    "value": "<p>The vipers spray venom from their fangs in a defensive display. Each creature in a 10-foot cone is exposed to viper swarm venom but gains a +2 circumstance bonus to its initial saving throw against the poison.</p>"
                },
                "requirements": {
                    "value": ""
                },
                "rules": [],
                "slug": null,
                "source": {
                    "value": ""
                },
                "traits": {
                    "custom": "",
                    "rarity": {
                        "value": "common"
                    },
                    "value": []
                },
                "trigger": {
                    "value": ""
                },
                "weapon": {
                    "value": ""
                }
            },
            "effects": [],
            "flags": {},
            "img": "systems/pf2e/icons/actions/TwoActions.png",
            "name": "Venom Spritz",
            "sort": 300000,
            "type": "action"
        },
        {
            "_id": "h8rEFtxwQFlx0MIz",
            "data": {
                "actionCategory": {
                    "value": "offensive"
                },
                "actionType": {
                    "value": "action"
                },
                "actions": {
                    "value": "1"
                },
                "description": {
                    "value": "<p>Each enemy in the swarm’s space takes [[/r 2d8 #piercing]] piercing damage (DC 21 basic Reflex save) plus Viper Swarm Venom.</p>"
                },
                "requirements": {
                    "value": ""
                },
                "rules": [],
                "slug": null,
                "source": {
                    "value": ""
                },
                "traits": {
                    "custom": "",
                    "rarity": {
                        "value": "common"
                    },
                    "value": []
                },
                "trigger": {
                    "value": ""
                },
                "weapon": {
                    "value": ""
                }
            },
            "effects": [],
            "flags": {},
            "img": "systems/pf2e/icons/actions/OneAction.png",
            "name": "Venomous Fangs",
            "sort": 400000,
            "type": "action"
        },
        {
            "_id": "2Rzw5Pms3YBG0FNZ",
            "data": {
                "actionCategory": {
                    "value": "offensive"
                },
                "actionType": {
                    "value": "passive"
                },
                "actions": {
                    "value": ""
                },
                "description": {
                    "value": "<p><strong>Saving Throw</strong> DC 21 Fortitude;</p>\n<p><strong>Maximum Duration</strong> 6 rounds;</p>\n<p><strong>Stage 1</strong> [[/r 1d4 #poison]] poison damage (1 round);</p>\n<p><strong>Stage 2</strong> [[/r 1d6 #poison]] poison damage and @Compendium[pf2e.conditionitems.Clumsy]{Clumsy 1} (1 round);</p>\n<p><strong>Stage 3</strong> [[/r 2d4 #poison]] poison damage, @Compendium[pf2e.conditionitems.Clumsy]{Clumsy 2}, and @Compendium[pf2e.conditionitems.Enfeebled]{Enfeebled 1} (1round)</p>"
                },
                "requirements": {
                    "value": ""
                },
                "rules": [],
                "slug": null,
                "source": {
                    "value": ""
                },
                "traits": {
                    "custom": "",
                    "rarity": {
                        "value": "common"
                    },
                    "value": [
                        "poison"
                    ]
                },
                "trigger": {
                    "value": ""
                },
                "weapon": {
                    "value": ""
                }
            },
            "effects": [],
            "flags": {},
            "img": "icons/svg/mystery-man.svg",
            "name": "Viper Swarm Venom",
            "sort": 500000,
            "type": "action"
        },
        {
            "_id": "cpoeqe5IV8GtWG9w",
            "data": {
                "description": {
                    "value": ""
                },
                "item": {
                    "value": 0
                },
                "mod": {
                    "value": 13
                },
                "proficient": {
                    "value": 0
                },
                "rules": [],
                "slug": null,
                "source": {
                    "value": ""
                },
                "traits": {
                    "custom": "",
                    "rarity": {
                        "value": "common"
                    },
                    "value": []
                }
            },
            "effects": [],
            "flags": {},
            "img": "icons/svg/mystery-man.svg",
            "name": "Acrobatics",
            "sort": 600000,
            "type": "lore"
        },
        {
            "_id": "PDpOA6FU2bV6RNmd",
            "data": {
                "description": {
                    "value": ""
                },
                "item": {
                    "value": 0
                },
                "mod": {
                    "value": 11
                },
                "proficient": {
                    "value": 0
                },
                "rules": [],
                "slug": null,
                "source": {
                    "value": ""
                },
                "traits": {
                    "custom": "",
                    "rarity": {
                        "value": "common"
                    },
                    "value": []
                }
            },
            "effects": [],
            "flags": {},
            "img": "icons/svg/mystery-man.svg",
            "name": "Stealth",
            "sort": 700000,
            "type": "lore"
        }
    ],
    "name": "Viper Swarm",
    "permission": {
        "default": 0
    },
    "token": {
        "actorId": "2pQoqcUxyHsTLhjw",
        "actorLink": false,
        "bar1": {
            "attribute": "attributes.hp"
        },
        "bar2": {
            "attribute": ""
        },
        "brightLight": 0,
        "brightSight": 0,
        "dimLight": 0,
        "dimSight": 0,
        "displayBars": 20,
        "displayName": 20,
        "disposition": -1,
        "flags": {},
        "height": 2,
        "img": "icons/svg/mystery-man.svg",
        "lightAlpha": 1,
        "lightAngle": 360,
        "lightAnimation": {
            "intensity": 5,
            "speed": 5,
            "type": ""
        },
        "lightColor": "",
        "lockRotation": false,
        "mirrorX": false,
        "mirrorY": false,
        "name": "Viper Swarm",
        "randomImg": false,
        "rotation": 0,
        "scale": 1,
        "sightAngle": 360,
        "tint": "",
        "vision": false,
        "width": 2
    },
    "type": "npc"
}
