{
    "_id": "UznKHAei13XNsMUP",
    "data": {
        "abilities": {
            "cha": {
                "min": 3,
                "mod": 0,
                "value": 10
            },
            "con": {
                "min": 3,
                "mod": 1,
                "value": 12
            },
            "dex": {
                "min": 3,
                "mod": 3,
                "value": 16
            },
            "int": {
                "min": 3,
                "mod": -4,
                "value": 2
            },
            "str": {
                "min": 3,
                "mod": 2,
                "value": 14
            },
            "wis": {
                "min": 3,
                "mod": 2,
                "value": 14
            }
        },
        "attributes": {
            "ac": {
                "breakdown": "Base AC 10, Dexterity +3, Trained +3",
                "check": 0,
                "details": "",
                "dex": 0,
                "dexCap": null,
                "item": 0,
                "min": 0,
                "name": "ac",
                "totalModifier": 6,
                "value": 16
            },
            "allSaves": {
                "value": ""
            },
            "ancestryhp": 0,
            "bonusEncumbranceBulk": null,
            "bonusLimitBulk": null,
            "bonusbulk": 0,
            "classDC": {
                "ability": "str",
                "breakdown": "Base Class DC 10, Strength +2, Untrained +0",
                "item": 0,
                "name": "PF2E.ClassDCLabel",
                "rank": 0,
                "totalModifier": 2,
                "value": 12
            },
            "classhp": 10,
            "doomed": {
                "max": 3,
                "value": 0
            },
            "dying": {
                "max": 4,
                "value": 0
            },
            "flatbonushp": 0,
            "flatbonussp": 0,
            "heroPoints": {
                "max": 3,
                "rank": 0
            },
            "hp": {
                "breakdown": "Ancestry HP +0, Class HP +10, Constitution +1",
                "details": "",
                "max": 11,
                "min": 0,
                "name": "hp",
                "temp": null,
                "totalModifier": 11,
                "value": 11
            },
            "init": {
                "bonus": 0,
                "value": 0
            },
            "initiative": {
                "ability": "perception",
                "circumstance": 0,
                "label": "Initiative: Perception",
                "name": "initiative",
                "status": 0,
                "totalModifier": 2
            },
            "levelbonushp": 0,
            "levelbonussp": 0,
            "perception": {
                "ability": "wis",
                "breakdown": "Wisdom +2, Untrained +0",
                "item": 0,
                "name": "perception",
                "rank": 0,
                "totalModifier": 2,
                "value": 2
            },
            "resolve": {
                "value": 0
            },
            "shield": {
                "ac": 0,
                "brokenThreshold": "0",
                "hardness": 0,
                "hp": {
                    "value": 0
                },
                "max": "0",
                "min": 0,
                "value": 0
            },
            "sp": {
                "details": "",
                "max": 0,
                "min": 0,
                "value": 0
            },
            "speed": {
                "otherSpeeds": [],
                "value": "35"
            },
            "wounded": {
                "max": 3,
                "value": 0
            }
        },
        "currency": {
            "cp": {
                "value": "0"
            },
            "gp": {
                "value": "0"
            },
            "pp": {
                "value": "0"
            },
            "sp": {
                "value": "0"
            }
        },
        "customModifiers": {},
        "damageDice": {},
        "details": {
            "age": {
                "value": ""
            },
            "alignment": {
                "value": "N"
            },
            "ancestry": {
                "value": "Cat"
            },
            "background": {
                "value": "Minion"
            },
            "biography": {
                "public": "",
                "value": ""
            },
            "class": {
                "value": "Animal"
            },
            "deity": {
                "image": "systems/pf2e/assets/sheet/deity.png",
                "value": ""
            },
            "ethnicity": {
                "value": ""
            },
            "gender": {
                "value": "M/He/Him"
            },
            "height": {
                "value": ""
            },
            "heritage": {
                "value": "Snow Leopard"
            },
            "keyability": {
                "value": "str"
            },
            "level": {
                "min": 1,
                "value": 1
            },
            "nationality": {
                "value": ""
            },
            "weight": {
                "value": ""
            },
            "xp": {
                "max": 1000,
                "min": 0,
                "pct": 0,
                "value": 0
            }
        },
        "martial": {
            "advanced": {
                "breakdown": "Untrained +0",
                "rank": 0,
                "value": 0
            },
            "heavy": {
                "breakdown": "Untrained +0",
                "rank": 0,
                "value": 0
            },
            "light": {
                "breakdown": "Untrained +0",
                "rank": 0,
                "value": 0
            },
            "martial": {
                "breakdown": "Untrained +0",
                "rank": 0,
                "value": 0
            },
            "medium": {
                "breakdown": "Untrained +0",
                "rank": 0,
                "value": 0
            },
            "simple": {
                "breakdown": "Untrained +0",
                "rank": 0,
                "value": 0
            },
            "unarmed": {
                "breakdown": "Trained +3",
                "rank": 1,
                "value": 3
            },
            "unarmored": {
                "breakdown": "Trained +3",
                "rank": 1,
                "value": 3
            }
        },
        "pfs": {
            "characterNumber": "",
            "currentFaction": "EA",
            "fame": "0",
            "levelBump": false,
            "playerNumber": "",
            "reputation": {
                "EA": "0",
                "GA": "0",
                "HH": "0",
                "RO": "0",
                "VS": "0",
                "VW": "0"
            },
            "school": "none"
        },
        "saves": {
            "fortitude": {
                "ability": "con",
                "breakdown": "Constitution +1, Trained +3",
                "item": 0,
                "name": "fortitude",
                "rank": 1,
                "saveDetail": "",
                "totalModifier": 4,
                "value": 4
            },
            "reflex": {
                "ability": "dex",
                "breakdown": "Dexterity +3, Trained +3",
                "item": 0,
                "name": "reflex",
                "rank": 1,
                "saveDetail": "",
                "totalModifier": 6,
                "value": 6
            },
            "will": {
                "ability": "wis",
                "breakdown": "Wisdom +2, Trained +3",
                "item": 0,
                "name": "will",
                "rank": 1,
                "saveDetail": "",
                "totalModifier": 5,
                "value": 5
            }
        },
        "schema": {
            "version": {
                "value": ""
            }
        },
        "skills": {
            "acr": {
                "ability": "dex",
                "armor": 1,
                "breakdown": "Dexterity +3, Trained +3",
                "item": 0,
                "mod": 3,
                "name": "acrobatics",
                "rank": 1,
                "totalModifier": 6,
                "value": 6
            },
            "arc": {
                "ability": "int",
                "breakdown": "Intelligence -4, Untrained +0",
                "item": 0,
                "mod": -4,
                "name": "arcana",
                "rank": 0,
                "totalModifier": -4,
                "value": -4
            },
            "ath": {
                "ability": "str",
                "armor": 1,
                "breakdown": "Strength +2, Trained +3",
                "item": 0,
                "mod": 2,
                "name": "athletics",
                "rank": 1,
                "totalModifier": 5,
                "value": 5
            },
            "cra": {
                "ability": "int",
                "breakdown": "Intelligence -4, Untrained +0",
                "item": 0,
                "mod": -4,
                "name": "crafting",
                "rank": 0,
                "totalModifier": -4,
                "value": -4
            },
            "dec": {
                "ability": "cha",
                "breakdown": "Charisma +0, Untrained +0",
                "item": 0,
                "mod": 0,
                "name": "deception",
                "rank": 0,
                "totalModifier": 0,
                "value": 0
            },
            "dip": {
                "ability": "cha",
                "breakdown": "Charisma +0, Untrained +0",
                "item": 0,
                "mod": 0,
                "name": "diplomacy",
                "rank": 0,
                "totalModifier": 0,
                "value": 0
            },
            "itm": {
                "ability": "cha",
                "breakdown": "Charisma +0, Untrained +0",
                "item": 0,
                "mod": 0,
                "name": "intimidation",
                "rank": 0,
                "totalModifier": 0,
                "value": 0
            },
            "med": {
                "ability": "wis",
                "breakdown": "Wisdom +2, Untrained +0",
                "item": 0,
                "mod": 2,
                "name": "medicine",
                "rank": 0,
                "totalModifier": 2,
                "value": 2
            },
            "nat": {
                "ability": "wis",
                "breakdown": "Wisdom +2, Untrained +0",
                "item": 0,
                "mod": 2,
                "name": "nature",
                "rank": 0,
                "totalModifier": 2,
                "value": 2
            },
            "occ": {
                "ability": "int",
                "breakdown": "Intelligence -4, Untrained +0",
                "item": 0,
                "mod": -4,
                "name": "occultism",
                "rank": 0,
                "totalModifier": -4,
                "value": -4
            },
            "prf": {
                "ability": "cha",
                "breakdown": "Charisma +0, Untrained +0",
                "item": 0,
                "mod": 0,
                "name": "performance",
                "rank": 0,
                "totalModifier": 0,
                "value": 0
            },
            "rel": {
                "ability": "wis",
                "breakdown": "Wisdom +2, Untrained +0",
                "item": 0,
                "mod": 2,
                "name": "religion",
                "rank": 0,
                "totalModifier": 2,
                "value": 2
            },
            "soc": {
                "ability": "int",
                "breakdown": "Intelligence -4, Untrained +0",
                "item": 0,
                "mod": -4,
                "name": "society",
                "rank": 0,
                "totalModifier": -4,
                "value": -4
            },
            "ste": {
                "ability": "dex",
                "armor": 1,
                "breakdown": "Dexterity +3, Trained +3",
                "item": 0,
                "mod": 3,
                "name": "stealth",
                "rank": 1,
                "totalModifier": 6,
                "value": 6
            },
            "sur": {
                "ability": "wis",
                "breakdown": "Wisdom +2, Untrained +0",
                "item": 0,
                "mod": 2,
                "name": "survival",
                "rank": 0,
                "totalModifier": 2,
                "value": 2
            },
            "thi": {
                "ability": "dex",
                "armor": 1,
                "breakdown": "Dexterity +3, Untrained +0",
                "item": 0,
                "mod": 3,
                "name": "thievery",
                "rank": 0,
                "totalModifier": 3,
                "value": 3
            }
        },
        "spells": {
            "spell0": {
                "max": 0
            },
            "spell1": {
                "max": 0
            },
            "spell10": {
                "max": 0
            },
            "spell11": {
                "max": 0
            },
            "spell2": {
                "max": 0
            },
            "spell3": {
                "max": 0
            },
            "spell4": {
                "max": 0
            },
            "spell5": {
                "max": 0
            },
            "spell6": {
                "max": 0
            },
            "spell7": {
                "max": 0
            },
            "spell8": {
                "max": 0
            },
            "spell9": {
                "max": 0
            }
        },
        "statusEffects": [],
        "traits": {
            "ci": [],
            "di": {
                "custom": "",
                "value": []
            },
            "dr": [],
            "dv": [],
            "languages": {
                "custom": "",
                "selected": [],
                "value": []
            },
            "rarity": {
                "value": "common"
            },
            "senses": [
                {
                    "exceptions": "",
                    "label": "Low-Light Vision",
                    "type": "lowLightVision",
                    "value": ""
                },
                {
                    "exceptions": "",
                    "label": "Scent",
                    "type": "scent",
                    "value": "30"
                }
            ],
            "size": {
                "value": "med"
            },
            "traits": {
                "custom": "",
                "value": []
            }
        }
    },
    "effects": [],
    "flags": {},
    "img": "systems/pf2e/icons/iconics/DroogamiFull.webp",
    "items": [
        {
            "_id": "9fYyQ35oz8p9WpDc",
            "data": {
                "actionCategory": {
                    "value": ""
                },
                "actionType": {
                    "value": "passive"
                },
                "actions": {
                    "value": ""
                },
                "description": {
                    "chat": "",
                    "unidentified": "",
                    "value": "<p>A creature with low-light vision can see in dim light as though it were bright light, so it ignores the concealed condition due to dim light.</p>"
                },
                "featType": {
                    "value": "ancestryfeature"
                },
                "level": {
                    "value": "1"
                },
                "prerequisites": {
                    "value": ""
                },
                "rules": [],
                "source": {
                    "value": ""
                },
                "traits": {
                    "custom": "",
                    "rarity": {
                        "value": "common"
                    },
                    "value": []
                },
                "usage": {
                    "value": "held-in-one-hand"
                }
            },
            "effects": [],
            "flags": {},
            "img": "systems/pf2e/icons/features/ancestry/low-light-vision.jpg",
            "name": "Low-Light Vision",
            "sort": 100001,
            "type": "feat"
        },
        {
            "_id": "2nDDHVXCAKgUqZmc",
            "data": {
                "MAP": {
                    "value": ""
                },
                "ability": {
                    "value": "str"
                },
                "bonus": {
                    "value": 0
                },
                "bonusDamage": {
                    "value": 0
                },
                "brokenThreshold": {
                    "value": 0
                },
                "bulkCapacity": {
                    "value": ""
                },
                "collapsed": {
                    "value": false
                },
                "containerId": {
                    "value": ""
                },
                "damage": {
                    "damageType": "slashing",
                    "dice": 1,
                    "die": "d4",
                    "value": ""
                },
                "description": {
                    "chat": "",
                    "unidentified": "",
                    "value": ""
                },
                "equipped": {
                    "value": false
                },
                "equippedBulk": {
                    "value": ""
                },
                "group": {
                    "value": ""
                },
                "hands": {
                    "value": ""
                },
                "hardness": {
                    "value": 0
                },
                "hp": {
                    "value": 0
                },
                "identification": {
                    "status": "identified"
                },
                "identified": {
                    "value": false
                },
                "invested": {
                    "value": false
                },
                "level": {
                    "value": "1"
                },
                "maxHp": {
                    "value": 0
                },
                "negateBulk": {
                    "value": "0"
                },
                "potencyRune": {
                    "value": ""
                },
                "preciousMaterial": {
                    "value": ""
                },
                "preciousMaterialGrade": {
                    "value": ""
                },
                "price": {
                    "value": "0"
                },
                "property1": {
                    "critDamage": "",
                    "critDamageType": "",
                    "critDice": null,
                    "critDie": "",
                    "criticalConditionType": "",
                    "criticalConditionValue": null,
                    "damageType": "",
                    "dice": null,
                    "die": "",
                    "strikeConditionType": "",
                    "strikeConditionValue": null,
                    "value": ""
                },
                "property2": {
                    "critDamage": "",
                    "critDamageType": "",
                    "critDice": 0,
                    "critDie": "",
                    "damageType": "",
                    "dice": 0,
                    "die": "",
                    "value": ""
                },
                "property3": {
                    "critDamage": "",
                    "critDamageType": "",
                    "critDice": 0,
                    "critDie": "",
                    "damageType": "",
                    "dice": 0,
                    "die": "",
                    "value": ""
                },
                "propertyRune1": {
                    "value": ""
                },
                "propertyRune2": {
                    "value": ""
                },
                "propertyRune3": {
                    "value": ""
                },
                "propertyRune4": {
                    "value": ""
                },
                "quantity": {
                    "value": "1"
                },
                "range": {
                    "value": "melee"
                },
                "reload": {
                    "value": ""
                },
                "rules": [],
                "size": {
                    "value": "med"
                },
                "source": {
                    "value": ""
                },
                "splashDamage": {
                    "value": 0
                },
                "stackGroup": {
                    "value": ""
                },
                "strikingRune": {
                    "value": ""
                },
                "traits": {
                    "custom": "",
                    "rarity": {
                        "value": "common"
                    },
                    "value": [
                        "agile",
                        "finesse"
                    ]
                },
                "usage": {
                    "value": "held-in-one-hand"
                },
                "weaponType": {
                    "value": "unarmed"
                },
                "weight": {
                    "value": "-"
                }
            },
            "effects": [],
            "flags": {},
            "img": "icons/svg/mystery-man.svg",
            "name": "Claws",
            "sort": 200001,
            "type": "weapon"
        },
        {
            "_id": "jaukqiEP55gktAjt",
            "data": {
                "MAP": {
                    "value": ""
                },
                "ability": {
                    "value": "str"
                },
                "bonus": {
                    "value": 0
                },
                "bonusDamage": {
                    "value": 0
                },
                "brokenThreshold": {
                    "value": 0
                },
                "bulkCapacity": {
                    "value": ""
                },
                "collapsed": {
                    "value": false
                },
                "containerId": {
                    "value": ""
                },
                "damage": {
                    "damageType": "bludgeoning",
                    "dice": 1,
                    "die": "d6",
                    "value": ""
                },
                "description": {
                    "chat": "",
                    "unidentified": "",
                    "value": ""
                },
                "equipped": {
                    "value": false
                },
                "equippedBulk": {
                    "value": ""
                },
                "group": {
                    "value": ""
                },
                "hands": {
                    "value": ""
                },
                "hardness": {
                    "value": 0
                },
                "hp": {
                    "value": 0
                },
                "identification": {
                    "status": "identified"
                },
                "identified": {
                    "value": false
                },
                "invested": {
                    "value": false
                },
                "level": {
                    "value": "0"
                },
                "maxHp": {
                    "value": 0
                },
                "negateBulk": {
                    "value": "0"
                },
                "potencyRune": {
                    "value": ""
                },
                "preciousMaterial": {
                    "value": ""
                },
                "preciousMaterialGrade": {
                    "value": ""
                },
                "price": {
                    "value": "0"
                },
                "property1": {
                    "critDamage": "",
                    "critDamageType": "",
                    "critDice": null,
                    "critDie": "",
                    "criticalConditionType": "",
                    "criticalConditionValue": null,
                    "damageType": "",
                    "dice": null,
                    "die": "",
                    "strikeConditionType": "",
                    "strikeConditionValue": null,
                    "value": ""
                },
                "property2": {
                    "critDamage": "",
                    "critDamageType": "",
                    "critDice": 0,
                    "critDie": "",
                    "damageType": "",
                    "dice": 0,
                    "die": "",
                    "value": ""
                },
                "property3": {
                    "critDamage": "",
                    "critDamageType": "",
                    "critDice": 0,
                    "critDie": "",
                    "damageType": "",
                    "dice": 0,
                    "die": "",
                    "value": ""
                },
                "propertyRune1": {
                    "value": ""
                },
                "propertyRune2": {
                    "value": ""
                },
                "propertyRune3": {
                    "value": ""
                },
                "propertyRune4": {
                    "value": ""
                },
                "quantity": {
                    "value": "1"
                },
                "range": {
                    "value": "melee"
                },
                "reload": {
                    "value": ""
                },
                "rules": [],
                "size": {
                    "value": "med"
                },
                "source": {
                    "value": ""
                },
                "splashDamage": {
                    "value": 0
                },
                "stackGroup": {
                    "value": ""
                },
                "strikingRune": {
                    "value": ""
                },
                "traits": {
                    "custom": "",
                    "rarity": {
                        "value": "common"
                    },
                    "value": [
                        "finesse"
                    ]
                },
                "usage": {
                    "value": "held-in-one-hand"
                },
                "weaponType": {
                    "value": "unarmed"
                },
                "weight": {
                    "value": "-"
                }
            },
            "effects": [],
            "flags": {},
            "img": "icons/svg/mystery-man.svg",
            "name": "Jaws",
            "sort": 300001,
            "type": "weapon"
        },
        {
            "_id": "yqzrrjnITj3F78j7",
            "data": {
                "actionCategory": {
                    "value": ""
                },
                "actionType": {
                    "value": "action"
                },
                "actions": {
                    "value": "1"
                },
                "description": {
                    "chat": "",
                    "unidentified": "",
                    "value": "<p>You attack with a weapon you're wielding or with an unarmed attack, targeting one creature within your reach (for a melee attack) or within range (for a ranged attack). Roll the attack roll for the weapon or unarmed attack you are using, and compare the result to the target creature's AC to determine the effect. See Attack Rolls on page 446 and Damage on page 450 for details on calculating your attack and damage rolls.<br /><br /><strong>Critical Success</strong> As success, but you deal double damage.<br /><strong>Success</strong> You deal damage according to the weapon or unarmed attack, including any modifiers, bonuses, and penalties you have to damage.</p>"
                },
                "requirements": {
                    "value": ""
                },
                "rules": [],
                "source": {
                    "value": ""
                },
                "traits": {
                    "custom": "",
                    "rarity": {
                        "value": "common"
                    },
                    "value": [
                        "attack"
                    ]
                },
                "trigger": {
                    "value": ""
                },
                "usage": {
                    "value": "held-in-one-hand"
                },
                "weapon": {
                    "value": ""
                }
            },
            "effects": [],
            "flags": {},
            "img": "systems/pf2e/icons/actions/OneAction.png",
            "name": "Strike",
            "sort": -100000,
            "type": "action"
        },
        {
            "_id": "ZmMwAcQbGhhM5qIm",
            "data": {
                "actionCategory": {
                    "value": ""
                },
                "actionType": {
                    "value": "action"
                },
                "actions": {
                    "value": "1"
                },
                "description": {
                    "chat": "",
                    "unidentified": "",
                    "value": "<p><strong>Requirements</strong> Your Speed is at least 10 feet.</p>\n<hr />\n<p>You carefully move 5 feet. Unlike most types of movement, Stepping doesn't trigger reactions, such as @Compendium[pf2e.feats-srd.Attack of Opportunity (Fighter)]{Attack of Opportunity}, that can be triggered by move actions or upon leaving or entering a square.</p>\n<p>You can't Step into difficult terrain, and you can't Step using a Speed other than your land Speed.</p>"
                },
                "requirements": {
                    "value": ""
                },
                "rules": [],
                "source": {
                    "value": ""
                },
                "traits": {
                    "custom": "",
                    "rarity": {
                        "value": "common"
                    },
                    "value": [
                        "move",
                        "general"
                    ]
                },
                "trigger": {
                    "value": ""
                },
                "usage": {
                    "value": "held-in-one-hand"
                },
                "weapon": {
                    "value": ""
                }
            },
            "effects": [],
            "flags": {},
            "img": "systems/pf2e/icons/actions/OneAction.png",
            "name": "Step",
            "sort": -75000,
            "type": "action"
        },
        {
            "_id": "40vIoYH5LE8OB3Ve",
            "data": {
                "actionCategory": {
                    "value": ""
                },
                "actionType": {
                    "value": "action"
                },
                "actions": {
                    "value": "1"
                },
                "description": {
                    "chat": "",
                    "unidentified": "",
                    "value": "<p>You move up to your Speed.</p>"
                },
                "requirements": {
                    "value": ""
                },
                "rules": [],
                "source": {
                    "value": ""
                },
                "traits": {
                    "custom": "",
                    "rarity": {
                        "value": "common"
                    },
                    "value": [
                        "move",
                        "general"
                    ]
                },
                "trigger": {
                    "value": ""
                },
                "usage": {
                    "value": "held-in-one-hand"
                },
                "weapon": {
                    "value": ""
                }
            },
            "effects": [],
            "flags": {},
            "img": "systems/pf2e/icons/actions/OneAction.png",
            "name": "Stride",
            "sort": -50000,
            "type": "action"
        },
        {
            "_id": "rLiCdwYUbCWHg2jZ",
            "data": {
                "actionCategory": {
                    "value": ""
                },
                "actionType": {
                    "value": "action"
                },
                "actions": {
                    "value": "1"
                },
                "description": {
                    "chat": "",
                    "unidentified": "",
                    "value": "<p>You stand up from prone.</p>"
                },
                "requirements": {
                    "value": ""
                },
                "rules": [],
                "source": {
                    "value": ""
                },
                "traits": {
                    "custom": "",
                    "rarity": {
                        "value": "common"
                    },
                    "value": [
                        "move",
                        "general"
                    ]
                },
                "trigger": {
                    "value": ""
                },
                "usage": {
                    "value": "held-in-one-hand"
                },
                "weapon": {
                    "value": ""
                }
            },
            "effects": [],
            "flags": {},
            "img": "systems/pf2e/icons/actions/OneAction.png",
            "name": "Stand",
            "sort": 1912501,
            "type": "action"
        },
        {
            "_id": "WCzzFpOzBKgR9wYq",
            "data": {
                "actionCategory": {
                    "value": ""
                },
                "actionType": {
                    "value": "action"
                },
                "actions": {
                    "value": "1"
                },
                "description": {
                    "chat": "",
                    "unidentified": "",
                    "value": "<p>You attempt to escape from being grabbed, immobilized, or restrained. Choose one creature, object, spell effect, hazard, or other impediment imposing any of those conditions on you. Attempt a check using your unarmed attack modifier against the DC of the effect. This is typically the Athletics DC of a creature grabbing you, the Thievery DC of a creature who tied you up, the spell DC for a spell effect, or the listed Escape DC of an object, hazard, or other impediment. You can attempt an Acrobatics or Athletics check instead of using your attack modifier if you choose (but this action still has the attack trait).<br /><br /><strong>Critical Success</strong> You get free and remove the grabbed, immobilized, and restrained conditions imposed by your chosen target. You can then Stride up to 5 feet.<br /><strong>Success</strong> You get free and remove the grabbed, immobilized, and restrained conditions imposed by your chosen target.<br /><strong>Critical Failure</strong> You don't get free, and you can't attempt to Escape again until your next turn.</p>"
                },
                "requirements": {
                    "value": ""
                },
                "rules": [],
                "source": {
                    "value": ""
                },
                "traits": {
                    "custom": "",
                    "rarity": {
                        "value": "common"
                    },
                    "value": [
                        "attack",
                        "general"
                    ]
                },
                "trigger": {
                    "value": ""
                },
                "usage": {
                    "value": "held-in-one-hand"
                },
                "weapon": {
                    "value": ""
                }
            },
            "effects": [],
            "flags": {},
            "img": "systems/pf2e/icons/actions/OneAction.png",
            "name": "Escape",
            "sort": 1975001,
            "type": "action"
        },
        {
            "_id": "s6Ax9eANfPkiy3BD",
            "data": {
                "actionCategory": {
                    "value": ""
                },
                "actionType": {
                    "value": "action"
                },
                "actions": {
                    "value": "1"
                },
                "description": {
                    "chat": "",
                    "unidentified": "",
                    "value": "<p>You scan an area for signs of creatures or objects. If you're looking for creatures, choose an area you're scanning. If precision is necessary, the GM can have you select a 30-foot cone or a 15-foot burst within line of sight. You might take a penalty if you choose an area that's far away.<br /><br />If you're using Seek to search for objects (including secret doors and hazards), you search up to a 10-foot square adjacent to you. The GM might determine you need to Seek as an activity, taking more actions or even minutes or hours if you're searching a particularly cluttered area.<br /><br />The GM attempts a single secret Perception check for you and compares the result to the Stealth DCs of any undetected or hidden creatures in the area or the DC to detect each object in the area (as determined by the GM or by someone Concealing the Object). A creature you detect might remain hidden, rather than becoming observed, if you're using an imprecise sense or if an effect (such as invisibility) prevents the subject from being observed.<br /><br /><strong>Critical Success</strong> If you were searching for creatures, any undetected or hidden creature you critically succeeded against becomes observed by you. If you were searching for an object, you learn its location.<br /><strong>Success</strong> If you were searching for creatures, any undetected creature you succeeded against becomes hidden from you instead of undetected, and any hidden creature you succeeded against becomes observed by you. If you were searching for an object, you learn its location or get a clue to its whereabouts, as determined by the GM.</p>"
                },
                "requirements": {
                    "value": ""
                },
                "rules": [],
                "source": {
                    "value": ""
                },
                "traits": {
                    "custom": "",
                    "rarity": {
                        "value": "common"
                    },
                    "value": [
                        "concentrate",
                        "secret"
                    ]
                },
                "trigger": {
                    "value": ""
                },
                "usage": {
                    "value": "held-in-one-hand"
                },
                "weapon": {
                    "value": ""
                }
            },
            "effects": [],
            "flags": {},
            "img": "systems/pf2e/icons/actions/OneAction.png",
            "name": "Seek",
            "sort": 2600001,
            "type": "action"
        },
        {
            "_id": "ShHbhEKWmTipLvbb",
            "data": {
                "actionCategory": {
                    "value": "offensive"
                },
                "actionType": {
                    "value": "action"
                },
                "actions": {
                    "value": "1"
                },
                "description": {
                    "chat": "",
                    "unidentified": "",
                    "value": "<p>Your cat throws your enemies off-balance when you create an opening. Until the start of your next turn, your strikes that deal damage to a creature that Droogami threatens make the target flat-footed until the end of your next turn.</p>"
                },
                "requirements": {
                    "value": ""
                },
                "rules": [],
                "source": {
                    "value": ""
                },
                "traits": {
                    "custom": "",
                    "rarity": {
                        "value": "common"
                    },
                    "value": []
                },
                "trigger": {
                    "value": ""
                },
                "usage": {
                    "value": "held-in-one-hand"
                },
                "weapon": {
                    "value": ""
                }
            },
            "effects": [],
            "flags": {},
            "img": "systems/pf2e/icons/actions/OneAction.png",
            "name": "Support (Cat)",
            "sort": 931251,
            "type": "action"
        },
        {
            "_id": "Rr5MKKi8iTQq0Xzb",
            "data": {
                "actionCategory": {
                    "value": ""
                },
                "actionType": {
                    "value": "passive"
                },
                "actions": {
                    "value": ""
                },
                "description": {
                    "chat": "",
                    "unidentified": "",
                    "value": "<p><span style=\"color: #1c1c1c; font-family: Gelasio, sans-serif; text-align: justify;\">Droogami deals [[/r 1d4 #precision]] extra precision damage against flat-footed targets.</span></p>"
                },
                "requirements": {
                    "value": ""
                },
                "rules": [],
                "source": {
                    "value": ""
                },
                "traits": {
                    "custom": "",
                    "rarity": {
                        "value": "common"
                    },
                    "value": []
                },
                "trigger": {
                    "value": ""
                },
                "usage": {
                    "value": "held-in-one-hand"
                },
                "weapon": {
                    "value": ""
                }
            },
            "effects": [],
            "flags": {},
            "img": "icons/svg/mystery-man.svg",
            "name": "Sneak Attack",
            "sort": 2700001,
            "type": "action"
        }
    ],
    "name": "Droogami (Level 1)",
    "permission": {
        "default": 0
    },
    "token": {
        "actorData": {},
        "actorId": "UznKHAei13XNsMUP",
        "actorLink": true,
        "bar1": {
            "attribute": "attributes.hp"
        },
        "bar2": {
            "attribute": ""
        },
        "brightLight": 0,
        "brightSight": 0,
        "dimLight": 0,
        "dimSight": 300,
        "displayBars": 20,
        "displayName": 20,
        "disposition": 1,
        "flags": {},
        "height": 1,
        "img": "systems/pf2e/icons/iconics/Droogami.webp",
        "lightAlpha": 1,
        "lightAngle": 360,
        "lightColor": "",
        "lockRotation": false,
        "mirrorX": false,
        "mirrorY": false,
        "name": "Droogami (Level 1)",
        "randomImg": false,
        "rotation": 0,
        "scale": 1,
        "sightAngle": 360,
        "tint": "",
        "vision": true,
        "width": 1
    },
    "type": "character"
}
