{
    "_id": "0b3TTeQGFOiy6ykz",
    "data": {
        "actionCategory": {
            "value": ""
        },
        "actionType": {
            "value": "action"
        },
        "actions": {
            "value": ""
        },
        "description": {
            "value": "<p>You change into your humanoid or hybrid shape. Each shape has a specific, persistent appearance, and most beastkin remain in their hybrid shapes by default. In hybrid shape, you appear as a mix between your ancestry and your inherent animal. While in hybrid shape, you gain a jaws unarmed Strike resembling the features of your inherent animal (fangs for bats, beaks for eagles, mandibles for wasps, and so on). Your jaws deal 1d4 piercing damage, have the agile, finesse, and unarmed traits, and are in the brawling weapon group. In your humanoid shape, you retain the appearance of your original ancestry.</p>"
        },
        "requirements": {
            "value": ""
        },
        "rules": [],
        "source": {
            "value": ""
        },
        "traits": {
            "custom": "",
            "rarity": {
                "value": "common"
            },
            "value": [
                "concentrate",
                "polymorph",
                "primal",
                "transmutation"
            ]
        },
        "trigger": {
            "value": ""
        },
        "weapon": {
            "value": ""
        }
    },
    "effects": [],
    "flags": {},
    "img": "systems/pf2e/icons/actions/OneAction.png",
    "name": "Change Shape (Beastkin)",
    "permission": {
        "default": 0
    },
    "type": "action"
}
