{
    "_id": "bp0Up04x3dzGK5bB",
    "data": {
        "actionCategory": {
            "value": ""
        },
        "actionType": {
            "value": "free"
        },
        "actions": {
            "value": ""
        },
        "description": {
            "chat": "",
            "unidentified": "",
            "value": "<p><strong>Trigger</strong> Your Strike hits a flat-footed creature and deals damage</p>\n<hr />\n<p>You apply one of the following debilitations, which lasts until the end of your next turn:</p>\n<ul>\n<li><strong>Debilitation</strong> The target takes a -10-foot status penalty to its Speeds.</li>\n<li><strong>Debilitation</strong> The target becomes @Compendium[pf2e.conditionitems.Enfeebled]{Enfeebled} 1.</li>\n</ul>"
        },
        "requirements": {
            "value": ""
        },
        "rules": [],
        "source": {
            "value": ""
        },
        "traits": {
            "custom": "",
            "rarity": {
                "value": "common"
            },
            "value": [
                "rogue"
            ]
        },
        "trigger": {
            "value": ""
        },
        "weapon": {
            "value": ""
        }
    },
    "effects": [],
    "flags": {},
    "img": "systems/pf2e/icons/actions/FreeAction.png",
    "name": "Debilitating Strike",
    "permission": {
        "default": 0
    },
    "type": "action"
}
