{
    "_id": "TMBXArwICQRJdwT6",
    "data": {
        "actionCategory": {
            "value": ""
        },
        "actionType": {
            "value": "free"
        },
        "actions": {
            "value": ""
        },
        "description": {
            "chat": "",
            "unidentified": "",
            "value": "<p><strong>Frequency</strong>: once per day<br /><strong>Trigger</strong>: You attempt a skill check and haven't yet rolled</p>\n<hr />\n<p><strong>Effect</strong>: Roll the skill check twice and use the better result</p>"
        },
        "requirements": {
            "value": ""
        },
        "rules": [],
        "source": {
            "value": ""
        },
        "traits": {
            "custom": "",
            "rarity": {
                "value": "common"
            },
            "selected": {},
            "value": [
                "concentrate",
                "fortune"
            ]
        },
        "trigger": {
            "value": ""
        },
        "weapon": {
            "value": ""
        }
    },
    "effects": [],
    "flags": {},
    "img": "systems/pf2e/icons/actions/FreeAction.png",
    "name": "Fey's Fortune",
    "permission": {
        "default": 0
    },
    "type": "action"
}
