{
    "_id": "QHFMeJGzFWj2QczA",
    "data": {
        "actionCategory": {
            "value": ""
        },
        "actionType": {
            "value": "action"
        },
        "actions": {
            "value": "1"
        },
        "description": {
            "chat": "",
            "unidentified": "",
            "value": "<p><strong>Cost</strong> 1 versatile vial</p>\n<p><strong>Requirements</strong> You know the formula for the alchemical item you're creating, you are holding or wearing alchemist's tools, and you have a free hand.</p>\n<hr />\n<p>You quickly brew up a short-lived tincture. You create a single alchemical elixir or tool of your level or lower without having to spend the normal monetary cost in alchemical reagents or needing to attempt a Crafting check. This item has the infused trait, but it remains potent only until the end of the current turn.</p>"
        },
        "requirements": {
            "value": ""
        },
        "rules": [],
        "source": {
            "value": ""
        },
        "traits": {
            "custom": "",
            "rarity": {
                "value": "common"
            },
            "value": [
                "investigator",
                "manipulate"
            ]
        },
        "trigger": {
            "value": ""
        },
        "weapon": {
            "value": ""
        }
    },
    "effects": [],
    "flags": {},
    "img": "systems/pf2e/icons/actions/OneAction.png",
    "name": "Quick Tincture",
    "permission": {
        "default": 0
    },
    "type": "action"
}
