{
    "_id": "bP40jr6wE6MCsRvY",
    "data": {
        "description": {
            "chat": "",
            "unidentified": "",
            "value": "<p>Granted by @Compendium[pf2e.equipment-srd.Golden Legion Epaulet]{Golden Legion Epaulet}.</p>\n<p>Automatically applied effects:</p>\n<ul>\n<li>+1 status bonus to attack rolls</li>\n<li>+1 status bonus to damage rolls</li>\n<li>+1 status bonus to saving throws against fear</li>\n</ul>"
        },
        "duration": {
            "expiry": "turn-start",
            "sustained": false,
            "unit": "rounds",
            "value": 0
        },
        "level": {
            "value": 3
        },
        "rules": [
            {
                "key": "PF2E.RuleElement.FlatModifier",
                "selector": "attack",
                "type": "status",
                "value": 1
            },
            {
                "key": "PF2E.RuleElement.FlatModifier",
                "selector": "damage",
                "type": "status",
                "value": 1
            },
            {
                "key": "PF2E.RuleElement.FlatModifier",
                "label": "Golden Legion Epaulets (vs fear)",
                "predicate": {
                    "all": [
                        "fear"
                    ]
                },
                "selector": "saving-throw",
                "type": "status",
                "value": 1
            },
            {
                "key": "PF2E.RuleElement.TokenEffectIcon"
            }
        ],
        "source": {
            "value": ""
        },
        "start": {
            "initiative": null,
            "value": 0
        },
        "traits": {
            "custom": "",
            "rarity": {
                "value": "common"
            },
            "value": []
        }
    },
    "effects": [],
    "flags": {},
    "img": "systems/pf2e/icons/equipment/worn-items/other-worn-items/golden-legion-epaulet.jpg",
    "name": "Effect: Golden Legion Epaulet",
    "permission": {
        "default": 0
    },
    "type": "effect"
}
