{
    "_id": "5gwqSpkRqWzrbDDU",
    "data": {
        "description": {
            "chat": "",
            "unidentified": "",
            "value": "<p>It takes no damage when it succeeds at Will saves; this doesn't prevent effects other than damage.</p>"
        },
        "level": {
            "value": 1
        },
        "rules": [],
        "source": {
            "value": ""
        },
        "traits": {
            "custom": "",
            "rarity": {
                "value": "common"
            },
            "value": []
        }
    },
    "effects": [],
    "flags": {},
    "img": "icons/svg/mystery-man.svg",
    "name": "Damage Avoidance: Will",
    "permission": {
        "default": 0
    },
    "type": "effect"
}
