{
    "_id": "uUrsZ4WvhjKjFjnt",
    "data": {
        "description": {
            "chat": "",
            "unidentified": "",
            "value": "<p>Your familiar can carry a set of tools of up to light Bulk. So long as your familiar is adjacent to you, you can draw and replace the tools as part of the action that uses them as if you were wearing them. Your familiar must have the manual dexterity ability to select this.</p>"
        },
        "level": {
            "value": 1
        },
        "rules": [],
        "source": {
            "value": ""
        },
        "traits": {
            "custom": "",
            "rarity": {
                "value": "common"
            },
            "value": []
        }
    },
    "effects": [],
    "flags": {},
    "img": "icons/svg/mystery-man.svg",
    "name": "Toolbearer",
    "permission": {
        "default": 0
    },
    "type": "effect"
}
