{
    "_id": "9PsptrEoCC4QdM23",
    "data": {
        "description": {
            "chat": "",
            "unidentified": "",
            "value": "<p>You can command your familiar to deliver you items more efficiently. Your familiar doesn't use its 2 actions immediately upon your command. Instead, up to twice before the end of your turn, you can have your familiar Interact to retrieve an item of light or negligible Bulk you are wearing and place it into one of your free hands. The familiar can't use this ability to retrieve stowed items. If the familiar has a different number of actions, it can retrieve one item for each action it has when commanded this way.</p>"
        },
        "level": {
            "value": 1
        },
        "rules": [],
        "source": {
            "value": ""
        },
        "traits": {
            "custom": "",
            "rarity": {
                "value": "common"
            },
            "value": []
        }
    },
    "effects": [],
    "flags": {},
    "img": "icons/svg/mystery-man.svg",
    "name": "Valet",
    "permission": {
        "default": 0
    },
    "type": "effect"
}
