{
    "_id": "wyLEew86nhNUXASu",
    "data": {
        "description": {
            "chat": "",
            "unidentified": "",
            "value": "<p>Granted by @Compendium[pf2e.equipment-srd.Eagle Eye Elixir (Major)]{Eagle Eye Elixir (Major)}</p>\n<p>Implemented effects:</p>\n<ul>\n<li>+3 item bonus to Perception checks</li>\n<li>+4 item bonus to Perception checks to find secret doors and traps</li>\n</ul>\n<p>Unimplemented effects:</p>\n<ul>\n<li>Each time you pass within 10 feet of a secret door or trap, the GM automatically rolls a secret check for you to find it.</li>\n</ul>"
        },
        "duration": {
            "expiry": "turn-start",
            "sustained": false,
            "unit": "hours",
            "value": 1
        },
        "level": {
            "value": 16
        },
        "rules": [
            {
                "key": "PF2E.RuleElement.FlatModifier",
                "label": "Eagle Eye Elixir (Major)",
                "selector": "perception",
                "type": "item",
                "value": 3
            },
            {
                "key": "PF2E.RuleElement.FlatModifier",
                "label": "Eagle Eye Elixir Major (secret doors & traps)",
                "predicate": {
                    "all": [
                        "secret doors and traps"
                    ]
                },
                "selector": "perception",
                "type": "item",
                "value": 4
            },
            {
                "key": "PF2E.RuleElement.TokenEffectIcon"
            }
        ],
        "source": {
            "value": ""
        },
        "start": {
            "initiative": null,
            "value": 0
        },
        "traits": {
            "custom": "",
            "rarity": {
                "value": "common"
            },
            "value": []
        }
    },
    "effects": [],
    "flags": {},
    "img": "systems/pf2e/icons/equipment/alchemical-items/alchemical-elixirs/eagle-eyes-elixir.jpg",
    "name": "Effect: Eagle Eye Elixir (Major)",
    "permission": {
        "default": 0
    },
    "type": "effect"
}
