{
    "_id": "V6iJ4v15Qc8awVCH",
    "data": {
        "actionCategory": {
            "value": ""
        },
        "actionType": {
            "value": "passive"
        },
        "actions": {
            "value": ""
        },
        "description": {
            "chat": "",
            "unidentified": "",
            "value": "<p>Your celestial powers allow you to remove lesser afflictions with ease.</p>\n<p>Each day, you can cast two 4th-level divine innate spells. You can choose from the following spells each time you cast: @Compendium[pf2e.spells-srd.Remove Curse]{Remove Curse}, @Compendium[pf2e.spells-srd.Remove Disease]{Remove Disease}, and @Compendium[pf2e.spells-srd.Neutralize Poison]{Neutralize Poison}.</p>"
        },
        "featType": {
            "value": "ancestry"
        },
        "level": {
            "value": "13"
        },
        "prerequisites": {
            "value": [
                ""
            ]
        },
        "rules": [],
        "source": {
            "value": ""
        },
        "traits": {
            "custom": "",
            "rarity": {
                "value": "common"
            },
            "value": [
                "aasimar"
            ]
        }
    },
    "effects": [],
    "flags": {},
    "img": "systems/pf2e/icons/features/feats/feats.jpg",
    "name": "Aasimar's Mercy",
    "permission": {
        "default": 0
    },
    "type": "feat"
}
