{
    "_id": "oTTddwzF9TPNkMyd",
    "data": {
        "actionCategory": {
            "value": ""
        },
        "actionType": {
            "value": "reaction"
        },
        "actions": {
            "value": ""
        },
        "description": {
            "chat": "",
            "unidentified": "",
            "value": "<p><strong>Trigger</strong> An ally within 30 feet @Compendium[pf2e.actionspf2e.Cast a Spell]{Casts a Spell}.</p>\n<hr />\n<p>You use your performances to supplement an ally's spellcasting, providing magical energy for their spells.</p>\n<p>Attempt a Performance check, using a very high DC for the ally's level (<em>Core Rulebook</em> 503-504), and either spend a Focus Point (if the triggering spell is a focus spell) or expend a spell slot at least 1 level higher than the triggering spell. If you succeed at the Performance check, your ally's spell doesn't cost the Focus Point or spell slot.</p>"
        },
        "featType": {
            "value": "class"
        },
        "level": {
            "value": "8"
        },
        "prerequisites": {
            "value": [
                ""
            ]
        },
        "rules": [],
        "source": {
            "value": ""
        },
        "traits": {
            "custom": "",
            "rarity": {
                "value": "common"
            },
            "value": [
                "bard",
                "concentrate",
                "manipulate"
            ]
        }
    },
    "effects": [],
    "flags": {},
    "img": "systems/pf2e/icons/features/feats/feats.jpg",
    "name": "Accompany",
    "permission": {
        "default": 0
    },
    "type": "feat"
}
