{
    "_id": "Zn2ySapQ2gtgyWgW",
    "data": {
        "actionCategory": {
            "value": ""
        },
        "actionType": {
            "value": "action"
        },
        "actions": {
            "value": "2"
        },
        "description": {
            "chat": "",
            "unidentified": "",
            "value": "<p><strong>Requirements</strong> You are wielding a shield.</p>\n<hr />\n<p>Inspired by the tale of Arnisant, you transform your shield into a magic ward. Until the beginning of your next turn, you gain the @Compendium[pf2e.actionspf2e.Absorb into the Aegis]{Absorb into the Aegis} reaction.</p>"
        },
        "featType": {
            "value": "archetype"
        },
        "level": {
            "value": 12
        },
        "prerequisites": [
            "Knight Vigilant",
            "Shield Block",
            "master in Religion"
        ],
        "rules": [],
        "source": {
            "value": ""
        },
        "traits": {
            "custom": "",
            "rarity": {
                "value": "common"
            },
            "value": [
                "archetype"
            ]
        }
    },
    "effects": [],
    "flags": {},
    "img": "systems/pf2e/icons/features/feats/feats.jpg",
    "name": "Aegis of Arnisant",
    "permission": {
        "default": 0
    },
    "type": "feat"
}
