{
    "_id": "Q8XZYvatnYo4VlAQ",
    "data": {
        "actionCategory": {
            "value": ""
        },
        "actionType": {
            "value": "passive"
        },
        "actions": {
            "value": ""
        },
        "description": {
            "value": "<p>The harmonious magic of Nirvana flows through you. You can cast @Compendium[pf2e.spells-srd.Animal Form]{Animal Form} and @Compendium[pf2e.spells-srd.Calm Emotions]{Calm Emotions} each once per day as 2nd-level divine innate spells.</p>"
        },
        "featType": {
            "value": "ancestry"
        },
        "level": {
            "value": 9
        },
        "location": "",
        "prerequisites": [
            "Idyllkin"
        ],
        "rules": [],
        "source": {
            "value": ""
        },
        "traits": {
            "custom": "",
            "rarity": {
                "value": "common"
            },
            "value": [
                "aasimar"
            ]
        }
    },
    "effects": [],
    "flags": {},
    "img": "systems/pf2e/icons/features/feats/feats.jpg",
    "name": "Agathion Magic",
    "permission": {
        "default": 0
    },
    "type": "feat"
}
