{
    "_id": "ALR9knJdktuMWzr4",
    "data": {
        "actionCategory": {
            "value": ""
        },
        "actionType": {
            "value": "passive"
        },
        "actions": {
            "value": ""
        },
        "description": {
            "value": "<p>You become familiar with using your weapons both in and out of water. Whenever you critically hit using an azarketi weapon or one of the weapons listed in @Compendium[pf2e.feats-srd.Azarketi Weapon Familiarity]{Azarketi Weapon Familiarity}, you apply the weapon’s critical specialization effect.</p>"
        },
        "featType": {
            "value": "ancestry"
        },
        "level": {
            "value": 5
        },
        "location": "",
        "prerequisites": [
            "Azarketi Weapon Familiarity"
        ],
        "rules": [],
        "source": {
            "value": ""
        },
        "traits": {
            "custom": "",
            "rarity": {
                "value": "common"
            },
            "value": [
                "azarketi"
            ]
        }
    },
    "effects": [],
    "flags": {},
    "img": "systems/pf2e/icons/default-icons/feats.jpg",
    "name": "Azarketi Weapon Aptitude",
    "permission": {
        "default": 0
    },
    "type": "feat"
}
