{
    "_id": "XYaaj872JOO9CAws",
    "data": {
        "actionCategory": {
            "value": ""
        },
        "actionType": {
            "value": "action"
        },
        "actions": {
            "value": "2"
        },
        "description": {
            "chat": "",
            "unidentified": "",
            "value": "<p><strong>Requirements</strong> You are in Rain of Embers Stance.</p>\n<hr />\n<p>You rush forward and latch onto your enemy with talons of hungering fire. Stride once. If you end your movement within reach of at least one enemy, you can make a fire talon Strike against that enemy that deals an additional <a class=\"inline-roll roll\" title=\"persistent fire\" data-mode=\"roll\" data-flavor=\"persistent fire\" data-formula=\"1d4\"><i class=\"fas fa-dice-d20\"></i> 1d4</a> persistent fire damage. If it hits and deals damage, you can attempt an Athletics check to @Compendium[pf2e.actionspf2e.Grapple]{Grapple} the creature you hit.</p>"
        },
        "featType": {
            "value": "class"
        },
        "level": {
            "value": "6"
        },
        "prerequisites": {
            "value": [
                "Rain of Embers Stance"
            ]
        },
        "rules": [],
        "source": {
            "value": ""
        },
        "traits": {
            "custom": "",
            "rarity": {
                "value": "common"
            },
            "value": [
                "fire",
                "flourish",
                "monk"
            ]
        }
    },
    "effects": [],
    "flags": {},
    "img": "systems/pf2e/icons/features/feats/feats.jpg",
    "name": "Blazing Talon Surge",
    "permission": {
        "default": 0
    },
    "type": "feat"
}
