{
    "_id": "JvTSfyCkG70bmY7f",
    "data": {
        "actionCategory": {
            "value": ""
        },
        "actionType": {
            "value": "passive"
        },
        "actions": {
            "value": ""
        },
        "description": {
            "chat": "",
            "unidentified": "",
            "value": "<p>Your lethal unarmed attacks leave bloody gouges or cause severe internal bleeding. When you critically hit with a @Compendium[pf2e.actionspf2e.Strike]{Strike} using an unarmed attack that isn't nonlethal, the target takes [[/r 1d4 #persistent bleed]] persistent bleed damage.</p>\n<p>This can be because you're taking the penalty to use a fist for a lethal attack or because you have an unarmed attack without the nonlethal trait due to @Compendium[pf2e.feats-srd.Iron Fists]{Iron Fists}, @Compendium[pf2e.feats-srd.Tusks (Orc)]{Tusks}, or a similar ability.</p>"
        },
        "featType": {
            "value": "ancestry"
        },
        "level": {
            "value": "5"
        },
        "prerequisites": {
            "value": [
                ""
            ]
        },
        "rules": [],
        "source": {
            "value": ""
        },
        "traits": {
            "custom": "",
            "rarity": {
                "value": "common"
            },
            "value": [
                "orc"
            ]
        }
    },
    "effects": [],
    "flags": {},
    "img": "systems/pf2e/icons/features/feats/feats.jpg",
    "name": "Bloody Blows",
    "permission": {
        "default": 0
    },
    "type": "feat"
}
