{
    "_id": "IFvjnLMw3ht8f84U",
    "data": {
        "actionCategory": {
            "value": ""
        },
        "actionType": {
            "value": "passive"
        },
        "actions": {
            "value": ""
        },
        "description": {
            "chat": "",
            "unidentified": "",
            "value": "<p>You are among the most common of changelings-those born to green hags-and a vibrant green eye signifies that parentage. Your mother's manipulative nature and versatile voice gives you an edge when deceiving others.</p>\n<p>You gain the @Compendium[pf2e.feats-srd.Charming Liar]{Charming Liar} skill feat. If you roll Deception for initiative, foes in that combat encounter that haven't acted yet are @Compendium[pf2e.conditionitems.Flat-Footed]{Flat-Footed} against you.</p>"
        },
        "featType": {
            "value": "ancestry"
        },
        "level": {
            "value": "1"
        },
        "prerequisites": {
            "value": [
                ""
            ]
        },
        "rules": [],
        "source": {
            "value": ""
        },
        "traits": {
            "custom": "",
            "rarity": {
                "value": "common"
            },
            "value": [
                "changeling",
                "lineage"
            ]
        }
    },
    "effects": [],
    "flags": {},
    "img": "systems/pf2e/icons/features/feats/feats.jpg",
    "name": "Callow May",
    "permission": {
        "default": 0
    },
    "type": "feat"
}
