{
    "_id": "0qshtd4mBcjFAxA8",
    "data": {
        "actionCategory": {
            "value": ""
        },
        "actionType": {
            "value": "passive"
        },
        "actions": {
            "value": ""
        },
        "description": {
            "chat": "",
            "unidentified": "",
            "value": "<p>The life energy that helped create the first hobgoblins is particularly potent in you, protecting you from ongoing maladies. When you succeed at a saving throw against a disease or poison, you reduce the stage by 2 (or 1 for a virulent disease or poison), and when you critically succeed, you reduce the stage by 3 (or 2 for a virulent disease or poison).</p>"
        },
        "featType": {
            "value": "ancestry"
        },
        "level": {
            "value": 1
        },
        "location": "",
        "prerequisites": [],
        "rules": [],
        "source": {
            "value": ""
        },
        "traits": {
            "custom": "",
            "rarity": {
                "value": "common"
            },
            "value": [
                "hobgoblin"
            ]
        },
        "usage": {
            "value": ""
        }
    },
    "effects": [],
    "flags": {},
    "img": "systems/pf2e/icons/features/feats/feats.jpg",
    "name": "Cantorian Reinforcement",
    "permission": {
        "default": 0
    },
    "type": "feat"
}
