{
    "_id": "YOU5eCD5S4cS6Qeu",
    "data": {
        "actionCategory": {
            "value": ""
        },
        "actionType": {
            "value": "free"
        },
        "actions": {
            "value": ""
        },
        "description": {
            "chat": "",
            "unidentified": "",
            "value": "<p><strong>Frequency</strong> once per day</p>\n<p><strong>Requirements</strong> You haven't yet acted on your turn.</p>\n<hr />\n<p>You call upon your Cascade Bearer training to help you adjust a spell for the current situation. Until the end of your turn, you gain a single metamagic feat from the druid class or the wizard class that has a level requirement of no more than half your level.</p>"
        },
        "featType": {
            "value": "class"
        },
        "level": {
            "value": 6
        },
        "prerequisites": [
            "Magaambyan Attendant Dedication",
            "Cascade Bearers affiliation"
        ],
        "rules": [],
        "source": {
            "value": ""
        },
        "traits": {
            "custom": "",
            "rarity": {
                "value": "common"
            },
            "value": [
                "archetype",
                "metamagic"
            ]
        }
    },
    "effects": [],
    "flags": {},
    "img": "systems/pf2e/icons/features/feats/feats.jpg",
    "name": "Cascade Bearer's Flexibility",
    "permission": {
        "default": 0
    },
    "type": "feat"
}
