{
    "_id": "dgpoTae18H4zc9fH",
    "data": {
        "actionCategory": {
            "value": ""
        },
        "actionType": {
            "value": "passive"
        },
        "actions": {
            "value": ""
        },
        "description": {
            "chat": "",
            "unidentified": "",
            "value": "<p>Whenever you gain a class feature that grants you expert or greater proficiency in certain weapons, you also gain that proficiency rank in all weapons you are trained in from Catfolk Weapon Familiarity.</p>"
        },
        "featType": {
            "value": "ancestry"
        },
        "level": {
            "value": "13"
        },
        "prerequisites": {
            "value": [
                "Catfolk Weapon Familiarity"
            ]
        },
        "rules": [],
        "source": {
            "value": ""
        },
        "traits": {
            "custom": "",
            "rarity": {
                "value": "common"
            },
            "value": [
                "catfolk"
            ]
        }
    },
    "effects": [],
    "flags": {},
    "img": "systems/pf2e/icons/features/feats/feats.jpg",
    "name": "Catfolk Weapon Expertise",
    "permission": {
        "default": 0
    },
    "type": "feat"
}
