{
    "_id": "DYFOlJlMoDuHjrZx",
    "data": {
        "actionCategory": {
            "value": ""
        },
        "actionType": {
            "value": "action"
        },
        "actions": {
            "value": "2"
        },
        "description": {
            "chat": "",
            "unidentified": "",
            "value": "<p><strong>Frequency</strong> once per day</p>\n<hr />\n<p>You tap into the Godmind’s collective cognitive well, rapidly parsing near-infinite variables to read your surroundings. For 1 minute, you gain precise motion sense out to 60 feet, you can see invisible creatures and objects, and you gain the effects of a 9th-level @Compendium[pf2e.spells-srd.True Seeing]{True Seeing}.</p>"
        },
        "featType": {
            "value": "ancestry"
        },
        "level": {
            "value": 17
        },
        "location": "",
        "prerequisites": [],
        "rules": [],
        "source": {
            "value": ""
        },
        "traits": {
            "custom": "",
            "rarity": {
                "value": "common"
            },
            "value": [
                "aphorite"
            ]
        },
        "usage": {
            "value": ""
        }
    },
    "effects": [],
    "flags": {},
    "img": "systems/pf2e/icons/features/feats/feats.jpg",
    "name": "Channel The Godmind",
    "permission": {
        "default": 0
    },
    "type": "feat"
}
