{
    "_id": "g388ImzpenYBoiEF",
    "data": {
        "actionCategory": {
            "value": ""
        },
        "actionType": {
            "value": "passive"
        },
        "actions": {
            "value": ""
        },
        "description": {
            "chat": "",
            "unidentified": "",
            "value": "<p>You know that the greatest treasures often look like refuse, and you scoff at those who throw away perfectly good scraps. You gain a +1 circumstance bonus to checks to Subsist, and you can use Society or Survival when you Subsist in a settlement. When you Subsist in a city, you also gather valuable junk that silly longshanks threw away. You can Earn Income using Society or Survival in the same time as you Subsist, without spending any additional days of downtime. You also gain a +1 circumstance bonus to this check.</p>\n<hr />\n<p><strong>Special</strong> If you have the irongut goblin heritage, increase the bonuses to +2.</p>"
        },
        "featType": {
            "value": "ancestry"
        },
        "level": {
            "value": 1
        },
        "prerequisites": [],
        "rules": [],
        "source": {
            "value": ""
        },
        "traits": {
            "custom": "",
            "rarity": {
                "value": "common"
            },
            "value": [
                "goblin"
            ]
        }
    },
    "effects": [],
    "flags": {},
    "img": "systems/pf2e/icons/features/feats/feats.jpg",
    "name": "City Scavenger",
    "permission": {
        "default": 0
    },
    "type": "feat"
}
