{
    "_id": "AkV4Jyllo6nlK2Sl",
    "data": {
        "actionCategory": {
            "value": ""
        },
        "actionType": {
            "value": "action"
        },
        "actions": {
            "value": "1"
        },
        "description": {
            "chat": "",
            "unidentified": "",
            "value": "<p>You enter a tight stance, coiled up like a lashing cobra with your hands poised as venomous fangs.</p>\n<p>While in this stance, the only @Compendium[pf2e.actionspf2e.Strike]{Strikes} you can make are cobra fang unarmed attacks. These deal [[/r 1d4 #poison]] poison damage; are in the brawling group; and have the agile, deadly d10, finesse, nonlethal, poison, and unarmed traits.</p>\n<p>While in Cobra Stance, you gain a +1 circumstance bonus to Fortitude saves and your Fortitude DC, and you gain poison resistance equal to half your level.</p>\n<p>@Compendium[pf2e.feat-effects.Stance: Cobra Stance]{Stance: Cobra Stance}</p>"
        },
        "featType": {
            "value": "class"
        },
        "level": {
            "value": 4
        },
        "prerequisites": {
            "value": [
                ""
            ]
        },
        "rules": [],
        "source": {
            "value": ""
        },
        "traits": {
            "custom": "",
            "rarity": {
                "value": "common"
            },
            "value": [
                "monk",
                "stance"
            ]
        }
    },
    "effects": [],
    "flags": {},
    "img": "systems/pf2e/icons/features/feats/feats.jpg",
    "name": "Cobra Stance",
    "permission": {
        "default": 0
    },
    "type": "feat"
}
