{
    "_id": "sv3ywEHaab9oZ3Nj",
    "data": {
        "actionCategory": {
            "value": ""
        },
        "actionType": {
            "value": "action"
        },
        "actions": {
            "value": "1"
        },
        "description": {
            "chat": "",
            "unidentified": "",
            "value": "<p>With a rousing call, you exhort an ally to advance. If your next action is to cast the @Compendium[pf2e.spells-srd.Inspire Courage]{Inspire Courage} composition cantrip, one ally who gains a status bonus from the spell can immediately use a reaction to @Compendium[pf2e.actionspf2e.Stride]{Stride}.</p>"
        },
        "featType": {
            "value": "class"
        },
        "level": {
            "value": "4"
        },
        "prerequisites": {
            "value": [
                "warrior muse"
            ]
        },
        "rules": [],
        "source": {
            "value": ""
        },
        "traits": {
            "custom": "",
            "rarity": {
                "value": "common"
            },
            "value": [
                "auditory",
                "bard",
                "concentrate",
                "metamagic"
            ]
        }
    },
    "effects": [],
    "flags": {},
    "img": "systems/pf2e/icons/features/feats/feats.jpg",
    "name": "Courageous Advance",
    "permission": {
        "default": 0
    },
    "type": "feat"
}
