{
    "_id": "otr60veuPNygNDFY",
    "data": {
        "actionCategory": {
            "value": ""
        },
        "actionType": {
            "value": "passive"
        },
        "actions": {
            "value": ""
        },
        "description": {
            "chat": "",
            "unidentified": "",
            "value": "<p>Your hair moves under your control. You can perform simple Interact actions with your hair, such as opening an unlocked door. Your hair can’t perform actions that require fingers or significant manual dexterity, including any action that would require a check to accomplish, and you can’t use it to hold items.</p>"
        },
        "featType": {
            "value": "ancestry"
        },
        "level": {
            "value": 5
        },
        "location": "",
        "prerequisites": [],
        "rules": [],
        "source": {
            "value": ""
        },
        "traits": {
            "custom": "",
            "rarity": {
                "value": "common"
            },
            "value": [
                "changeling"
            ]
        },
        "usage": {
            "value": ""
        }
    },
    "effects": [],
    "flags": {},
    "img": "systems/pf2e/icons/features/feats/feats.jpg",
    "name": "Cunning Hair",
    "permission": {
        "default": 0
    },
    "type": "feat"
}
