{
    "_id": "UKYO5kiOnCY1hgCD",
    "data": {
        "actionCategory": {
            "value": ""
        },
        "actionType": {
            "value": "passive"
        },
        "actions": {
            "value": ""
        },
        "description": {
            "chat": "",
            "unidentified": "",
            "value": "<p>The magic of Abaddon runs through your blood, and you can wield that power. You can cast @Compendium[pf2e.spells-srd.Death Knell]{Death Knell} and @Compendium[pf2e.spells-srd.False Life]{False Life} each once per day as 2nd-level divine innate spells.</p>"
        },
        "featType": {
            "value": "ancestry"
        },
        "level": {
            "value": "9"
        },
        "prerequisites": {
            "value": [
                "Grimspawn"
            ]
        },
        "rules": [],
        "source": {
            "value": ""
        },
        "traits": {
            "custom": "",
            "rarity": {
                "value": "common"
            },
            "value": [
                "tiefling"
            ]
        }
    },
    "effects": [],
    "flags": {},
    "img": "systems/pf2e/icons/features/feats/feats.jpg",
    "name": "Daemon Magic",
    "permission": {
        "default": 0
    },
    "type": "feat"
}
