{
    "_id": "jEq4JcZb0LpKOZy1",
    "data": {
        "actionCategory": {
            "value": ""
        },
        "actionType": {
            "value": "passive"
        },
        "actions": {
            "value": ""
        },
        "description": {
            "chat": "",
            "unidentified": "",
            "value": "<p>Your proficiency ranks for light armor, medium armor, heavy armor, and unarmored defense increase to expert.</p>"
        },
        "featType": {
            "value": "archetype"
        },
        "level": {
            "value": 14
        },
        "prerequisites": [
            "Champion Dedication",
            "expert in unarmored defense or one or more types of armor"
        ],
        "rules": [],
        "source": {
            "value": ""
        },
        "traits": {
            "custom": "",
            "rarity": {
                "value": "common"
            },
            "value": [
                "archetype"
            ]
        }
    },
    "effects": [],
    "flags": {},
    "img": "systems/pf2e/icons/features/feats/feats.jpg",
    "name": "Diverse Armor Expert",
    "permission": {
        "default": 0
    },
    "type": "feat"
}
