{
    "_id": "lgEihn7deZwHczGE",
    "data": {
        "actionCategory": {
            "value": "offensive"
        },
        "actionType": {
            "value": "action"
        },
        "actions": {
            "value": "1"
        },
        "description": {
            "chat": "",
            "unidentified": "",
            "value": "<p>You transform into a ferocious Large dragon, gaining the effects of 6th-level @Compendium[pf2e.spells-srd.Dragon Form]{Dragon Form} except that you use your own AC and attack modifier; you also apply your extra damage from Rage and your breath weapon DC is your class DC. The action to Dismiss the transformation gains the rage trait.</p>\n<p>At 18th level, you gain a +20-foot status bonus to your fly Speed, your damage bonus with dragon Strikes increases to +12, your breath weapon DC is your class DC, and you gain a +14 status bonus to your breath weapon damage.</p>"
        },
        "featType": {
            "value": "class"
        },
        "level": {
            "value": 16
        },
        "location": "",
        "prerequisites": [
            "dragon instinct",
            "Dragon's Rage Wings"
        ],
        "rules": [],
        "source": {
            "value": ""
        },
        "traits": {
            "custom": "",
            "rarity": {
                "value": "common"
            },
            "value": [
                "barbarian",
                "concentrate",
                "instinct",
                "polymorph",
                "primal",
                "rage",
                "transmutation"
            ]
        }
    },
    "effects": [],
    "flags": {},
    "img": "systems/pf2e/icons/default-icons/feats.jpg",
    "name": "Dragon Transformation",
    "permission": {
        "default": 0
    },
    "type": "feat"
}
