{
    "_id": "T4Xm8vYtnGMOM0Cw",
    "data": {
        "actionCategory": {
            "value": ""
        },
        "actionType": {
            "value": "action"
        },
        "actions": {
            "value": "1"
        },
        "description": {
            "chat": "",
            "unidentified": "",
            "value": "<p>When you pull forth positive or negative energy, you also create a smaller pocket of that energy.</p>\n<p>If the next action you use is to cast a 2-action @Compendium[pf2e.spells-srd.Harm]{Harm} or @Compendium[pf2e.spells-srd.Heal]{Heal} to heal or damage a single creature, choose one additional creature adjacent to either you or the target. Target that creature with a 1-action version of the same spell. This spell is the same level as the 2-action <em>harm</em> or <em>heal</em> you cast and doesn't cost another spell slot.</p>"
        },
        "featType": {
            "value": "class"
        },
        "level": {
            "value": 18
        },
        "location": "",
        "prerequisites": [],
        "rules": [],
        "source": {
            "value": ""
        },
        "traits": {
            "custom": "",
            "rarity": {
                "value": "common"
            },
            "value": [
                "concentrate",
                "cleric",
                "metamagic"
            ]
        }
    },
    "effects": [],
    "flags": {},
    "img": "systems/pf2e/icons/features/feats/feats.jpg",
    "name": "Echoing Channel",
    "permission": {
        "default": 0
    },
    "type": "feat"
}
