{
    "_id": "6b8DiNx4c1zPZ7RP",
    "data": {
        "actionCategory": {
            "value": ""
        },
        "actionType": {
            "value": "passive"
        },
        "actions": {
            "value": ""
        },
        "description": {
            "chat": "",
            "unidentified": "",
            "value": "<p>You become trained in Society or Thievery; if you are already trained in both of these skills, you instead become trained in a skill of your choice. You can use Perception instead of Survival to Track, and you gain the @Compendium[pf2e.feats-srd.Experienced Tracker]{Experienced Tracker} skill feat.<br /><br /><strong>Special</strong> You can't select another dedication feat until you have gained two other feats from the this archetype.</p>"
        },
        "featType": {
            "value": "archetype"
        },
        "level": {
            "value": "2"
        },
        "prerequisites": {
            "value": [
                ""
            ]
        },
        "rules": [],
        "source": {
            "value": ""
        },
        "traits": {
            "custom": "",
            "rarity": {
                "value": "uncommon"
            },
            "selected": {
                "archetype": "Archetype",
                "dedication": "Dedication"
            },
            "value": [
                "archetype",
                "dedication"
            ]
        }
    },
    "effects": [],
    "flags": {},
    "img": "systems/pf2e/icons/features/feats/feats.jpg",
    "name": "Edgewatch Detective Dedication",
    "permission": {
        "default": 0
    },
    "type": "feat"
}
