{
    "_id": "6ENHSzqg88J6dri6",
    "data": {
        "actionCategory": {
            "value": ""
        },
        "actionType": {
            "value": "passive"
        },
        "actions": {
            "value": ""
        },
        "description": {
            "chat": "",
            "unidentified": "",
            "value": "<p>You can see in the darkness as easily as an elemental. You gain @Compendium[pf2e.ancestryfeatures.Darkvision]{Darkvision}.</p>\n<hr />\n<p><strong>Special</strong> You can select this feat only at 1st level, and you can’t retrain into or out of this feat.</p>"
        },
        "featType": {
            "value": "ancestry"
        },
        "level": {
            "value": 1
        },
        "location": "",
        "prerequisites": [
            "low-light vision"
        ],
        "rules": [],
        "source": {
            "value": ""
        },
        "traits": {
            "custom": "",
            "rarity": {
                "value": "common"
            },
            "value": [
                "ifrit",
                "oread",
                "suli",
                "sylph",
                "undine"
            ]
        },
        "usage": {
            "value": ""
        }
    },
    "effects": [],
    "flags": {},
    "img": "systems/pf2e/icons/features/feats/feats.jpg",
    "name": "Elemental Eyes",
    "permission": {
        "default": 0
    },
    "type": "feat"
}
