{
    "_id": "w4dijKncXx0ssBOQ",
    "data": {
        "actionCategory": {
            "value": ""
        },
        "actionType": {
            "value": "passive"
        },
        "actions": {
            "value": ""
        },
        "description": {
            "chat": "",
            "unidentified": "",
            "value": "<p>You are so suspicious of everyone you meet that you keep mental notes on how to defeat them all-even your own allies.</p>\n<p>After interacting with a creature for at least 1 minute, you automatically @Compendium[pf2e.actionspf2e.Pursue a Lead]{Pursue a Lead} with that creature as the subject. You can have any number of such leads at any given time, and when you Pursue a Lead again, you don't give up any of these automatic subjects.</p>"
        },
        "featType": {
            "value": "class"
        },
        "level": {
            "value": 20
        },
        "location": "",
        "prerequisites": [],
        "rules": [],
        "source": {
            "value": ""
        },
        "traits": {
            "custom": "",
            "rarity": {
                "value": "common"
            },
            "value": [
                "investigator"
            ]
        }
    },
    "effects": [],
    "flags": {},
    "img": "systems/pf2e/icons/features/feats/feats.jpg",
    "name": "Everyone's A Suspect",
    "permission": {
        "default": 0
    },
    "type": "feat"
}
