{
    "_id": "qr1E37Tla555tvIO",
    "data": {
        "actionCategory": {
            "value": ""
        },
        "actionType": {
            "value": "passive"
        },
        "actions": {
            "value": ""
        },
        "description": {
            "chat": "",
            "unidentified": "",
            "value": "<p>Your ability to blend into the background allows you to fade away entirely or appear innocuous even to magical effects. You gain @Compendium[pf2e.spells-srd.Invisibility]{Invisibility} and @Compendium[pf2e.spells-srd.Misdirection]{Misdirection} as 2nd-level innate occult spells. You can target only yourself with <em>invisibility</em>, and you must be the primary target of <em>misdirection</em>. You can cast each spell once per day.</p>"
        },
        "featType": {
            "value": "ancestry"
        },
        "level": {
            "value": "9"
        },
        "prerequisites": {
            "value": [
                "Easily Dismissed"
            ]
        },
        "rules": [],
        "source": {
            "value": ""
        },
        "traits": {
            "custom": "",
            "rarity": {
                "value": "common"
            },
            "value": [
                "halfling"
            ]
        }
    },
    "effects": [],
    "flags": {},
    "img": "systems/pf2e/icons/features/feats/feats.jpg",
    "name": "Fade Away",
    "permission": {
        "default": 0
    },
    "type": "feat"
}
