{
    "_id": "80CEAB05TP5ki9iW",
    "data": {
        "actionCategory": {
            "value": ""
        },
        "actionType": {
            "value": "action"
        },
        "actions": {
            "value": "1"
        },
        "description": {
            "chat": "",
            "unidentified": "",
            "value": "<p>Stella Fane has perfected a technique for using playing cards as weapons that's one part sleight of hand and one part magic.</p>\n<p>When you enter this stance, choose whether to treat playing cards in your possession as daggers or darts; you can wield a playing card in all ways as the chosen weapon until the stance ends. As long as the majority of the deck remains in your possession, any cards that are lost or thrown can be found after 1 minute. Otherwise, the remaining cards are likely lost or destroyed.</p>\n<p>A character who has this feat can enchant a single deck of playing cards as a magic weapon, etching fundamental and property runes directly onto the deck of cards.</p>"
        },
        "featType": {
            "value": "class"
        },
        "level": {
            "value": "2"
        },
        "prerequisites": {
            "value": null
        },
        "rules": [],
        "source": {
            "value": ""
        },
        "traits": {
            "custom": "",
            "rarity": {
                "value": "uncommon"
            },
            "value": [
                "rogue",
                "stance",
                "swashbuckler"
            ]
        }
    },
    "effects": [],
    "flags": {},
    "img": "systems/pf2e/icons/features/feats/feats.jpg",
    "name": "Fane's Fourberie",
    "permission": {
        "default": 0
    },
    "type": "feat"
}
