{
    "_id": "KTMzVCd6xAqCvxa5",
    "data": {
        "actionCategory": {
            "value": ""
        },
        "actionType": {
            "value": "passive"
        },
        "actions": {
            "value": ""
        },
        "description": {
            "chat": "",
            "unidentified": "",
            "value": "<p>Your steed ally manifests a suite of powerful and sinister gifts granted to it by your deity.</p>\n<p>It gains @Compendium[pf2e.ancestryfeatures.Darkvision]{Darkvision}, its maximum Hit Points increase by 40, and it gains weakness 10 to good damage.</p>\n<p>Additionally, it grows wings appropriate for a servitor of your deity (such as bat wings for a devil), granting it a @Compendium[pf2e.actionspf2e.Fly]{Fly} Speed equal to its Speed.</p>\n<p>It gains the fiend trait and the trait appropriate to the type of servitor it has become (such as daemon, demon, or devil).</p>"
        },
        "featType": {
            "value": "class"
        },
        "level": {
            "value": 20
        },
        "location": "",
        "prerequisites": [
            "divine ally (steed)",
            "tenets of evil"
        ],
        "rules": [],
        "source": {
            "value": ""
        },
        "traits": {
            "custom": "",
            "rarity": {
                "value": "uncommon"
            },
            "value": [
                "champion"
            ]
        }
    },
    "effects": [],
    "flags": {},
    "img": "systems/pf2e/icons/features/feats/feats.jpg",
    "name": "Fiendish Mount",
    "permission": {
        "default": 0
    },
    "type": "feat"
}
