{
    "_id": "HdhnAm9SNfDqxRSN",
    "data": {
        "actionCategory": {
            "value": ""
        },
        "actionType": {
            "value": "passive"
        },
        "actions": {
            "value": ""
        },
        "description": {
            "chat": "",
            "unidentified": "",
            "value": "<p>You gain your mystery's initial revelation spell. Casting this spell progresses your @Compendium[pf2e.classfeatures.Oracular Curse]{Oracular Curse}. Use the minor curse from your mystery, but when you progress it again, instead of your mystery's moderate curse effect, you become @Compendium[pf2e.conditionitems.Flat-Footed]{Flat-Footed} in addition to the effects of the minor curse.</p>\n<p>If you don't have one, you gain a focus pool of 1 Focus Point. You can @Compendium[pf2e.actionspf2e.Refocus]{Refocus}by reconciling the conflicting nature of your mystery, which also reduces your curse to minor.</p>"
        },
        "featType": {
            "value": "archetype"
        },
        "level": {
            "value": "4"
        },
        "prerequisites": {
            "value": [
                "Oracle Dedication"
            ]
        },
        "rules": [],
        "source": {
            "value": ""
        },
        "traits": {
            "custom": "",
            "rarity": {
                "value": "common"
            },
            "value": [
                "archetype"
            ]
        }
    },
    "effects": [],
    "flags": {},
    "img": "systems/pf2e/icons/features/feats/feats.jpg",
    "name": "First Revelation",
    "permission": {
        "default": 0
    },
    "type": "feat"
}
