{
    "_id": "mxhGH4FVYXJwb0BC",
    "data": {
        "actionCategory": {
            "value": ""
        },
        "actionType": {
            "value": "passive"
        },
        "actions": {
            "value": ""
        },
        "description": {
            "chat": "",
            "unidentified": "",
            "value": "<p>You might have a flighty nature, but when a topic captures your attention, you dive into it headfirst. Pick a Lore skill. You gain the trained proficiency rank in that skill. At 2nd level, you gain expert proficiency in the chosen Lore as well as the Lore granted by your background, if any. At 7th level you gain master proficiency in these Lore skills, and at 15th level you gain legendary proficiency in them.</p>"
        },
        "featType": {
            "value": "ancestry"
        },
        "level": {
            "value": 1
        },
        "prerequisites": [],
        "rules": [],
        "source": {
            "value": ""
        },
        "traits": {
            "custom": "",
            "rarity": {
                "value": "common"
            },
            "value": [
                "gnome"
            ]
        }
    },
    "effects": [],
    "flags": {},
    "img": "systems/pf2e/icons/features/feats/feats.jpg",
    "name": "Gnome Obsession",
    "permission": {
        "default": 0
    },
    "type": "feat"
}
