{
    "_id": "u2rvvAqZBugZgcYg",
    "data": {
        "actionCategory": {
            "value": ""
        },
        "actionType": {
            "value": "passive"
        },
        "actions": {
            "value": ""
        },
        "description": {
            "chat": "",
            "unidentified": "",
            "value": "<p>The extent of the corruption within you does more than simply sap your foes' strength, it devastates their minds and reflexes.</p>\n<p>When you use @Compendium[pf2e.feats-srd.Cruelty]{Cruelty}, choose whether you want to make the creature enfeebled as normal, to make it @Compendium[pf2e.conditionitems.Clumsy]{Clumsy} 1 on a failed save (clumsy 2 on a critical failure), or to make it @Compendium[pf2e.conditionitems.Stupefied]{Stupefied} 1 on a failed save (stupefied 2 on a critical failure).</p>"
        },
        "featType": {
            "value": "class"
        },
        "level": {
            "value": 8
        },
        "location": "",
        "prerequisites": {
            "value": [
                "Cruelty"
            ]
        },
        "rules": [],
        "source": {
            "value": ""
        },
        "traits": {
            "custom": "",
            "rarity": {
                "value": "uncommon"
            },
            "value": [
                "champion"
            ]
        }
    },
    "effects": [],
    "flags": {},
    "img": "systems/pf2e/icons/features/feats/feats.jpg",
    "name": "Greater Cruelty",
    "permission": {
        "default": 0
    },
    "type": "feat"
}
