{
    "_id": "9t6Kfk8Yw8WJYY8Z",
    "data": {
        "actionCategory": {
            "value": ""
        },
        "actionType": {
            "value": "action"
        },
        "actions": {
            "value": "1"
        },
        "description": {
            "chat": "",
            "unidentified": "",
            "value": "<p><strong>Requirements</strong> You are wielding only a single one-handed melee weapon and have your other hand or hands free.</p>\n<hr />\n<p>Using your weapon as a lever, you force your opponent to end up right where you want them.</p>\n<p>Make a Strike with the required weapon. If the Strike hits, you can move the target up to 10 feet into a space in your reach. You can move the target through your space during this movement. <span style=\"color: var(--body);\">This follows the forced movement rules found on page 475. Your Strike gains the following failure effect.</span></p>\n<p><strong>Failure</strong> You can force the creature to move as you would on a success, but you can move the target only 5 feet.</p>"
        },
        "featType": {
            "value": "class"
        },
        "level": {
            "value": 14
        },
        "prerequisites": [],
        "rules": [],
        "source": {
            "value": ""
        },
        "traits": {
            "custom": "",
            "rarity": {
                "value": "common"
            },
            "value": [
                "fighter",
                "press"
            ]
        }
    },
    "effects": [],
    "flags": {},
    "img": "systems/pf2e/icons/features/feats/feats.jpg",
    "name": "Guiding Finish",
    "permission": {
        "default": 0
    },
    "type": "feat"
}
