{
    "_id": "agfosPInBLQXNQfa",
    "data": {
        "actionCategory": {
            "value": ""
        },
        "actionType": {
            "value": "action"
        },
        "actions": {
            "value": "1"
        },
        "description": {
            "chat": "",
            "unidentified": "",
            "value": "<p>Make an unarmed melee attack against a @Compendium[pf2e.conditionitems.Prone]{Prone} target.</p>\n<p>On a hit, the target becomes @Compendium[pf2e.conditionitems.Flat-Footed]{Flat-Footed} to all attacks until the end of your next turn.</p>"
        },
        "featType": {
            "value": "class"
        },
        "level": {
            "value": "4"
        },
        "prerequisites": {
            "value": [
                ""
            ]
        },
        "rules": [],
        "source": {
            "value": ""
        },
        "traits": {
            "custom": "",
            "rarity": {
                "value": "common"
            },
            "value": [
                "rogue"
            ]
        }
    },
    "effects": [],
    "flags": {},
    "img": "systems/pf2e/icons/features/feats/feats.jpg",
    "name": "Head Stomp",
    "permission": {
        "default": 0
    },
    "type": "feat"
}
