{
    "_id": "5CRt5Dy9eLv5LpRF",
    "data": {
        "actionCategory": {
            "value": ""
        },
        "actionType": {
            "value": "passive"
        },
        "actions": {
            "value": ""
        },
        "description": {
            "chat": "",
            "unidentified": "",
            "value": "<p>You can create remedies and other herbal products. You gain the basic alchemy benefits (page 150), though they apply only for herbal items: alchemical items with the healing trait, plus @Compendium[pf2e.equipment-srd.Antidote (Lesser)]{Antidote} and @Compendium[pf2e.equipment-srd.Antiplague (Lesser)]{Antiplague}.</p>\n<p>You gain batches of infused reagents per day equal to your level or half your level if you didn't make your daily preparations in the wilderness. Your @Compendium[pf2e.classfeatures.Advanced Alchemy]{Advanced Alchemy} level for creating these is 1 and doesn't increase on its own.</p>\n<p>You become an expert in Nature and can use Nature instead of Crafting to @Compendium[pf2e.actionspf2e.Craft]{Craft} herbal items. You don't need to be trained in Crafting or have the @Compendium[pf2e.feats-srd.Alchemical Crafting]{Alchemical Crafting} feat to do so, and you can use @Compendium[pf2e.equipment-srd.Healer's Tools]{Healer's Tools} instead of @Compendium[pf2e.equipment-srd.Alchemist's Tools]{Alchemist's Tools}.</p>\n<p><strong>Special</strong> You can't select another dedication feat until you have gained two other feats from the herbalist archetype.</p>"
        },
        "featType": {
            "value": "archetype"
        },
        "level": {
            "value": 2
        },
        "prerequisites": [
            "trained in Nature",
            "Natural Medicine"
        ],
        "rules": [],
        "source": {
            "value": ""
        },
        "traits": {
            "custom": "",
            "rarity": {
                "value": "common"
            },
            "value": [
                "archetype",
                "dedication"
            ]
        }
    },
    "effects": [],
    "flags": {},
    "img": "systems/pf2e/icons/features/feats/feats.jpg",
    "name": "Herbalist Dedication",
    "permission": {
        "default": 0
    },
    "type": "feat"
}
