{
    "_id": "pZMBq7gn66SEEA0n",
    "data": {
        "actionCategory": {
            "value": ""
        },
        "actionType": {
            "value": "passive"
        },
        "actions": {
            "value": ""
        },
        "description": {
            "chat": "",
            "unidentified": "",
            "value": "<p>You've mastered travel within a specific type of terrain. You gain the @Compendium[pf2e.feats-srd.Favored Terrain]{Favored Terrain} feat.</p>\n<p>When in your favored terrain, you gain a +10-foot circumstance bonus to your travel Speed. When other creatures @Compendium[pf2e.actionspf2e.Follow the Expert]{Follow the Expert} with you as a guide in your favored terrain, they gain both the ability to ignore non-magical difficult terrain for the purpose of their travel Speed and the bonus to travel Speed.</p>\n<p><strong>Special</strong> You can't select another dedication feat until you have gained two other feats from the horizon walker archetype.</p>"
        },
        "featType": {
            "value": "archetype"
        },
        "level": {
            "value": "2"
        },
        "prerequisites": {
            "value": [
                "trained in Survival"
            ]
        },
        "rules": [],
        "source": {
            "value": ""
        },
        "traits": {
            "custom": "",
            "rarity": {
                "value": "common"
            },
            "value": [
                "archetype",
                "dedication"
            ]
        }
    },
    "effects": [],
    "flags": {},
    "img": "systems/pf2e/icons/features/feats/feats.jpg",
    "name": "Horizon Walker Dedication",
    "permission": {
        "default": 0
    },
    "type": "feat"
}
