{
    "_id": "OWedlrKGsVZVkSnT",
    "data": {
        "actionCategory": {
            "value": ""
        },
        "actionType": {
            "value": "passive"
        },
        "actions": {
            "value": ""
        },
        "description": {
            "chat": "",
            "unidentified": "",
            "value": "<p>Your understanding of life expands, allowing you to mimic a wider range of creatures.</p>\n<p>Add the forms in @Compendium[pf2e.spells-srd.Insect Form]{Insect Form} to your <em>wild shape</em> list.</p>\n<p>Whenever you use <em>wild shape</em> to polymorph into the non-flying <em>insect form</em> listed in @Compendium[pf2e.spells-srd.Pest Form]{Pest Form}, the duration is 24 hours instead of 10 minutes.</p>"
        },
        "featType": {
            "value": "class"
        },
        "level": {
            "value": 6
        },
        "location": "",
        "prerequisites": [
            "Wild Shape"
        ],
        "rules": [],
        "source": {
            "value": ""
        },
        "traits": {
            "custom": "",
            "rarity": {
                "value": "common"
            },
            "value": [
                "druid"
            ]
        }
    },
    "effects": [],
    "flags": {},
    "img": "systems/pf2e/icons/features/feats/feats.jpg",
    "name": "Insect Shape",
    "permission": {
        "default": 0
    },
    "type": "feat"
}
