{
    "_id": "h08Vfel5iIAARWdy",
    "data": {
        "actionCategory": {
            "value": ""
        },
        "actionType": {
            "value": "passive"
        },
        "actions": {
            "value": ""
        },
        "description": {
            "chat": "",
            "unidentified": "",
            "value": "<p>Divine energy fills your weapon. Whenever you critically hit a foe with Blade of Justice or a Retributive Strike, your attack adds an extra damage die, and the target is slowed 1 on its next turn.</p>"
        },
        "featType": {
            "value": "class"
        },
        "level": {
            "value": 16
        },
        "location": "",
        "prerequisites": [
            "divine ally (blade)",
            "tenets of good"
        ],
        "rules": [
            {
                "critical": true,
                "diceNumber": 1,
                "key": "PF2E.RuleElement.DamageDice",
                "predicate": {
                    "any": [
                        "blade-justice",
                        "retributive-strike"
                    ]
                },
                "selector": "damage"
            },
            {
                "key": "PF2E.RuleElement.Note",
                "predicate": {
                    "any": [
                        "blade-justice",
                        "retributive-strike"
                    ]
                },
                "selector": "damage",
                "text": "<p class='compact-text'><strong>{item|name}</strong> Whenever you critically hit a foe with Blade of Justice or a Retributive Strike, the target is slowed 1 on its next turn.</p>"
            }
        ],
        "source": {
            "value": ""
        },
        "traits": {
            "custom": "",
            "rarity": {
                "value": "common"
            },
            "value": [
                "champion"
            ]
        }
    },
    "effects": [],
    "flags": {},
    "img": "systems/pf2e/icons/features/feats/feats.jpg",
    "name": "Instrument of Zeal",
    "permission": {
        "default": 0
    },
    "type": "feat"
}
