{
    "_id": "EBqnbiuVL0ULFJWX",
    "data": {
        "actionCategory": {
            "value": ""
        },
        "actionType": {
            "value": "passive"
        },
        "actions": {
            "value": ""
        },
        "description": {
            "value": "<p>Your knowledge of abstruse topics is unparalleled. When you succeed at a check to Recall Knowledge, you gain additional information or context. When you critically succeed at a Knowledge check, at the GM’s discretion you might gain even more additional information or context than normal.</p>"
        },
        "featType": {
            "value": "archetype"
        },
        "level": {
            "value": 10
        },
        "location": "",
        "prerequisites": [
            "Eldritch Researcher Dedication"
        ],
        "rules": [],
        "source": {
            "value": ""
        },
        "traits": {
            "custom": "",
            "rarity": {
                "value": "common"
            },
            "value": [
                "archetype"
            ]
        }
    },
    "effects": [],
    "flags": {},
    "img": "systems/pf2e/icons/default-icons/feats.jpg",
    "name": "Know It All (Eldritch Researcher)",
    "permission": {
        "default": 0
    },
    "type": "feat"
}
