{
    "_id": "PPUNMjRLQYnmwQvF",
    "data": {
        "actionCategory": {
            "value": ""
        },
        "actionType": {
            "value": "action"
        },
        "actions": {
            "value": "2"
        },
        "description": {
            "chat": "",
            "unidentified": "",
            "value": "<p>You channel your draconic exemplar's power into a gout of energy that manifests as a 30-foot line or a 15-foot cone, dealing 1d4 damage. Each creature in the area must attempt a basic saving throw against the higher of your class DC or spell DC. You can't use this ability again for 1d4 rounds.</p>\n<p>At 3rd level and every 2 levels thereafter, the damage increases by 1d4. The shape of the breath, the damage type, and the saving throw match those of your @Compendium @Compendium[pf2e.ancestryfeatures.Draconic Exemplar]{Draconic Exemplar}. This ability has the trait associated with the type of damage it deals.</p>"
        },
        "featType": {
            "value": "ancestry"
        },
        "level": {
            "value": "1"
        },
        "prerequisites": {
            "value": null
        },
        "rules": [],
        "source": {
            "value": ""
        },
        "traits": {
            "custom": "",
            "rarity": {
                "value": "common"
            },
            "value": [
                "arcane",
                "evocation",
                "kobold"
            ]
        }
    },
    "effects": [],
    "flags": {},
    "img": "systems/pf2e/icons/features/feats/feats.jpg",
    "name": "Kobold Breath",
    "permission": {
        "default": 0
    },
    "type": "feat"
}
