{
    "_id": "QE8asCPqyrdenll0",
    "data": {
        "actionCategory": {
            "value": ""
        },
        "actionType": {
            "value": "passive"
        },
        "actions": {
            "value": ""
        },
        "description": {
            "chat": "",
            "unidentified": "",
            "value": "<p>You've spent more than your share of time in an alchemy lab. You might have been an alchemist yourself, an assistant, or perhaps even a test subject. Either way, you have been exposed to a wide variety of alchemical poisons and elixirs, leaving you with increased tolerance of their effects.</p>\n<p>You have a +1 circumstance bonus to saves against poison and harmful effects from elixirs. If you roll a success on your saving throw against an elixir or poison, you get a critical success instead.</p>"
        },
        "featType": {
            "value": "ancestry"
        },
        "level": {
            "value": "5"
        },
        "prerequisites": {
            "value": [
                ""
            ]
        },
        "rules": [],
        "source": {
            "value": ""
        },
        "traits": {
            "custom": "",
            "rarity": {
                "value": "common"
            },
            "value": [
                "ratfolk"
            ]
        }
    },
    "effects": [],
    "flags": {},
    "img": "systems/pf2e/icons/features/feats/feats.jpg",
    "name": "Lab Rat",
    "permission": {
        "default": 0
    },
    "type": "feat"
}
