{
    "_id": "qzalwa2Ze3dIqIrA",
    "data": {
        "actionCategory": {
            "value": ""
        },
        "actionType": {
            "value": "action"
        },
        "actions": {
            "value": "1"
        },
        "description": {
            "chat": "",
            "unidentified": "",
            "value": "<p>Your tongue darts out faster than the eye can see to retrieve loose objects. You Interact to pick up a single unattended object of light Bulk or less within 10 feet of you. If you don’t have enough hands free to hold the object, it falls to the ground in your space.</p>"
        },
        "featType": {
            "value": "ancestry"
        },
        "level": {
            "value": 1
        },
        "location": "",
        "prerequisites": [],
        "rules": [],
        "source": {
            "value": ""
        },
        "traits": {
            "custom": "",
            "rarity": {
                "value": "common"
            },
            "value": [
                "lizardfolk"
            ]
        },
        "usage": {
            "value": ""
        }
    },
    "effects": [],
    "flags": {},
    "img": "systems/pf2e/icons/features/feats/feats.jpg",
    "name": "Lightning Tongue",
    "permission": {
        "default": 0
    },
    "type": "feat"
}
