{
    "_id": "qKpaZF0U9VV0YwTJ",
    "data": {
        "actionCategory": {
            "value": ""
        },
        "actionType": {
            "value": "passive"
        },
        "actions": {
            "value": ""
        },
        "description": {
            "chat": "",
            "unidentified": "",
            "value": "<p>You compel a creature to act toward its own ends rather than consider others. You can cast the @Compendium[pf2e.spells-srd.Litany of Self-Interest]{Litany of Self-Interest} devotion spell. Increase the number of Focus Points in your focus pool by 1.</p>"
        },
        "featType": {
            "value": "class"
        },
        "level": {
            "value": 10
        },
        "location": "",
        "prerequisites": [
            "devotion spells",
            "tenets of evil"
        ],
        "rules": [],
        "source": {
            "value": ""
        },
        "traits": {
            "custom": "",
            "rarity": {
                "value": "uncommon"
            },
            "value": [
                "champion"
            ]
        }
    },
    "effects": [],
    "flags": {},
    "img": "systems/pf2e/icons/features/feats/feats.jpg",
    "name": "Litany Of Self-Interest",
    "permission": {
        "default": 0
    },
    "type": "feat"
}
