{
    "_id": "axvGLVoAvuD9jU78",
    "data": {
        "actionCategory": {
            "value": ""
        },
        "actionType": {
            "value": "passive"
        },
        "actions": {
            "value": ""
        },
        "description": {
            "chat": "",
            "unidentified": "",
            "value": "<p>You and your mount have grown closer, and your loyalty to each other is unbreakable. The mount you gained through the divine ally class feature is now a mature animal companion (page 214). In addition, your mount never attacks you, even if it is magically compelled to do so.</p>"
        },
        "featType": {
            "value": "class"
        },
        "level": {
            "value": 6
        },
        "prerequisites": [
            "divine ally (steed)"
        ],
        "rules": [],
        "source": {
            "value": ""
        },
        "traits": {
            "custom": "",
            "rarity": {
                "value": "common"
            },
            "value": [
                "champion"
            ]
        }
    },
    "effects": [],
    "flags": {},
    "img": "systems/pf2e/icons/features/feats/feats.jpg",
    "name": "Loyal Warhorse",
    "permission": {
        "default": 0
    },
    "type": "feat"
}
