{
    "_id": "5TPKikTyN7lrCvzY",
    "data": {
        "actionCategory": {
            "value": ""
        },
        "actionType": {
            "value": "passive"
        },
        "actions": {
            "value": ""
        },
        "description": {
            "chat": "",
            "unidentified": "",
            "value": "<p>Thanks to your incredible connection to your armor, you can use it to shrug off an incredible array of dangers. Your bonus from the bulwark armor trait increases from +3 to +4, and it applies on all Reflex saves, not just damaging Reflex saves.</p>"
        },
        "featType": {
            "value": "archetype"
        },
        "level": {
            "value": "10"
        },
        "prerequisites": {
            "value": [
                "Sentinel Dedication"
            ]
        },
        "rules": [],
        "source": {
            "value": ""
        },
        "traits": {
            "custom": "",
            "rarity": {
                "value": "common"
            },
            "value": [
                "archetype"
            ]
        }
    },
    "effects": [],
    "flags": {},
    "img": "systems/pf2e/icons/features/feats/feats.jpg",
    "name": "Mighty Bulwark",
    "permission": {
        "default": 0
    },
    "type": "feat"
}
