{
    "_id": "8CLbJAtgSfwxk2rk",
    "data": {
        "actionCategory": {
            "value": ""
        },
        "actionType": {
            "value": "passive"
        },
        "actions": {
            "value": ""
        },
        "description": {
            "chat": "",
            "unidentified": "",
            "value": "<p>Your vision pierces through non-magical fog, mist, rain, and snow. You don't take circumstance penalties to ranged attacks or Perception checks caused by non-magical precipitation, and your targeted attacks don't require a flat check to succeed against a target @Compendium[pf2e.conditionitems.Concealed]{Concealed} only by such effects.</p>"
        },
        "featType": {
            "value": "class"
        },
        "level": {
            "value": "8"
        },
        "prerequisites": {
            "value": [
                ""
            ]
        },
        "rules": [],
        "source": {
            "value": ""
        },
        "traits": {
            "custom": "",
            "rarity": {
                "value": "common"
            },
            "value": [
                "witch"
            ]
        }
    },
    "effects": [],
    "flags": {},
    "img": "systems/pf2e/icons/features/feats/feats.jpg",
    "name": "Murksight",
    "permission": {
        "default": 0
    },
    "type": "feat"
}
