{
    "_id": "OUNj8nXTHwGcEdlh",
    "data": {
        "actionCategory": {
            "value": ""
        },
        "actionType": {
            "value": "passive"
        },
        "actions": {
            "value": ""
        },
        "description": {
            "chat": "",
            "unidentified": "",
            "value": "<p>Choose a mystery (page 72). You become trained in Religion and the mystery's skill; if you were already trained, you become trained in a skill of your choice.</p>\n<p>You gain the mild, constant effects of the mystery's curse described in its first paragraph, but not other effects the mystery usually grants.</p>\n<p>You cast spells like an oracle and gain the @Compendium[pf2e.actionspf2e.Cast a Spell]{Cast a Spell} activity. You gain a spell repertoire with two cantrips, either common divine cantrips or other divine cantrips you learn or discover. You're trained in divine spell attack rolls and divine spell DCs. Your key spellcasting ability for oracle archetype spells is Charisma, and they are divine oracle spells.</p>\n<p><strong>Special</strong> You can't select another dedication feat until you have gained two other feats from the oracle archetype.</p>"
        },
        "featType": {
            "value": "archetype"
        },
        "level": {
            "value": "2"
        },
        "prerequisites": {
            "value": [
                "Charisma 14"
            ]
        },
        "rules": [],
        "source": {
            "value": ""
        },
        "traits": {
            "custom": "",
            "rarity": {
                "value": "common"
            },
            "value": [
                "archetype",
                "dedication",
                "multiclass"
            ]
        }
    },
    "effects": [],
    "flags": {},
    "img": "systems/pf2e/icons/features/feats/feats.jpg",
    "name": "Oracle Dedication",
    "permission": {
        "default": 0
    },
    "type": "feat"
}
