{
    "_id": "oHdUwzUUblg3neCT",
    "data": {
        "actionCategory": {
            "value": ""
        },
        "actionType": {
            "value": "passive"
        },
        "actions": {
            "value": ""
        },
        "description": {
            "chat": "",
            "unidentified": "",
            "value": "<p>You have delved deeper into the teaching of a new order, gaining access to a coveted order spell. Choose an order you have selected with @Compendium[pf2e.feats-srd.Order Explorer]{Order Explorer}. You gain the initial order spell from that order.</p>\n<p><strong>Special</strong> You can take this feat multiple times. Each time you do, you must choose a different order you have selected with Order Explorer.</p>"
        },
        "featType": {
            "value": "class"
        },
        "level": {
            "value": 4
        },
        "location": "",
        "prerequisites": [
            "Order Explorer"
        ],
        "rules": [],
        "source": {
            "value": ""
        },
        "traits": {
            "custom": "",
            "rarity": {
                "value": "common"
            },
            "value": [
                "druid"
            ]
        }
    },
    "effects": [],
    "flags": {},
    "img": "systems/pf2e/icons/features/feats/feats.jpg",
    "name": "Order Magic",
    "permission": {
        "default": 0
    },
    "type": "feat"
}
