{
    "_id": "xOMwuKCf02aFzyp3",
    "data": {
        "actionCategory": {
            "value": ""
        },
        "actionType": {
            "value": "passive"
        },
        "actions": {
            "value": ""
        },
        "description": {
            "chat": "",
            "unidentified": "",
            "value": "<p>Kassi Aziril taught you her techniques that originated the modern use of Battle Medicine.</p>\n<p>When you successfully use Battle Medicine, you can also reduce the target's @Compendium[pf2e.conditionitems.Sickened]{Sickened}, @Compendium[pf2e.conditionitems.Enfeebled]{Enfeebled}, or @Compendium[pf2e.conditionitems.Clumsy]{Clumsy} condition by 1 (this has no effect if you are subject to an effect continually applying the clumsy condition, like enlarge).</p>\n<p>If you are legendary in Medicine, you can choose to reduce the target's @Compendium[pf2e.conditionitems.Frightened]{Frightened} or @Compendium[pf2e.conditionitems.Stunned]{Stunned} condition by 1 instead, and if you have the @Compendium[pf2e.feats-srd.Godless Healing]{Godless Healing} feat , you can choose to reduce the target's @Compendium[pf2e.conditionitems.Stupefied]{Stupefied} or @Compendium[pf2e.conditionitems.Drained]{Drained} condition by 1 instead.</p>\n<p>If you have the @Compendium[pf2e.feats-srd.Mortal Healing]{Mortal Healing} feat, you can reduce all available conditions by 1 for a target who hasn't benefited from positive or healing magic in the last 24 hours, and if you roll a critical success before applying the effects of the feat, you reduce all available conditions by 2 for that target instead.</p>"
        },
        "featType": {
            "value": "skill"
        },
        "level": {
            "value": 7
        },
        "location": "",
        "prerequisites": [
            "Battle Medicine",
            "master in Medicine"
        ],
        "rules": [],
        "source": {
            "value": ""
        },
        "traits": {
            "custom": "",
            "rarity": {
                "value": "rare"
            },
            "selected": {
                "general": "General",
                "skill": "Skill"
            },
            "value": [
                "general",
                "skill"
            ]
        }
    },
    "effects": [],
    "flags": {},
    "img": "systems/pf2e/icons/features/feats/feats.jpg",
    "name": "Paragon Battle Medicine",
    "permission": {
        "default": 0
    },
    "type": "feat"
}
