{
    "_id": "bh2jHyyYrkLMsIdX",
    "data": {
        "actionCategory": {
            "value": ""
        },
        "actionType": {
            "value": "passive"
        },
        "actions": {
            "value": ""
        },
        "description": {
            "chat": "",
            "unidentified": "",
            "value": "<p><strong>Cost</strong> the Price of the chosen item</p>\n<p><strong>Requirements</strong> You haven't used this ability since the last time <br />you were able to purchase goods.</p>\n<hr />\n<p>You regularly create convoluted plans and contingencies, using your resources to enact them. You take 1 minute to remove your backpack, then carefully remove an item you hadn't previously declared that you purchased-you intuited that you would come to need the item and purchased it at the latest opportunity.</p>\n<p>The item must be a piece of adventuring gear (from the table on page 288 of the <em>Core Rulebook</em> or other sources of adventuring gear), and can't be a weapon, armor, alchemical item, magic item, or other treasure.</p>\n<p>It must be common with a level no higher than half your level, and its Bulk must be low enough that carrying it wouldn't have made you encumbered.</p>"
        },
        "featType": {
            "value": "general"
        },
        "level": {
            "value": "3"
        },
        "prerequisites": {
            "value": [
                ""
            ]
        },
        "rules": [],
        "source": {
            "value": ""
        },
        "traits": {
            "custom": "",
            "rarity": {
                "value": "common"
            },
            "value": [
                "general"
            ]
        }
    },
    "effects": [],
    "flags": {},
    "img": "systems/pf2e/icons/features/feats/feats.jpg",
    "name": "Prescient Planner",
    "permission": {
        "default": 0
    },
    "type": "feat"
}
