{
    "_id": "twnZopGlB392hmqH",
    "data": {
        "actionCategory": {
            "value": ""
        },
        "actionType": {
            "value": "action"
        },
        "actions": {
            "value": "1"
        },
        "description": {
            "chat": "",
            "unidentified": "",
            "value": "<p>Where others etch their armor to serve as a conduit for their imaginations, your vivid mind and bold personality allow you to project a more fitting persona over your lackluster armor.</p>\n<p>You change the shape and appearance of your armor to appear as ordinary or fine clothes of your imagining. The armor's statistics don't change. This effect lasts as long as you remain conscious and are wearing the armor.</p>\n<p>A creature can disbelieve the illusion by Seeking or touching your armor. The DC equals your Will DC.</p>"
        },
        "featType": {
            "value": "ancestry"
        },
        "level": {
            "value": "5"
        },
        "prerequisites": {
            "value": [
                ""
            ]
        },
        "rules": [],
        "source": {
            "value": ""
        },
        "traits": {
            "custom": "",
            "rarity": {
                "value": "common"
            },
            "value": [
                "concentrate",
                "gnome",
                "illusion",
                "primal",
                "visual"
            ]
        }
    },
    "effects": [],
    "flags": {},
    "img": "systems/pf2e/icons/features/feats/feats.jpg",
    "name": "Project Persona",
    "permission": {
        "default": 0
    },
    "type": "feat"
}
