{
    "_id": "i8MnyasCDo3j65Xd",
    "data": {
        "actionCategory": {
            "value": "defensive"
        },
        "actionType": {
            "value": "passive"
        },
        "actions": {
            "value": "1"
        },
        "description": {
            "chat": "",
            "unidentified": "",
            "value": "<p><strong>Frequency</strong> once per turn&lt;</p>\n<hr />\n<p>You've replaced your heart with one made of animated quicksilver and living adamantine. You reduce your @Compendium[pf2e.conditionitems.Slowed]{Slowed} condition by 1. Alternatively, if you are not slowed, you are @Compendium[pf2e.conditionitems.Quickened]{Quickened} 1 during your next turn, and can use your extra action to Stride or Strike.</p>"
        },
        "featType": {
            "value": "archetype"
        },
        "level": {
            "value": "10"
        },
        "prerequisites": {
            "value": [
                "Golem Grafter Dedication"
            ]
        },
        "rules": [],
        "source": {
            "value": ""
        },
        "traits": {
            "custom": "",
            "rarity": {
                "value": "common"
            },
            "value": [
                "archetype"
            ]
        }
    },
    "effects": [],
    "flags": {},
    "img": "systems/pf2e/icons/features/feats/feats.jpg",
    "name": "Quicken Heartbeat",
    "permission": {
        "default": 0
    },
    "type": "feat"
}
