{
    "_id": "xbg1scOIT7RI9Fij",
    "data": {
        "actionCategory": {
            "value": ""
        },
        "actionType": {
            "value": "action"
        },
        "actions": {
            "value": "1"
        },
        "description": {
            "chat": "",
            "unidentified": "",
            "value": "<p>You keep your bombs in easy-to-reach pouches from which you draw without thinking. You Interact to draw a bomb, then Strike with it.</p>"
        },
        "featType": {
            "value": "class"
        },
        "level": {
            "value": "1"
        },
        "prerequisites": {
            "value": [
                ""
            ]
        },
        "rules": [],
        "source": {
            "value": ""
        },
        "traits": {
            "custom": "",
            "rarity": {
                "value": "common"
            },
            "value": [
                "alchemist"
            ]
        }
    },
    "effects": [],
    "flags": {},
    "img": "systems/pf2e/icons/features/feats/feats.jpg",
    "name": "Quick Bomber",
    "permission": {
        "default": 0
    },
    "type": "feat"
}
