{
    "_id": "h5ksUZlrVGBjq6p4",
    "data": {
        "actionCategory": {
            "value": ""
        },
        "actionType": {
            "value": "passive"
        },
        "actions": {
            "value": ""
        },
        "description": {
            "chat": "",
            "unidentified": "",
            "value": "<p>Your divine ally radiates power, enhancing your chosen weapon.</p>\n<p>When you choose the weapon for your blade ally during your daily preparations, add the following property runes to the list of effects you can choose from: @Compendium[pf2e.feat-effects.Effect: Blade Ally Flaming Rune]{Effect: Blade Ally Flaming Rune} and any aligned properties (@Compendium[pf2e.feat-effects.Effect: Blade Ally Anarchic Rune]{Effect: Blade Ally Anarchic Rune}, @Compendium[pf2e.feat-effects.Effect: Blade Ally Axiomatic Rune]{Effect: Blade Ally Axiomatic Rune}, @Compendium[pf2e.feat-effects.Effect: Blade Ally Holy Rune]{Effect: Blade Ally Holy Rune}, or @Compendium[pf2e.feat-effects.Effect: Blade Ally Unholy Rune]{Effect: Blade Ally Unholy Rune}) that match your cause's alignment.</p>"
        },
        "featType": {
            "value": "class"
        },
        "level": {
            "value": 10
        },
        "location": "",
        "prerequisites": [
            "divine ally (blade)"
        ],
        "rules": [],
        "source": {
            "value": ""
        },
        "traits": {
            "custom": "",
            "rarity": {
                "value": "common"
            },
            "value": [
                "champion"
            ]
        }
    },
    "effects": [],
    "flags": {},
    "img": "systems/pf2e/icons/features/feats/feats.jpg",
    "name": "Radiant Blade Spirit",
    "permission": {
        "default": 0
    },
    "type": "feat"
}
