{
    "_id": "sEWYOllJ6rYoXK4K",
    "data": {
        "actionCategory": {
            "value": ""
        },
        "actionType": {
            "value": "passive"
        },
        "actions": {
            "value": ""
        },
        "description": {
            "chat": "",
            "unidentified": "",
            "value": "<p>Physical obstacles can't hold back your fury. While you are raging, you gain a climb Speed and swim Speed equal to your land Speed, the DC of High Jumps and Long Jumps decreases by 10. Your distance for a vertical Leap increases to 5 feet vertically, and your distance for a horizontal Leap increases to 15 feet if your Speed is at least 15 feet and to 20 feet if your Speed is at least 30 feet.</p>"
        },
        "featType": {
            "value": "class"
        },
        "level": {
            "value": 4
        },
        "prerequisites": [
            "expert in Athletics"
        ],
        "rules": [],
        "source": {
            "value": ""
        },
        "traits": {
            "custom": "",
            "rarity": {
                "value": "common"
            },
            "value": [
                "barbarian"
            ]
        }
    },
    "effects": [],
    "flags": {},
    "img": "systems/pf2e/icons/features/feats/feats.jpg",
    "name": "Raging Athlete",
    "permission": {
        "default": 0
    },
    "type": "feat"
}
