{
    "_id": "VatkAzfBYjA6z6OP",
    "data": {
        "actionCategory": {
            "value": ""
        },
        "actionType": {
            "value": "passive"
        },
        "actions": {
            "value": ""
        },
        "description": {
            "chat": "",
            "unidentified": "",
            "value": "<p>Your have honed your claws to be deadly. Your claw attack deals [[/r 1d6 #slashing]] slashing damage instead of 1d4 and gains the versatile (piercing) trait.</p>"
        },
        "featType": {
            "value": "ancestry"
        },
        "level": {
            "value": "1"
        },
        "prerequisites": {
            "value": [
                ""
            ]
        },
        "rules": [],
        "source": {
            "value": ""
        },
        "traits": {
            "custom": "",
            "rarity": {
                "value": "common"
            },
            "value": [
                "lizardfolk"
            ]
        }
    },
    "effects": [],
    "flags": {},
    "img": "systems/pf2e/icons/features/feats/feats.jpg",
    "name": "Razor Claws",
    "permission": {
        "default": 0
    },
    "type": "feat"
}
