{
    "_id": "EWeso1zDkCLGlnsW",
    "data": {
        "actionCategory": {
            "value": ""
        },
        "actionType": {
            "value": "free"
        },
        "actions": {
            "value": ""
        },
        "description": {
            "chat": "",
            "unidentified": "",
            "value": "<section class=\"details\">\n<p><strong>Trigger</strong> Your turn begins, and you are at half or fewer Hit Points.</p>\n<hr /></section>\n<section class=\"content\">\n<p>Your blood boils when you take a beating, and you throw caution to the wind to finish the fight. You gain a +2 circumstance bonus to attack rolls, a -2 penalty to AC, and a -1 penalty to saves. These bonuses and penalties last until your Rage ends or until you are above half Hit Points, whichever comes first.</p>\n</section>"
        },
        "featType": {
            "value": "class"
        },
        "level": {
            "value": 16
        },
        "location": "",
        "prerequisites": {
            "value": [
                ""
            ]
        },
        "rules": [
            {
                "key": "PF2E.RuleElement.ToggleProperty",
                "label": "Reckless Abandon",
                "property": "flags.pf2e.rollOptions.all.reckless-abandon"
            },
            {
                "key": "PF2E.RuleElement.FlatModifier",
                "label": "Reckless Abandon",
                "predicate": {
                    "all": [
                        "rage",
                        "reckless-abandon"
                    ]
                },
                "roll-options": [
                    "attack",
                    "all"
                ],
                "selector": "attack",
                "type": "circumstance",
                "value": 2
            },
            {
                "key": "PF2E.RuleElement.FlatModifier",
                "label": "Reckless Abandon",
                "predicate": {
                    "all": [
                        "rage",
                        "reckless-abandon"
                    ]
                },
                "roll-options": [
                    "ac",
                    "all"
                ],
                "selector": "ac",
                "value": -2
            },
            {
                "key": "PF2E.RuleElement.FlatModifier",
                "label": "Reckless Abandon",
                "predicate": {
                    "all": [
                        "rage",
                        "reckless-abandon"
                    ]
                },
                "roll-options": [
                    "saving-throw",
                    "all"
                ],
                "selector": "saving-throw",
                "value": -1
            }
        ],
        "source": {
            "value": ""
        },
        "traits": {
            "custom": "",
            "rarity": {
                "value": "common"
            },
            "selected": {
                "barbarian": "Barbarian",
                "rage": "Rage"
            },
            "value": [
                "barbarian",
                "rage"
            ]
        }
    },
    "effects": [],
    "flags": {},
    "img": "systems/pf2e/icons/features/feats/feats.jpg",
    "name": "Reckless Abandon (Barbarian)",
    "permission": {
        "default": 0
    },
    "type": "feat"
}
