{
    "_id": "lleedxE6fTDSK6og",
    "data": {
        "actionCategory": {
            "value": ""
        },
        "actionType": {
            "value": "action"
        },
        "actions": {
            "value": "3"
        },
        "description": {
            "chat": "",
            "unidentified": "",
            "value": "<p><strong>Requirements</strong> You are holding healer's tools or are wearing them and have a hand free. Also, the target's body is mostly intact.</p>\n<hr />\n<p>You can use Medicine to resuscitate the dead. Attempt a DC 40 Medicine check to revive a dead creature that has been dead for no more than 3 rounds. If you succeed, the target returns to life with the effects of @Compendium[pf2e.spells-srd.Raise Dead]{Raise Dead}, except it still has the @Compendium[pf2e.conditionitems.Wounded]{Wounded} condition it had before @Compendium[pf2e.conditionitems.Dying]{Dying}, increased by 1 (or wounded 1 if it wasn't wounded before dying). Whether you succeed or fail, the target is temporarily immune to Resuscitate for 1 day.</p>"
        },
        "featType": {
            "value": "archetype"
        },
        "level": {
            "value": 16
        },
        "prerequisites": [
            "Medic Dedication",
            "legendary in Medicine"
        ],
        "rules": [],
        "source": {
            "value": ""
        },
        "traits": {
            "custom": "",
            "rarity": {
                "value": "common"
            },
            "value": [
                "archetype",
                "healing",
                "manipulate"
            ]
        }
    },
    "effects": [],
    "flags": {},
    "img": "systems/pf2e/icons/features/feats/feats.jpg",
    "name": "Resuscitate",
    "permission": {
        "default": 0
    },
    "type": "feat"
}
