{
    "_id": "t3IzY8uSyFj3aGmh",
    "data": {
        "actionCategory": {
            "value": ""
        },
        "actionType": {
            "value": "passive"
        },
        "actions": {
            "value": ""
        },
        "description": {
            "chat": "",
            "unidentified": "",
            "value": "<p><strong>Requirements</strong> You have a fully grown tail.<br /><strong>Trigger</strong> You become grabbed.<br /></p>\n<hr />\n<p>You can shed your tail to escape. You cease being grabbed, then Stride without triggering any reactions from the creature that grabbed you. It takes 1 week for your tail to fully grow back. Until it does, you can't use your tail unarmed attack, and you take a -2 circumstance penalty on checks to Balance.</p>"
        },
        "featType": {
            "value": "ancestry"
        },
        "level": {
            "value": "5"
        },
        "prerequisites": {
            "value": [
                "Tail Whip"
            ]
        },
        "rules": [],
        "source": {
            "value": ""
        },
        "traits": {
            "custom": "",
            "rarity": {
                "value": "common"
            },
            "value": [
                "lizardfolk"
            ]
        }
    },
    "effects": [],
    "flags": {},
    "img": "systems/pf2e/icons/features/feats/feats.jpg",
    "name": "Shed Tail",
    "permission": {
        "default": 0
    },
    "type": "feat"
}
