{
    "_id": "6cQSPqXoAO6oJl0i",
    "data": {
        "actionCategory": {
            "value": ""
        },
        "actionType": {
            "value": "action"
        },
        "actions": {
            "value": "1"
        },
        "description": {
            "chat": "",
            "unidentified": "",
            "value": "<p>You enter a stance that lets you throw @Compendium[pf2e.equipment-srd.Shuriken]{Shuriken} with lightning speed. While in this stance, you can use your monk feats or monk abilities that normally require unarmed attacks with shuriken instead.</p>"
        },
        "featType": {
            "value": "class"
        },
        "level": {
            "value": "2"
        },
        "prerequisites": {
            "value": [
                "Monastic Weaponry"
            ]
        },
        "rules": [],
        "source": {
            "value": ""
        },
        "traits": {
            "custom": "",
            "rarity": {
                "value": "common"
            },
            "value": [
                "monk",
                "stance"
            ]
        }
    },
    "effects": [],
    "flags": {},
    "img": "systems/pf2e/icons/features/feats/feats.jpg",
    "name": "Shooting Stars Stance",
    "permission": {
        "default": 0
    },
    "type": "feat"
}
