{
    "_id": "wDo5dsSmyJqfmPgj",
    "data": {
        "actionCategory": {
            "value": ""
        },
        "actionType": {
            "value": "passive"
        },
        "actions": {
            "value": ""
        },
        "description": {
            "chat": "",
            "unidentified": "",
            "value": "<p>You've spent enough time helping your comrades equip medium and heavy armor that you spread your own expertise to those armors as well. If you have expert proficiency in any armor or unarmored defense, you also gain expert proficiency in medium and heavy armor.</p>"
        },
        "featType": {
            "value": "archetype"
        },
        "level": {
            "value": "12"
        },
        "prerequisites": {
            "value": [
                "Hellknight Signifer Dedication"
            ]
        },
        "rules": [],
        "source": {
            "value": ""
        },
        "traits": {
            "custom": "",
            "rarity": {
                "value": "common"
            },
            "value": [
                "archetype"
            ]
        }
    },
    "effects": [],
    "flags": {},
    "img": "systems/pf2e/icons/features/feats/feats.jpg",
    "name": "Signifer Armor Expertise",
    "permission": {
        "default": 0
    },
    "type": "feat"
}
