{
    "_id": "F1DVDJRARfdb1Kjz",
    "data": {
        "actionCategory": {
            "value": ""
        },
        "actionType": {
            "value": "reaction"
        },
        "actions": {
            "value": ""
        },
        "description": {
            "chat": "",
            "unidentified": "",
            "value": "<p><strong>Trigger</strong> An opponent adjacent to you critically hits you with a melee weapon or melee unarmed attack.</p>\n<p><strong>Requirements</strong> You have at least 1 available Focus Point</p>\n<hr />\n<p>You lash out, directing a burst of storming fury toward a creature that has harmed you.</p>\n<p>You cast @Compendium[pf2e.spells-srd.Tempest Surge]{Tempest Surge} on the triggering opponent and push that creature, moving it 5 feet away from you if it fails its Reflex save, or 10 feet if it critically fails. This movement is forced movement.</p>"
        },
        "featType": {
            "value": "class"
        },
        "level": {
            "value": 6
        },
        "location": "",
        "prerequisites": [
            "storm order",
            "tempest surge order spell"
        ],
        "rules": [],
        "source": {
            "value": ""
        },
        "traits": {
            "custom": "",
            "rarity": {
                "value": "common"
            },
            "value": [
                "druid"
            ]
        }
    },
    "effects": [],
    "flags": {},
    "img": "systems/pf2e/icons/features/feats/feats.jpg",
    "name": "Storm Retribution",
    "permission": {
        "default": 0
    },
    "type": "feat"
}
