{
    "_id": "DtazfQJaRRe46Sej",
    "data": {
        "actionCategory": {
            "value": ""
        },
        "actionType": {
            "value": "passive"
        },
        "actions": {
            "value": ""
        },
        "description": {
            "value": "<p>Whenever possible, you follow the serene path and encourage others to do the same. You can cast @Compendium[pf2e.spells-srd.Sanctuary]{Sanctuary} once per day as a 1st-level divine innate spell.</p>"
        },
        "featType": {
            "value": "ancestry"
        },
        "level": {
            "value": 5
        },
        "location": "",
        "prerequisites": [
            "Idyllkin"
        ],
        "rules": [],
        "source": {
            "value": ""
        },
        "traits": {
            "custom": "",
            "rarity": {
                "value": "common"
            },
            "value": [
                "aasimar"
            ]
        }
    },
    "effects": [],
    "flags": {},
    "img": "systems/pf2e/icons/features/feats/feats.jpg",
    "name": "Tranquil Sanctuary",
    "permission": {
        "default": 0
    },
    "type": "feat"
}
