{
    "_id": "hkdP5tsTAoqJDR8v",
    "data": {
        "actionCategory": {
            "value": ""
        },
        "actionType": {
            "value": "passive"
        },
        "actions": {
            "value": ""
        },
        "description": {
            "chat": "",
            "unidentified": "",
            "value": "<p>You can quickly fire multiple shots with greater control.</p>\n<p>When you use @Compendium[pf2e.feats-srd.Double Shot]{Double Shot}, you can make the attacks against the same target. You can add an additional action to Double Shot to make three ranged Strikes instead of two. If you do, the penalty is -4. All attacks count toward your multiple attack penalty, but the penalty doesn't increase until after you've made all of them.</p>"
        },
        "featType": {
            "value": "class"
        },
        "level": {
            "value": 6
        },
        "location": "",
        "prerequisites": [
            "Double Shot"
        ],
        "rules": [
            {
                "key": "PF2E.RuleElement.FlatModifier",
                "label": "Triple Shot",
                "predicate": {
                    "all": [
                        "ranged",
                        "triple-shot"
                    ]
                },
                "roll-options": [
                    "all"
                ],
                "selector": "attack",
                "value": -4
            }
        ],
        "source": {
            "value": ""
        },
        "traits": {
            "custom": "",
            "rarity": {
                "value": "common"
            },
            "value": [
                "fighter"
            ]
        }
    },
    "effects": [],
    "flags": {},
    "img": "systems/pf2e/icons/features/feats/feats.jpg",
    "name": "Triple Shot",
    "permission": {
        "default": 0
    },
    "type": "feat"
}
