{
    "_id": "V7bwuYADV8huWeF7",
    "data": {
        "actionCategory": {
            "value": ""
        },
        "actionType": {
            "value": "free"
        },
        "actions": {
            "value": ""
        },
        "description": {
            "chat": "",
            "unidentified": "",
            "value": "<p><strong>Trigger</strong> You critically succeed at a Strike or Disarm with your Aldori dueling sword.<br /></p>\n<hr />\n<p>Your incredible skill with your blade unnerves your foes. You attempt to @Compendium[pf2e.actionspf2e.Demoralize]{Demoralize} the target of your Strike or @Compendium[pf2e.actionspf2e.Disarm]{Disarm}. This Demoralize attempt does not have the auditory trait, nor do you take a penalty to the check if the target doesn't understand your language.</p>"
        },
        "featType": {
            "value": "archetype"
        },
        "level": {
            "value": "6"
        },
        "prerequisites": {
            "value": [
                "Aldori Duelist Dedication"
            ]
        },
        "rules": [],
        "source": {
            "value": ""
        },
        "traits": {
            "custom": "",
            "rarity": {
                "value": "common"
            },
            "value": [
                "archetype"
            ]
        }
    },
    "effects": [],
    "flags": {},
    "img": "systems/pf2e/icons/features/feats/feats.jpg",
    "name": "Unnerving Prowess",
    "permission": {
        "default": 0
    },
    "type": "feat"
}
