{
    "_id": "4SKech3n0F38HrR5",
    "data": {
        "actionCategory": {
            "value": ""
        },
        "actionType": {
            "value": "action"
        },
        "actions": {
            "value": "1"
        },
        "description": {
            "chat": "",
            "unidentified": "",
            "value": "<p>You instill magical vigor in your allies when you inspire them to attack. If your next action is to cast the @Compendium[pf2e.spells-srd.Inspire Courage]{Inspire Courage} composition cantrip, you and all affected allies gain temporary Hit Points equal to 3 + your Charisma modifier that last for 1 minute.</p>"
        },
        "featType": {
            "value": "class"
        },
        "level": {
            "value": "14"
        },
        "prerequisites": {
            "value": [
                ""
            ]
        },
        "rules": [],
        "source": {
            "value": ""
        },
        "traits": {
            "custom": "",
            "rarity": {
                "value": "common"
            },
            "value": [
                "auditory",
                "bard",
                "concentrate",
                "metamagic"
            ]
        }
    },
    "effects": [],
    "flags": {},
    "img": "systems/pf2e/icons/features/feats/feats.jpg",
    "name": "Vigorous Inspiration",
    "permission": {
        "default": 0
    },
    "type": "feat"
}
