{
    "_id": "D2tyUKQiDSq3JO1Z",
    "data": {
        "actionCategory": {
            "value": ""
        },
        "actionType": {
            "value": "passive"
        },
        "actions": {
            "value": ""
        },
        "description": {
            "chat": "",
            "unidentified": "",
            "value": "<p>Your physique is robust and can withstand blood loss startlingly well. Whenever you would gain the @Compendium[pf2e.conditionitems.Drained]{Drained}condition, you can attempt a DC 17 flat check. On a success, you don't gain the drained condition.</p>"
        },
        "featType": {
            "value": "ancestry"
        },
        "level": {
            "value": "1"
        },
        "prerequisites": {
            "value": [
                ""
            ]
        },
        "rules": [],
        "source": {
            "value": ""
        },
        "traits": {
            "custom": "",
            "rarity": {
                "value": "common"
            },
            "value": [
                "hobgoblin"
            ]
        }
    },
    "effects": [],
    "flags": {},
    "img": "systems/pf2e/icons/features/feats/feats.jpg",
    "name": "Vigorous Health",
    "permission": {
        "default": 0
    },
    "type": "feat"
}
