{
    "_id": "AcgxKcA5I3dNTWLr",
    "data": {
        "actionCategory": {
            "value": ""
        },
        "actionType": {
            "value": "passive"
        },
        "actions": {
            "value": ""
        },
        "description": {
            "chat": "",
            "unidentified": "",
            "value": "<p>You have been blessed by the sea, granting you the ability to swim like a fish. You gain a 15-foot swim Speed.<br /><br /><strong>Special</strong> If you have the Bonuwat Wavetouched background, you can take this feat at 1st level instead of 5th.</p>"
        },
        "featType": {
            "value": "ancestry"
        },
        "level": {
            "value": "5"
        },
        "prerequisites": {
            "value": [
                "Bonuwat ethnicity"
            ]
        },
        "rules": [],
        "source": {
            "value": ""
        },
        "traits": {
            "custom": "",
            "rarity": {
                "value": "common"
            },
            "value": [
                "human"
            ]
        }
    },
    "effects": [],
    "flags": {},
    "img": "systems/pf2e/icons/features/feats/feats.jpg",
    "name": "Wavetouched Paragon",
    "permission": {
        "default": 0
    },
    "type": "feat"
}
