{
    "_id": "sy5UyOvxitqX244D",
    "data": {
        "actionCategory": {
            "value": ""
        },
        "actionType": {
            "value": "passive"
        },
        "actions": {
            "value": ""
        },
        "description": {
            "chat": "",
            "unidentified": "",
            "value": "<p><strong>Major Boon</strong>: Asmodeus helps enforce your bargains and contracts. When a creature enters a bargain or contract with you, uncoerced and of its own free will, it can't voluntarily violate its side of the bargain as long as you uphold your side. You can always choose to violate the bargain yourself, but if you do, the creature is no longer bound to fulfill its part.</p>"
        },
        "featType": {
            "value": "deityboon"
        },
        "level": {
            "value": "0"
        },
        "prerequisites": {
            "value": ""
        },
        "rules": [],
        "source": {
            "value": ""
        },
        "traits": {
            "custom": "",
            "rarity": {
                "value": "common"
            },
            "selected": {},
            "value": []
        }
    },
    "effects": [],
    "flags": {},
    "img": "systems/pf2e/icons/deity/Asmodeus.png",
    "name": "Asmodeus - Major Boon",
    "permission": {
        "default": 0
    },
    "type": "feat"
}
