{
    "_id": "pwmFrNkLscXrDSPN",
    "data": {
        "actionCategory": {
            "value": ""
        },
        "actionType": {
            "value": "passive"
        },
        "actions": {
            "value": ""
        },
        "description": {
            "chat": "",
            "unidentified": "",
            "value": "<p><strong>Minor Curse</strong>: Erastil curses your table and punishes you for relying on others' hard work. Any food you didn't grow, gather, or otherwise harvest yourself tastes like ash and leaves you @Compendium[pf2e.conditionitems.Fatigued]{Fatigued}.</p>"
        },
        "featType": {
            "value": "curse"
        },
        "level": {
            "value": "0"
        },
        "prerequisites": {
            "value": ""
        },
        "rules": [],
        "source": {
            "value": ""
        },
        "traits": {
            "custom": "",
            "rarity": {
                "value": "common"
            },
            "selected": {},
            "value": []
        }
    },
    "effects": [],
    "flags": {},
    "img": "systems/pf2e/icons/deity/Erastil.png",
    "name": "Erastil - Minor Curse",
    "permission": {
        "default": 0
    },
    "type": "feat"
}
