{
    "_id": "NgwW7Wt2gO9SEwPX",
    "data": {
        "actionCategory": {
            "value": ""
        },
        "actionType": {
            "value": "passive"
        },
        "actions": {
            "value": ""
        },
        "description": {
            "chat": "",
            "unidentified": "",
            "value": "<p><strong>Minor Curse</strong>: Gorum rewards cowardice with frailty. Any armor you wear and shield you wield reduces its item bonus to AC by 2 (minimum 0) and its Hardness, Hit Points, and Break Threshold by half.</p>"
        },
        "featType": {
            "value": "curse"
        },
        "level": {
            "value": "0"
        },
        "prerequisites": {
            "value": ""
        },
        "rules": [],
        "source": {
            "value": ""
        },
        "traits": {
            "custom": "",
            "rarity": {
                "value": "common"
            },
            "selected": {},
            "value": []
        }
    },
    "effects": [],
    "flags": {},
    "img": "systems/pf2e/icons/deity/Gorum.png",
    "name": "Gorum - Minor Curse",
    "permission": {
        "default": 0
    },
    "type": "feat"
}
