{
    "_id": "tFnPBYcAZ0X3GbI5",
    "data": {
        "actionCategory": {
            "value": ""
        },
        "actionType": {
            "value": "passive"
        },
        "actions": {
            "value": ""
        },
        "description": {
            "chat": "",
            "unidentified": "",
            "value": "<p><strong>Moderate Boon(Daily)</strong>: You spread Lamashtu's nightmares everywhere you go. You can cast @Compendium[pf2e.spells-srd.Confusion]{Confusion} once per day as an divine innate spell.</p>"
        },
        "featType": {
            "value": "deityboon"
        },
        "level": {
            "value": "0"
        },
        "prerequisites": {
            "value": ""
        },
        "rules": [],
        "source": {
            "value": ""
        },
        "traits": {
            "custom": "",
            "rarity": {
                "value": "common"
            },
            "selected": {},
            "value": []
        }
    },
    "effects": [],
    "flags": {},
    "img": "systems/pf2e/icons/deity/Lamashtu.png",
    "name": "Lamashtu - Moderate Boon",
    "permission": {
        "default": 0
    },
    "type": "feat"
}
