{
    "_id": "ParIWsb6B4fdhrHF",
    "data": {
        "actionCategory": {
            "value": ""
        },
        "actionType": {
            "value": "passive"
        },
        "actions": {
            "value": ""
        },
        "description": {
            "chat": "",
            "unidentified": "",
            "value": "<p><strong>Minor Curse</strong>: Horrifying or enticing visions of your final judgment distract you from the task at hand. You take a -2 status penalty to initiative rolls.</p>"
        },
        "featType": {
            "value": "curse"
        },
        "level": {
            "value": "0"
        },
        "prerequisites": {
            "value": ""
        },
        "rules": [],
        "source": {
            "value": ""
        },
        "traits": {
            "custom": "",
            "rarity": {
                "value": "common"
            },
            "selected": {},
            "value": []
        }
    },
    "effects": [],
    "flags": {},
    "img": "systems/pf2e/icons/deity/Pharasma.png",
    "name": "Pharasma - Minor Curse",
    "permission": {
        "default": 0
    },
    "type": "feat"
}
