{
    "_id": "vU5leGDNAZSfPgTz",
    "data": {
        "actionCategory": {
            "value": ""
        },
        "actionType": {
            "value": "passive"
        },
        "actions": {
            "value": ""
        },
        "description": {
            "chat": "",
            "unidentified": "",
            "value": "<p><strong>Moderate Curse</strong>: Others subconsciously recognize your past betrayals.</p>\n<p>Whenever you attempt a Diplomacy check and roll a failure, you get a critical failure instead, and if you roll a critical success, you get a success instead.</p>"
        },
        "featType": {
            "value": "curse"
        },
        "level": {
            "value": "0"
        },
        "prerequisites": {
            "value": ""
        },
        "rules": [],
        "source": {
            "value": ""
        },
        "traits": {
            "custom": "",
            "rarity": {
                "value": "common"
            },
            "selected": {},
            "value": []
        }
    },
    "effects": [],
    "flags": {},
    "img": "systems/pf2e/icons/deity/Shelyn.png",
    "name": "Shelyn - Moderate Curse",
    "permission": {
        "default": 0
    },
    "type": "feat"
}
