{
    "_id": "8XaSpienzVXLmcfp",
    "data": {
        "description": {
            "value": "<p><span style=\"color: var(--body);\">Granted by critically succeeding on @Compendium[pf2e.spells-srd.Inspire Heroics]{Inspire Heroics} to enhance</span><span style=\"color: var(--body);\"> </span>@Compendium[pf2e.spells-srd.Song of Strength]{Song of Strength}</p>\n<p>You bolster your allies' physical strength with a hearty exhortation. You and your allies gain a +3 status bonus to Athletics checks and to their DCs against Athletics skill actions such as Disarm, Shove, and Trip.</p>\n<p><em>Note: bonus to DCs is not automatically added.</em></p>"
        },
        "duration": {
            "expiry": "turn-start",
            "sustained": false,
            "unit": "rounds",
            "value": 1
        },
        "level": {
            "value": 1
        },
        "rules": [
            {
                "key": "PF2E.RuleElement.FlatModifier",
                "label": "Inspire Defense",
                "selector": "ac",
                "type": "status",
                "value": 3
            },
            {
                "key": "PF2E.RuleElement.FlatModifier",
                "label": "Inspire Defense",
                "selector": "saving-throw",
                "type": "status",
                "value": 3
            },
            {
                "key": "PF2E.RuleElement.TokenEffectIcon"
            }
        ],
        "source": {
            "value": ""
        },
        "start": {
            "initiative": null,
            "value": 0
        },
        "target": null,
        "traits": {
            "custom": "",
            "rarity": {
                "value": "common"
            },
            "value": []
        }
    },
    "effects": [],
    "flags": {},
    "img": "systems/pf2e/icons/spells/inspire-heroics.jpg",
    "name": "Spell Effect: Inspire Heroics (Strength, +3)",
    "permission": {
        "default": 0
    },
    "type": "effect"
}
