{
    "_id": "l3AqEkQwRJS8TY7f",
    "data": {
        "attributes": {
            "ac": {
                "value": 20
            },
            "hardness": 10,
            "hasHealth": true,
            "hp": {
                "details": "",
                "max": 40,
                "temp": 0,
                "tempmax": 0,
                "value": 40
            },
            "stealth": {
                "details": "(expert)",
                "value": 15
            }
        },
        "creatureType": "",
        "details": {
            "description": "A trapdoor, connected to floor sensors, opens in the section of floor marked on the map, while the surrounding floor suddenly tilts to a 45-degree angle and the fountains in the wall begin spraying at high pressure, making the tile slippery and pushing creatures toward the open chute.",
            "disable": "DC 23 Thievery (expert) to jam the mechanisms and keep the trapdoor from opening, or to locate the bypass switch hidden under a stair riser just outside the room",
            "isComplex": false,
            "level": 4,
            "reset": "",
            "routine": ""
        },
        "flavourText": "",
        "nethysUrl": "",
        "recallKnowledgeText": "",
        "saves": {
            "fortitude": {
                "rank": 0,
                "saveDetail": "",
                "value": 13
            },
            "reflex": {
                "rank": 0,
                "saveDetail": "",
                "value": 8
            },
            "will": {
                "rank": 0,
                "saveDetail": "",
                "value": 0
            }
        },
        "schema": {
            "version": {
                "value": ""
            }
        },
        "sidebarText": "",
        "source": {
            "value": ""
        },
        "statusEffects": [],
        "traits": {
            "ci": [],
            "di": {
                "custom": "",
                "selected": {},
                "value": [
                    "critical-hits",
                    "object-immunities",
                    "precision"
                ]
            },
            "dr": [],
            "dv": [],
            "rarity": {
                "value": "common"
            },
            "size": {
                "value": "med"
            },
            "traits": {
                "custom": "",
                "value": [
                    "mechanical"
                ]
            }
        }
    },
    "effects": [],
    "flags": {},
    "img": "systems/pf2e/icons/default-icons/hazard.svg",
    "items": [
        {
            "_id": "MClpWaT5c8jTmcFK",
            "data": {
                "actionCategory": {
                    "value": ""
                },
                "actionType": {
                    "value": "reaction"
                },
                "actions": {
                    "value": ""
                },
                "description": {
                    "chat": "",
                    "unidentified": "",
                    "value": "<p><strong>Trigger</strong> Two or more creatures stand on the trapped spaces; <strong>Effect</strong> One round after the trap is triggered, all creatures in the room fall 40 feet down the shaft to area <strong>E36</strong>, taking 20 bludgeoning damage from the fall plus 2d6 piercing damage as they land in the spiked pit. The creatures can Grab an Edge to snag the hammock or one of the hanging storage containers to avoid falling. The DC to Climb the walls or Grab an Edge is 20.</p>"
                },
                "requirements": {
                    "value": ""
                },
                "rules": [],
                "slug": null,
                "source": {
                    "value": ""
                },
                "traits": {
                    "custom": "",
                    "rarity": {
                        "value": "common"
                    },
                    "value": []
                },
                "trigger": {
                    "value": ""
                },
                "usage": {
                    "value": "held-in-one-hand"
                },
                "weapon": {
                    "value": ""
                }
            },
            "effects": [],
            "flags": {},
            "img": "systems/pf2e/icons/actions/Reaction.png",
            "name": "Flush",
            "sort": 100000,
            "type": "action"
        }
    ],
    "name": "Canopy Drop",
    "permission": {
        "default": 0
    },
    "token": {
        "actorId": "l3AqEkQwRJS8TY7f",
        "actorLink": false,
        "bar1": {
            "attribute": "attributes.hp"
        },
        "bar2": {},
        "brightLight": 0,
        "brightSight": 0,
        "dimLight": 0,
        "dimSight": 0,
        "displayBars": 20,
        "displayName": 20,
        "disposition": 0,
        "flags": {},
        "height": 1,
        "img": "systems/pf2e/icons/default-icons/hazard.svg",
        "lightAlpha": 1,
        "lightAngle": 360,
        "lightAnimation": {
            "intensity": 5,
            "speed": 5
        },
        "lockRotation": false,
        "name": "Canopy Drop",
        "randomImg": false,
        "rotation": 0,
        "scale": 1,
        "sightAngle": 360,
        "tint": null,
        "vision": false,
        "width": 1
    },
    "type": "hazard"
}
