{
    "_id": "eW3cfCH7Wpx2vik2",
    "data": {
        "actionCategory": {
            "value": ""
        },
        "actionType": {
            "value": "passive"
        },
        "actions": {
            "value": ""
        },
        "description": {
            "chat": "",
            "unidentified": "",
            "value": "<p>Fey whimsy or a tryst in a moonlit grove put the bewitching magic of the First World into your family's bloodline.</p>\n<p><strong>Spell List</strong> primal</p>\n<p><strong>Bloodline Skills</strong> Deception, Nature</p>\n<p><strong>Granted Spells</strong> cantrip @Compendium[pf2e.spells-srd.Ghost Sound]{Ghost Sound}, 1st: @Compendium[pf2e.spells-srd.Charm]{Charm}, 2nd: @Compendium[pf2e.spells-srd.Hideous Laughter]{Hideous Laughter}, 3rd: @Compendium[pf2e.spells-srd.Enthrall]{Enthrall}, 4th: @Compendium[pf2e.spells-srd.Suggestion]{Suggestion}, 5th: @Compendium[pf2e.spells-srd.Cloak of Colors]{Cloak of Colors}, 6th: @Compendium[pf2e.spells-srd.Mislead]{Mislead}, 7th: @Compendium[pf2e.spells-srd.Visions of Danger]{Visions of Danger}, 8th: @Compendium[pf2e.spells-srd.Uncontrollable Dance]{Uncontrollable Dance}, 9th: @Compendium[pf2e.spells-srd.Resplendent Mansion]{Resplendent Mansion}</p>\n<p><strong>Bloodline Spells</strong> initial: @Compendium[pf2e.spells-srd.Faerie Dust]{Faerie Dust}, advanced: @Compendium[pf2e.spells-srd.Fey Disappearance]{Fey Disappearance}, greater: @Compendium[pf2e.spells-srd.Fey Glamour]{Fey Glamour}</p>\n<p><strong>Blood Magic</strong> Colorful fey glamours dance around you or one target, causing them to be concealed for 1 round. Such obvious concealment can't be used to Hide.</p>\n<p>@Compendium[pf2e.feature-effects.Effect: Fey Blood Magic]{Effect: Fey Blood Magic}</p>"
        },
        "featType": {
            "value": "classfeature"
        },
        "level": {
            "value": 1
        },
        "location": "",
        "prerequisites": {
            "value": ""
        },
        "rules": [],
        "source": {
            "value": ""
        },
        "traits": {
            "custom": "",
            "rarity": {
                "value": "common"
            },
            "value": [
                "sorcerer"
            ]
        }
    },
    "effects": [
        {
            "_id": "sTb7vcR20zSr4GQW",
            "changes": [
                {
                    "key": "data.skills.dec.rank",
                    "mode": 4,
                    "value": 1
                },
                {
                    "key": "data.skills.nat.rank",
                    "mode": 4,
                    "value": 1
                }
            ],
            "disabled": false,
            "duration": {
                "rounds": null,
                "seconds": null,
                "startRound": null,
                "startTime": null,
                "startTurn": null,
                "turns": null
            },
            "flags": {},
            "icon": "systems/pf2e/icons/features/classes/fey.jpg",
            "label": "Bloodline: Fey",
            "origin": "",
            "tint": "",
            "transfer": true
        }
    ],
    "flags": {},
    "img": "systems/pf2e/icons/features/classes/fey.jpg",
    "name": "Bloodline: Fey",
    "permission": {
        "default": 0
    },
    "type": "feat"
}
