{
    "_id": "NAXRmMjj0gcyD7ie",
    "data": {
        "actionCategory": {
            "value": ""
        },
        "actionType": {
            "value": "passive"
        },
        "actions": {
            "value": ""
        },
        "description": {
            "chat": "",
            "unidentified": "",
            "value": "<p>Foiling foes and undermining those who stand in your way are the tools of the curse patrons.</p>\n<p><strong>Spell List</strong> occult</p>\n<p><strong>Patron Skill</strong> Occultism</p>\n<p><strong>Hex Cantrip</strong> @Compendium[pf2e.spells-srd.Evil Eye]{Evil Eye}</p>\n<p><strong>Granted Spell</strong> @Compendium[pf2e.spells-srd.Ray of Enfeeblement]{Ray of Enfeeblement}</p>"
        },
        "featType": {
            "value": "classfeature"
        },
        "level": {
            "value": 1
        },
        "location": "",
        "prerequisites": {
            "value": ""
        },
        "rules": [],
        "source": {
            "value": ""
        },
        "traits": {
            "custom": "",
            "rarity": {
                "value": "common"
            },
            "value": [
                "witch"
            ]
        }
    },
    "effects": [
        {
            "_id": "hX2OybTQXDJAb6gq",
            "changes": [
                {
                    "key": "data.skills.occ.rank",
                    "mode": 4,
                    "value": 1
                }
            ],
            "disabled": false,
            "duration": {
                "rounds": null,
                "seconds": null,
                "startRound": null,
                "startTime": null,
                "startTurn": null,
                "turns": null
            },
            "flags": {},
            "icon": "systems/pf2e/icons/features/classes/curse-patron.jpg",
            "label": "Curse Patron",
            "origin": "",
            "tint": "",
            "transfer": true
        }
    ],
    "flags": {},
    "img": "systems/pf2e/icons/features/classes/curse-patron.jpg",
    "name": "Curse Patron",
    "permission": {
        "default": 0
    },
    "type": "feat"
}
