{
    "_id": "88Q33X2a0iYPkbzd",
    "data": {
        "actionCategory": {
            "value": ""
        },
        "actionType": {
            "value": "passive"
        },
        "actions": {
            "value": ""
        },
        "description": {
            "chat": "",
            "unidentified": "",
            "value": "<p>Your rage intensifies and lets you burst into action. Your proficiency rank for your barbarian class DC increases to expert.</p>\n<p>You gain the @Compendium[pf2e.actionspf2e.Mighty Rage]{Mighty Rage} free action.</p>"
        },
        "featType": {
            "value": "classfeature"
        },
        "level": {
            "value": 11
        },
        "location": "5e5WBG5gTDFmKi3i",
        "prerequisites": {
            "value": ""
        },
        "rules": [],
        "source": {
            "value": ""
        },
        "traits": {
            "custom": "",
            "rarity": {
                "value": "common"
            },
            "value": [
                "barbarian"
            ]
        }
    },
    "effects": [
        {
            "_id": "sHtRrxgb5HsLgtWP",
            "changes": [
                {
                    "key": "data.attributes.classDC.rank",
                    "mode": 4,
                    "value": 2
                }
            ],
            "disabled": false,
            "duration": {
                "rounds": null,
                "seconds": null,
                "startRound": null,
                "startTime": null,
                "startTurn": null,
                "turns": null
            },
            "flags": {},
            "icon": "systems/pf2e/icons/features/classes/mighty-rage.jpg",
            "label": "Mighty Rage",
            "origin": "",
            "tint": "",
            "transfer": true
        }
    ],
    "flags": {},
    "img": "systems/pf2e/icons/features/classes/mighty-rage.jpg",
    "name": "Mighty Rage",
    "permission": {
        "default": 0
    },
    "type": "feat"
}
