{
    "_id": "JOdbVu14phvdjhaY",
    "data": {
        "actionCategory": {
            "value": ""
        },
        "actionType": {
            "value": "passive"
        },
        "actions": {
            "value": ""
        },
        "description": {
            "chat": "",
            "unidentified": "",
            "value": "<p><span style=\"color: #191813; font-family: Roboto, system, -apple-system, sans-serif; font-size: 13px;\">Choose two common 5th-level or lower alchemical poisons.</span></p>"
        },
        "featType": {
            "value": "classfeature"
        },
        "level": {
            "value": "11"
        },
        "prerequisites": {
            "value": ""
        },
        "rules": [],
        "source": {
            "value": ""
        },
        "traits": {
            "custom": "",
            "rarity": {
                "value": "common"
            },
            "value": [
                "alchemist"
            ]
        }
    },
    "effects": [],
    "flags": {},
    "img": "systems/pf2e/icons/features/classes/perpetual-potency-chirurgeon.jpg",
    "name": "Perpetual Potency (Toxicologist)",
    "permission": {
        "default": 0
    },
    "type": "feat"
}
