{
    "_id": "gVNKimslRe1k2hdV",
    "data": {
        "abilities": {
            "cha": {
                "min": 3,
                "mod": 6,
                "value": 22
            },
            "con": {
                "min": 3,
                "mod": 6,
                "value": 22
            },
            "dex": {
                "min": 3,
                "mod": 4,
                "value": 18
            },
            "int": {
                "min": 3,
                "mod": 8,
                "value": 26
            },
            "str": {
                "min": 3,
                "mod": "+8",
                "value": 26
            },
            "wis": {
                "min": 3,
                "mod": 5,
                "value": 20
            }
        },
        "attributes": {
            "ac": {
                "check": 0,
                "details": "",
                "dex": 0,
                "item": 0,
                "min": 0,
                "value": "41"
            },
            "allSaves": {
                "value": "+1 status to all saves vs. magic"
            },
            "ancestryhp": 0,
            "bonusEncumbranceBulk": 0,
            "bonusLimitBulk": 0,
            "classDC": {
                "ability": "str",
                "breakdown": "",
                "item": 0,
                "rank": 0,
                "value": 0
            },
            "classhp": 0,
            "flatbonushp": 0,
            "flatbonussp": 0,
            "hp": {
                "details": "",
                "max": 335,
                "min": 0,
                "temp": 0,
                "value": 335
            },
            "init": {
                "bonus": 0,
                "value": 0
            },
            "initiative": {
                "ability": "",
                "circumstance": 0,
                "status": 0
            },
            "levelbonushp": 0,
            "levelbonussp": 0,
            "perception": {
                "ability": "wis",
                "breakdown": "",
                "item": 0,
                "rank": 0,
                "value": 30
            },
            "resolve": {
                "value": 0
            },
            "shield": {
                "ac": 0,
                "brokenThreshold": 0,
                "hardness": 0,
                "max": 0,
                "min": 0,
                "value": 0
            },
            "sp": {
                "details": "",
                "max": 0,
                "min": 0,
                "value": 0
            },
            "speed": {
                "otherSpeeds": [
                    {
                        "exceptions": "",
                        "label": "Swim",
                        "type": "swim",
                        "value": "50"
                    }
                ],
                "value": "20"
            }
        },
        "currency": {
            "cp": {
                "value": 0
            },
            "gp": {
                "value": 0
            },
            "pp": {
                "value": 0
            },
            "sp": {
                "value": 0
            }
        },
        "customModifiers": {},
        "details": {
            "alignment": {
                "value": "CE"
            },
            "ancestry": {
                "value": ""
            },
            "biography": {
                "public": "",
                "value": ""
            },
            "class": {
                "value": ""
            },
            "creatureType": "Aberration",
            "deity": {
                "image": "systems/pf2e/assets/sheet/deity.png",
                "value": ""
            },
            "flavorText": "The darkly intelligent vaspercham, an aquatic horror who delights in violence and destruction, lurks in the shallows near shorelines. Once a vaspercham settles on a new home, they stubbornly stay there, regardless of any communities dwelling nearby. A vaspercham's physical might and magic-warping abilities make them incredibly hard to dislodge once entrenched, and many seaside communities have relocated after a vaspercham came calling. The monster responds only to strength, so one must best a vaspercham in combat to gain their begrudging cooperation. But once the creature recovers their strength, they inevitably betray any temporary alliance.<br /><br />",
            "flavourText": "",
            "heritage": {
                "value": ""
            },
            "keyability": {
                "value": "str"
            },
            "level": {
                "min": 1,
                "value": 17
            },
            "nethysUrl": "https://2e.aonprd.com/Monsters.aspx?ID=846",
            "recallKnowledgeText": "Recall Knowledge - Aberration : DC 36",
            "sidebarText": "<h3 class=\"title\"><img alt=\"Sidebar - Treasure and Rewards\" title=\"Sidebar - Treasure and Rewards\" style=\"height:20px; padding:2px 10px 0px 2px\" src=\"Images\\Icons\\Sidebar_5_TreasureAndRewards.png\"> Forbidden Armor</h3>After a devastating battle with a vaspercham, many legendary heroes have tried to forge armor or weapons from the magical shell of the sea beast, but all have failed because of the powerful curse that suffuses the opaline material. If one were able to dispel the curse of a vaspercham&apos;s shell - or somehow twist the curse to their own benefit - they would be able to craft an incredible suit of spell-reflecting plate mail.",
            "source": {
                "value": "Bestiary 2 pg. 279"
            }
        },
        "items": {
            "0": {
                "data": {
                    "slots": {
                        "slot1": {
                            "max": 0,
                            "value": 0
                        },
                        "slot2": {
                            "max": 0,
                            "value": 0
                        },
                        "slot3": {
                            "max": 0,
                            "value": 0
                        },
                        "slot4": {
                            "max": 0,
                            "value": 0
                        },
                        "slot5": {
                            "max": 0,
                            "value": 0
                        },
                        "slot6": {
                            "max": 0,
                            "value": 0
                        },
                        "slot7": {
                            "max": 0,
                            "value": 0
                        },
                        "slot8": {
                            "max": 0,
                            "value": 0
                        },
                        "slot9": {
                            "max": 0,
                            "value": 0
                        }
                    },
                    "spelldc": {
                        "dc": 41,
                        "value": 31
                    }
                }
            },
            "fRuyuldjZkDBFASw": {
                "data": {
                    "slots": {
                        "slot5": {
                            "max": 0
                        },
                        "slot6": {
                            "max": 0
                        },
                        "slot7": {
                            "max": 0
                        },
                        "slot8": {
                            "max": 0
                        },
                        "slot9": {
                            "max": 0
                        }
                    },
                    "spelldc": {
                        "dc": 41,
                        "value": 31
                    }
                }
            }
        },
        "martial": {
            "advanced": {
                "breakdown": "",
                "rank": 0,
                "value": 0
            },
            "heavy": {
                "breakdown": "",
                "rank": 0,
                "value": 0
            },
            "light": {
                "breakdown": "",
                "rank": 0,
                "value": 0
            },
            "martial": {
                "breakdown": "",
                "rank": 0,
                "value": 0
            },
            "medium": {
                "breakdown": "",
                "rank": 0,
                "value": 0
            },
            "simple": {
                "breakdown": "",
                "rank": 0,
                "value": 0
            },
            "unarmed": {
                "breakdown": "",
                "rank": 0,
                "value": 0
            },
            "unarmored": {
                "breakdown": "",
                "rank": 0,
                "value": 0
            }
        },
        "saves": {
            "fortitude": {
                "ability": "con",
                "breakdown": "",
                "item": 0,
                "rank": 0,
                "saveDetail": "",
                "value": 31
            },
            "reflex": {
                "ability": "dex",
                "breakdown": "",
                "item": 0,
                "rank": 0,
                "saveDetail": "",
                "value": 25
            },
            "will": {
                "ability": "wis",
                "breakdown": "",
                "item": 0,
                "rank": 0,
                "saveDetail": "",
                "value": 32
            }
        },
        "schema": {
            "version": {
                "value": ""
            }
        },
        "skills": {
            "acr": {
                "ability": "dex",
                "armor": 1,
                "breakdown": "",
                "item": 0,
                "mod": 0,
                "rank": 0,
                "value": 0
            },
            "arc": {
                "ability": "int",
                "breakdown": "",
                "item": 0,
                "mod": 0,
                "rank": 0,
                "value": 0
            },
            "ath": {
                "ability": "str",
                "armor": 1,
                "breakdown": "",
                "item": 0,
                "mod": 0,
                "rank": 0,
                "value": 0
            },
            "cra": {
                "ability": "int",
                "breakdown": "",
                "item": 0,
                "mod": 0,
                "rank": 0,
                "value": 0
            },
            "dec": {
                "ability": "cha",
                "breakdown": "",
                "item": 0,
                "mod": 0,
                "rank": 0,
                "value": 0
            },
            "dip": {
                "ability": "cha",
                "breakdown": "",
                "item": 0,
                "mod": 0,
                "rank": 0,
                "value": 0
            },
            "itm": {
                "ability": "cha",
                "breakdown": "",
                "item": 0,
                "mod": 0,
                "rank": 0,
                "value": 0
            },
            "med": {
                "ability": "wis",
                "breakdown": "",
                "item": 0,
                "mod": 0,
                "rank": 0,
                "value": 0
            },
            "nat": {
                "ability": "wis",
                "breakdown": "",
                "item": 0,
                "mod": 0,
                "rank": 0,
                "value": 0
            },
            "occ": {
                "ability": "int",
                "breakdown": "",
                "item": 0,
                "mod": 0,
                "rank": 0,
                "value": 0
            },
            "prf": {
                "ability": "cha",
                "breakdown": "",
                "item": 0,
                "mod": 0,
                "rank": 0,
                "value": 0
            },
            "rel": {
                "ability": "wis",
                "breakdown": "",
                "item": 0,
                "mod": 0,
                "rank": 0,
                "value": 0
            },
            "soc": {
                "ability": "int",
                "breakdown": "",
                "item": 0,
                "mod": 0,
                "rank": 0,
                "value": 0
            },
            "ste": {
                "ability": "dex",
                "armor": 1,
                "breakdown": "",
                "item": 0,
                "mod": 0,
                "rank": 0,
                "value": 0
            },
            "sur": {
                "ability": "wis",
                "breakdown": "",
                "item": 0,
                "mod": 0,
                "rank": 0,
                "value": 0
            },
            "thi": {
                "ability": "dex",
                "armor": 1,
                "breakdown": "",
                "item": 0,
                "mod": 0,
                "rank": 0,
                "value": 0
            }
        },
        "spells": {
            "spell0": {
                "max": 0
            },
            "spell1": {
                "max": 0
            },
            "spell10": {
                "max": 0
            },
            "spell11": {
                "max": 0
            },
            "spell2": {
                "max": 0
            },
            "spell3": {
                "max": 0
            },
            "spell4": {
                "max": 0
            },
            "spell5": {
                "max": 0
            },
            "spell6": {
                "max": 0
            },
            "spell7": {
                "max": 0
            },
            "spell8": {
                "max": 0
            },
            "spell9": {
                "max": 0
            }
        },
        "statusEffects": [],
        "traits": {
            "attitude": {
                "value": "hostile"
            },
            "ci": [],
            "di": {
                "custom": "",
                "value": []
            },
            "dr": [
                {
                    "label": "Cold",
                    "type": "cold",
                    "value": "10"
                },
                {
                    "label": "Electricity",
                    "type": "electricity",
                    "value": "10"
                }
            ],
            "dv": [
                {
                    "label": "Fire",
                    "type": "fire",
                    "value": "15"
                }
            ],
            "languages": {
                "custom": "",
                "selected": [],
                "value": [
                    "aklo"
                ]
            },
            "rarity": {
                "value": "common"
            },
            "senses": {
                "value": "darkvision, see invisibility"
            },
            "size": {
                "value": "huge"
            },
            "traits": {
                "custom": "",
                "value": [
                    "aberration",
                    "aquatic"
                ]
            }
        }
    },
    "effects": [],
    "flags": {},
    "img": "icons/svg/mystery-man.svg",
    "items": [
        {
            "_id": "fRuyuldjZkDBFASw",
            "data": {
                "ability": {
                    "value": ""
                },
                "description": {
                    "chat": "",
                    "unidentified": "",
                    "value": ""
                },
                "displayLevel": {},
                "displayLevels": {},
                "focus": {
                    "points": 1,
                    "pool": 1
                },
                "item": {
                    "value": 0
                },
                "prepared": {
                    "value": "Innate"
                },
                "proficiency": {
                    "value": 0
                },
                "rules": [],
                "showUnpreparedSpells": {
                    "value": false
                },
                "signatureSpells": {
                    "value": []
                },
                "slots": {
                    "slot0": {
                        "max": 0,
                        "prepared": [],
                        "value": 0
                    },
                    "slot1": {
                        "max": 0,
                        "prepared": [],
                        "value": 0
                    },
                    "slot10": {
                        "max": 0,
                        "prepared": [],
                        "value": 0
                    },
                    "slot11": {
                        "max": 0,
                        "prepared": [],
                        "value": 0
                    },
                    "slot2": {
                        "max": 0,
                        "prepared": [],
                        "value": 0
                    },
                    "slot3": {
                        "max": 0,
                        "prepared": [],
                        "value": 0
                    },
                    "slot4": {
                        "max": 0,
                        "prepared": [],
                        "value": 0
                    },
                    "slot5": {
                        "max": 0,
                        "prepared": [],
                        "value": 0
                    },
                    "slot6": {
                        "max": 0,
                        "prepared": [],
                        "value": 0
                    },
                    "slot7": {
                        "max": 0,
                        "prepared": [],
                        "value": 0
                    },
                    "slot8": {
                        "max": 0,
                        "prepared": [],
                        "value": 0
                    },
                    "slot9": {
                        "max": 0,
                        "prepared": [],
                        "value": 0
                    }
                },
                "slug": null,
                "source": {
                    "value": ""
                },
                "spelldc": {
                    "dc": "41",
                    "item": 0,
                    "mod": 0,
                    "value": 31
                },
                "tradition": {
                    "value": "arcane"
                },
                "traits": {
                    "custom": "",
                    "rarity": {
                        "value": "common"
                    },
                    "value": []
                },
                "usage": {
                    "value": "held-in-one-hand"
                }
            },
            "effects": [],
            "flags": {},
            "img": "icons/svg/mystery-man.svg",
            "name": "Arcane Innate Spells",
            "sort": 100000,
            "type": "spellcastingEntry"
        },
        {
            "_id": "yWhzcp0E6Y1EwhLf",
            "data": {
                "ability": {
                    "value": ""
                },
                "area": {
                    "areaType": "",
                    "value": null
                },
                "areasize": {
                    "value": "60-foot cone"
                },
                "components": {
                    "value": "somatic, verbal"
                },
                "cost": {
                    "value": ""
                },
                "damage": {
                    "applyMod": false,
                    "value": "20d6"
                },
                "damageType": {
                    "value": "cold"
                },
                "description": {
                    "chat": "",
                    "unidentified": "",
                    "value": "<p>Icy cold rushes forth from your hands. You deal 12d6 cold damage to creatures in the area.</p>\n<hr />\n<p><strong>Heightened (+1)</strong> The damage increases by 2d6.</p>"
                },
                "duration": {
                    "value": ""
                },
                "hasCounteractCheck": {
                    "value": false
                },
                "level": {
                    "value": 9
                },
                "location": {
                    "value": "fRuyuldjZkDBFASw"
                },
                "materials": {
                    "value": ""
                },
                "prepared": {
                    "value": ""
                },
                "primarycheck": {
                    "value": ""
                },
                "range": {
                    "value": ""
                },
                "rules": [],
                "save": {
                    "basic": "basic",
                    "value": "reflex"
                },
                "scaling": {
                    "formula": "2d6",
                    "mode": "level1"
                },
                "school": {
                    "value": "evo"
                },
                "secondarycasters": {
                    "value": ""
                },
                "secondarycheck": {
                    "value": ""
                },
                "slug": "cone-of-cold",
                "source": {
                    "value": ""
                },
                "spellCategorie": {
                    "value": "spell"
                },
                "spellCategory": {
                    "value": ""
                },
                "spellType": {
                    "value": "save"
                },
                "sustained": {
                    "value": false
                },
                "target": {
                    "value": ""
                },
                "time": {
                    "value": "2"
                },
                "traditions": {
                    "value": [
                        "arcane",
                        "primal"
                    ]
                },
                "traits": {
                    "custom": "",
                    "rarity": {
                        "value": "common"
                    },
                    "value": [
                        "cold",
                        "evocation"
                    ]
                }
            },
            "effects": [],
            "flags": {
                "core": {
                    "sourceId": "Compendium.pf2e.spells-srd.3puDanGfpEt6jK5k"
                }
            },
            "img": "systems/pf2e/icons/spells/cone-of-cold.jpg",
            "name": "Cone of Cold",
            "sort": 200000,
            "type": "spell"
        },
        {
            "_id": "cSrbbHBdzubu6hzG",
            "data": {
                "ability": {
                    "value": ""
                },
                "area": {
                    "areaType": "",
                    "value": null
                },
                "areasize": {
                    "value": ""
                },
                "components": {
                    "value": "somatic, verbal"
                },
                "cost": {
                    "value": ""
                },
                "damage": {
                    "applyMod": false,
                    "value": ""
                },
                "damageType": {
                    "value": ""
                },
                "description": {
                    "chat": "",
                    "unidentified": "",
                    "value": "<p>You ward a creature against the effects of a single spell. Choose a spell and name it aloud as part of the verbal component. Spell immunity attempts to counteract that spell whenever spell immunity's target is the target of the named spell or in that spell's area. Successfully counteracting a spell that targets an area or multiple targets with spell immunity negates the effects only for the target affected by spell immunity.</p>"
                },
                "duration": {
                    "value": "24 hours"
                },
                "hasCounteractCheck": {
                    "value": true
                },
                "level": {
                    "value": 9
                },
                "location": {
                    "value": "fRuyuldjZkDBFASw"
                },
                "materials": {
                    "value": ""
                },
                "prepared": {
                    "value": ""
                },
                "primarycheck": {
                    "value": ""
                },
                "range": {
                    "value": "touch"
                },
                "rules": [],
                "save": {
                    "basic": "",
                    "value": ""
                },
                "scaling": {
                    "formula": "",
                    "mode": "none"
                },
                "school": {
                    "value": "abj"
                },
                "secondarycasters": {
                    "value": ""
                },
                "secondarycheck": {
                    "value": ""
                },
                "slug": "spell-immunity",
                "source": {
                    "value": ""
                },
                "spellCategorie": {
                    "value": "spell"
                },
                "spellCategory": {
                    "value": ""
                },
                "spellType": {
                    "value": "utility"
                },
                "sustained": {
                    "value": false
                },
                "target": {
                    "value": "1 creature"
                },
                "time": {
                    "value": "2"
                },
                "traditions": {
                    "value": [
                        "arcane",
                        "divine",
                        "occult"
                    ]
                },
                "traits": {
                    "custom": "",
                    "rarity": {
                        "value": "common"
                    },
                    "value": [
                        "abjuration"
                    ]
                }
            },
            "effects": [],
            "flags": {
                "core": {
                    "sourceId": "Compendium.pf2e.spells-srd.tgIhRUFtgDSELpJE"
                }
            },
            "img": "systems/pf2e/icons/spells/spell-immunity.jpg",
            "name": "Spell Immunity",
            "sort": 300000,
            "type": "spell"
        },
        {
            "_id": "cJa6v9WyqOoh2IVC",
            "data": {
                "ability": {
                    "value": ""
                },
                "area": {
                    "areaType": "line",
                    "value": 120
                },
                "areasize": {
                    "value": "120-foot line"
                },
                "components": {
                    "value": "somatic, verbal"
                },
                "cost": {
                    "value": ""
                },
                "damage": {
                    "applyMod": false,
                    "value": "9d12"
                },
                "damageType": {
                    "value": "electricity"
                },
                "description": {
                    "chat": "",
                    "unidentified": "",
                    "value": "<p>A bolt of lightning strikes outward from your hand, dealing 4d12 electricity damage.</p>\n<hr />\n<p><strong>Heightened (+1)</strong> The damage increases by 1d12.</p>"
                },
                "duration": {
                    "value": ""
                },
                "hasCounteractCheck": {
                    "value": false
                },
                "level": {
                    "value": 8
                },
                "location": {
                    "value": "fRuyuldjZkDBFASw"
                },
                "materials": {
                    "value": ""
                },
                "prepared": {
                    "value": ""
                },
                "primarycheck": {
                    "value": ""
                },
                "range": {
                    "value": ""
                },
                "rules": [],
                "save": {
                    "basic": "basic",
                    "value": "reflex"
                },
                "scaling": {
                    "formula": "1d12",
                    "mode": "level1"
                },
                "school": {
                    "value": "evo"
                },
                "secondarycasters": {
                    "value": ""
                },
                "secondarycheck": {
                    "value": ""
                },
                "slug": "lightning-bolt",
                "source": {
                    "value": ""
                },
                "spellCategorie": {
                    "value": "spell"
                },
                "spellCategory": {
                    "value": ""
                },
                "spellType": {
                    "value": "save"
                },
                "sustained": {
                    "value": false
                },
                "target": {
                    "value": ""
                },
                "time": {
                    "value": "2"
                },
                "traditions": {
                    "value": [
                        "arcane",
                        "primal"
                    ]
                },
                "traits": {
                    "custom": "",
                    "rarity": {
                        "value": "common"
                    },
                    "value": [
                        "electricity",
                        "evocation"
                    ]
                }
            },
            "effects": [],
            "flags": {
                "core": {
                    "sourceId": "Compendium.pf2e.spells-srd.9AAkVUCwF6WVNNY2"
                }
            },
            "img": "systems/pf2e/icons/spells/lightning-bolt.jpg",
            "name": "Lightning Bolt",
            "sort": 400000,
            "type": "spell"
        },
        {
            "_id": "R6Uthab3PRxESLLo",
            "data": {
                "ability": {
                    "value": ""
                },
                "area": {
                    "areaType": "",
                    "value": null
                },
                "areasize": {
                    "value": ""
                },
                "components": {
                    "value": "somatic, verbal"
                },
                "cost": {
                    "value": ""
                },
                "damage": {
                    "applyMod": false,
                    "value": ""
                },
                "damageType": {
                    "value": "positive"
                },
                "description": {
                    "chat": "",
                    "unidentified": "",
                    "value": "<p>An infusion of positive energy grants a creature continuous healing. The target temporarily gains regeneration 15, which restores 15 Hit Points to it at the start of each of its turns. While it has regeneration, the target can't die from damage and its @Compendium[pf2e.conditionitems.Dying]{Dying} condition can't increase to a value that would kill it (this stops most creatures from going beyond dying 3), though if its @Compendium[pf2e.conditionitems.Wounded]{Wounded} value becomes 4 or higher, it stays @Compendium[pf2e.conditionitems.Unconscious]{Unconscious} until its wounds are treated. If the target takes acid or fire damage, its regeneration deactivates until after the end of its next turn. Each time the creature regains Hit Points from regeneration, it also regrows one damaged or ruined organ (if any). During the spell's duration, the creature can also reattach severed body parts by spending an Interact action to hold the body part to the area it was severed from.</p>\n<hr />\n<p><strong>Heightened (9th)</strong> The regeneration increases to 20.</p>"
                },
                "duration": {
                    "value": "1 minute"
                },
                "hasCounteractCheck": {
                    "value": false
                },
                "level": {
                    "value": 7
                },
                "location": {
                    "value": "fRuyuldjZkDBFASw"
                },
                "materials": {
                    "value": ""
                },
                "prepared": {
                    "value": ""
                },
                "primarycheck": {
                    "value": ""
                },
                "range": {
                    "value": "touch"
                },
                "rules": [],
                "save": {
                    "basic": "",
                    "value": ""
                },
                "scaling": {
                    "formula": "20",
                    "mode": "levelninth"
                },
                "school": {
                    "value": "nec"
                },
                "secondarycasters": {
                    "value": ""
                },
                "secondarycheck": {
                    "value": ""
                },
                "slug": "regenerate",
                "source": {
                    "value": ""
                },
                "spellCategorie": {
                    "value": "spell"
                },
                "spellCategory": {
                    "value": ""
                },
                "spellType": {
                    "value": "heal"
                },
                "sustained": {
                    "value": false
                },
                "target": {
                    "value": "1 willing living creature"
                },
                "time": {
                    "value": "2"
                },
                "traditions": {
                    "value": [
                        "divine",
                        "primal"
                    ]
                },
                "traits": {
                    "custom": "",
                    "rarity": {
                        "value": "common"
                    },
                    "value": [
                        "healing",
                        "necromancy",
                        "positive"
                    ]
                }
            },
            "effects": [],
            "flags": {
                "core": {
                    "sourceId": "Compendium.pf2e.spells-srd.2Vkd1IxylPceUAAF"
                }
            },
            "img": "systems/pf2e/icons/spells/regeneration.jpg",
            "name": "Regenerate",
            "sort": 500000,
            "type": "spell"
        },
        {
            "_id": "7p38bExu8L9jgQ5N",
            "data": {
                "ability": {
                    "value": ""
                },
                "area": {
                    "areaType": "",
                    "value": null
                },
                "areasize": {
                    "value": ""
                },
                "components": {
                    "value": "somatic, verbal"
                },
                "cost": {
                    "value": ""
                },
                "damage": {
                    "applyMod": false,
                    "value": ""
                },
                "damageType": {
                    "value": ""
                },
                "description": {
                    "chat": "",
                    "unidentified": "",
                    "value": "<p>You can see @Compendium[pf2e.conditionitems.Invisible]{Invisible} creatures and objects. They appear to you as translucent shapes, and they are @Compendium[pf2e.conditionitems.Concealed]{Concealed} to you.</p>\n<hr />\n<p><strong>Heightened (5th)</strong> The spell has a duration of 8 hours.</p>"
                },
                "duration": {
                    "value": "10 minutes"
                },
                "hasCounteractCheck": {
                    "value": false
                },
                "level": {
                    "value": 7
                },
                "location": {
                    "value": "fRuyuldjZkDBFASw"
                },
                "materials": {
                    "value": ""
                },
                "prepared": {
                    "value": ""
                },
                "primarycheck": {
                    "value": ""
                },
                "range": {
                    "value": ""
                },
                "rules": [],
                "save": {
                    "basic": "",
                    "value": ""
                },
                "scaling": {
                    "formula": "",
                    "mode": "none"
                },
                "school": {
                    "value": "div"
                },
                "secondarycasters": {
                    "value": ""
                },
                "secondarycheck": {
                    "value": ""
                },
                "slug": "see-invisibility",
                "source": {
                    "value": ""
                },
                "spellCategorie": {
                    "value": "spell"
                },
                "spellCategory": {
                    "value": ""
                },
                "spellType": {
                    "value": "utility"
                },
                "sustained": {
                    "value": false
                },
                "target": {
                    "value": ""
                },
                "time": {
                    "value": "2"
                },
                "traditions": {
                    "value": [
                        "arcane",
                        "divine",
                        "occult"
                    ]
                },
                "traits": {
                    "custom": "",
                    "rarity": {
                        "value": "common"
                    },
                    "value": [
                        "divination",
                        "revelation"
                    ]
                }
            },
            "effects": [],
            "flags": {
                "core": {
                    "sourceId": "Compendium.pf2e.spells-srd.jwK43yKsHTkJQvQ9"
                }
            },
            "img": "systems/pf2e/icons/spells/see-invisibility.jpg",
            "name": "See Invisibility (Constant)",
            "sort": 600000,
            "type": "spell"
        },
        {
            "_id": "fY6vB2duDFos8Z4w",
            "data": {
                "ability": {
                    "value": ""
                },
                "area": {
                    "areaType": "",
                    "value": null
                },
                "areasize": {
                    "value": ""
                },
                "components": {
                    "value": "somatic, verbal"
                },
                "cost": {
                    "value": ""
                },
                "damage": {
                    "applyMod": false,
                    "value": ""
                },
                "damageType": {
                    "value": ""
                },
                "description": {
                    "chat": "",
                    "unidentified": "",
                    "value": "<p>You cause any spells cast on the target to spill out their energy in harmful surges. The target must attempt a Will save.</p>\n<hr />\n<p><strong>Critical Success</strong> The target is unaffected.</p>\n<p><strong>Success</strong> Whenever the target becomes affected by a spell with a duration, the target takes 2d12 persistent force damage. Each time it takes persistent force damage from spellwrack, it reduces the remaining duration of spells affecting it by 1 round. Only a successful Arcana check against your spell DC can help the target recover from the @Compendium[pf2e.conditionitems.Persistent Damage]{Persistent Damage}; the curse and the Persistent Damage end after 1 minute.</p>\n<p><strong>Failure</strong> As success, but the curse and Persistent Damage do not end on their own.</p>\n<p><strong>Critical Failure</strong> As failure, but the persistent force damage is 4d12.</p>"
                },
                "duration": {
                    "value": ""
                },
                "hasCounteractCheck": {
                    "value": false
                },
                "level": {
                    "value": 6
                },
                "location": {
                    "value": "fRuyuldjZkDBFASw"
                },
                "materials": {
                    "value": ""
                },
                "prepared": {
                    "value": ""
                },
                "primarycheck": {
                    "value": ""
                },
                "range": {
                    "value": "30 feet"
                },
                "rules": [],
                "save": {
                    "basic": "",
                    "value": "will"
                },
                "scaling": {
                    "formula": "",
                    "mode": "none"
                },
                "school": {
                    "value": "abj"
                },
                "secondarycasters": {
                    "value": ""
                },
                "secondarycheck": {
                    "value": ""
                },
                "slug": "spellwrack",
                "source": {
                    "value": ""
                },
                "spellCategorie": {
                    "value": "spell"
                },
                "spellCategory": {
                    "value": ""
                },
                "spellType": {
                    "value": "save"
                },
                "sustained": {
                    "value": false
                },
                "target": {
                    "value": "1 creature"
                },
                "time": {
                    "value": "2"
                },
                "traditions": {
                    "value": [
                        "arcane",
                        "divine",
                        "occult"
                    ]
                },
                "traits": {
                    "custom": "",
                    "rarity": {
                        "value": "common"
                    },
                    "value": [
                        "abjuration",
                        "curse",
                        "force"
                    ]
                }
            },
            "effects": [],
            "flags": {
                "core": {
                    "sourceId": "Compendium.pf2e.spells-srd.8Umt1AzYfFbC4fui"
                }
            },
            "img": "systems/pf2e/icons/spells/spellwrack.jpg",
            "name": "Spellwrack",
            "sort": 700000,
            "type": "spell"
        },
        {
            "_id": "QshCD5jC1HExwshv",
            "data": {
                "ability": {
                    "value": ""
                },
                "area": {
                    "areaType": "",
                    "value": null
                },
                "areasize": {
                    "value": ""
                },
                "components": {
                    "value": "somatic, verbal"
                },
                "cost": {
                    "value": ""
                },
                "damage": {
                    "applyMod": false,
                    "value": ""
                },
                "damageType": {
                    "value": ""
                },
                "description": {
                    "chat": "",
                    "unidentified": "",
                    "value": "<p>You cause any spells cast on the target to spill out their energy in harmful surges. The target must attempt a Will save.</p>\n<hr />\n<p><strong>Critical Success</strong> The target is unaffected.</p>\n<p><strong>Success</strong> Whenever the target becomes affected by a spell with a duration, the target takes 2d12 persistent force damage. Each time it takes persistent force damage from spellwrack, it reduces the remaining duration of spells affecting it by 1 round. Only a successful Arcana check against your spell DC can help the target recover from the @Compendium[pf2e.conditionitems.Persistent Damage]{Persistent Damage}; the curse and the Persistent Damage end after 1 minute.</p>\n<p><strong>Failure</strong> As success, but the curse and Persistent Damage do not end on their own.</p>\n<p><strong>Critical Failure</strong> As failure, but the persistent force damage is 4d12.</p>"
                },
                "duration": {
                    "value": ""
                },
                "hasCounteractCheck": {
                    "value": false
                },
                "level": {
                    "value": 6
                },
                "location": {
                    "value": "fRuyuldjZkDBFASw"
                },
                "materials": {
                    "value": ""
                },
                "prepared": {
                    "value": ""
                },
                "primarycheck": {
                    "value": ""
                },
                "range": {
                    "value": "30 feet"
                },
                "rules": [],
                "save": {
                    "basic": "",
                    "value": "will"
                },
                "scaling": {
                    "formula": "",
                    "mode": "none"
                },
                "school": {
                    "value": "abj"
                },
                "secondarycasters": {
                    "value": ""
                },
                "secondarycheck": {
                    "value": ""
                },
                "slug": "spellwrack",
                "source": {
                    "value": ""
                },
                "spellCategorie": {
                    "value": "spell"
                },
                "spellCategory": {
                    "value": ""
                },
                "spellType": {
                    "value": "save"
                },
                "sustained": {
                    "value": false
                },
                "target": {
                    "value": "1 creature"
                },
                "time": {
                    "value": "2"
                },
                "traditions": {
                    "value": [
                        "arcane",
                        "divine",
                        "occult"
                    ]
                },
                "traits": {
                    "custom": "",
                    "rarity": {
                        "value": "common"
                    },
                    "value": [
                        "abjuration",
                        "curse",
                        "force"
                    ]
                }
            },
            "effects": [],
            "flags": {
                "core": {
                    "sourceId": "Compendium.pf2e.spells-srd.8Umt1AzYfFbC4fui"
                }
            },
            "img": "systems/pf2e/icons/spells/spellwrack.jpg",
            "name": "Spellwrack",
            "sort": 800000,
            "type": "spell"
        },
        {
            "_id": "tfhFqCtvBoESe1uq",
            "data": {
                "ability": {
                    "value": ""
                },
                "area": {
                    "areaType": "",
                    "value": null
                },
                "areasize": {
                    "value": ""
                },
                "components": {
                    "value": "somatic, verbal"
                },
                "cost": {
                    "value": ""
                },
                "damage": {
                    "applyMod": false,
                    "value": ""
                },
                "damageType": {
                    "value": ""
                },
                "description": {
                    "chat": "",
                    "unidentified": "",
                    "value": "<p>You cause any spells cast on the target to spill out their energy in harmful surges. The target must attempt a Will save.</p>\n<hr />\n<p><strong>Critical Success</strong> The target is unaffected.</p>\n<p><strong>Success</strong> Whenever the target becomes affected by a spell with a duration, the target takes 2d12 persistent force damage. Each time it takes persistent force damage from spellwrack, it reduces the remaining duration of spells affecting it by 1 round. Only a successful Arcana check against your spell DC can help the target recover from the @Compendium[pf2e.conditionitems.Persistent Damage]{Persistent Damage}; the curse and the Persistent Damage end after 1 minute.</p>\n<p><strong>Failure</strong> As success, but the curse and Persistent Damage do not end on their own.</p>\n<p><strong>Critical Failure</strong> As failure, but the persistent force damage is 4d12.</p>"
                },
                "duration": {
                    "value": ""
                },
                "hasCounteractCheck": {
                    "value": false
                },
                "level": {
                    "value": 6
                },
                "location": {
                    "value": "fRuyuldjZkDBFASw"
                },
                "materials": {
                    "value": ""
                },
                "prepared": {
                    "value": ""
                },
                "primarycheck": {
                    "value": ""
                },
                "range": {
                    "value": "30 feet"
                },
                "rules": [],
                "save": {
                    "basic": "",
                    "value": "will"
                },
                "scaling": {
                    "formula": "",
                    "mode": "none"
                },
                "school": {
                    "value": "abj"
                },
                "secondarycasters": {
                    "value": ""
                },
                "secondarycheck": {
                    "value": ""
                },
                "slug": "spellwrack",
                "source": {
                    "value": ""
                },
                "spellCategorie": {
                    "value": "spell"
                },
                "spellCategory": {
                    "value": ""
                },
                "spellType": {
                    "value": "save"
                },
                "sustained": {
                    "value": false
                },
                "target": {
                    "value": "1 creature"
                },
                "time": {
                    "value": "2"
                },
                "traditions": {
                    "value": [
                        "arcane",
                        "divine",
                        "occult"
                    ]
                },
                "traits": {
                    "custom": "",
                    "rarity": {
                        "value": "common"
                    },
                    "value": [
                        "abjuration",
                        "curse",
                        "force"
                    ]
                }
            },
            "effects": [],
            "flags": {
                "core": {
                    "sourceId": "Compendium.pf2e.spells-srd.8Umt1AzYfFbC4fui"
                }
            },
            "img": "systems/pf2e/icons/spells/spellwrack.jpg",
            "name": "Spellwrack",
            "sort": 900000,
            "type": "spell"
        },
        {
            "_id": "UsbkDyHC2hPJ3Xb5",
            "data": {
                "ability": {
                    "value": ""
                },
                "area": {
                    "areaType": "",
                    "value": null
                },
                "areasize": {
                    "value": "50 feet long by 50 feet wide"
                },
                "components": {
                    "value": "somatic, verbal"
                },
                "cost": {
                    "value": ""
                },
                "damage": {
                    "applyMod": false,
                    "value": ""
                },
                "damageType": {
                    "value": ""
                },
                "description": {
                    "chat": "",
                    "unidentified": "",
                    "value": "<p>By imposing your will upon the water, you can raise or lower the level of water in the chosen area by 10 feet. Water creatures in the area are subjected to the effects of @Compendium[pf2e.spells-srd.Slow]{Slow}.</p>"
                },
                "duration": {
                    "value": ""
                },
                "hasCounteractCheck": {
                    "value": false
                },
                "level": {
                    "value": 5
                },
                "location": {
                    "value": "fRuyuldjZkDBFASw"
                },
                "materials": {
                    "value": ""
                },
                "prepared": {
                    "value": ""
                },
                "primarycheck": {
                    "value": ""
                },
                "range": {
                    "value": "500 feet"
                },
                "rules": [],
                "save": {
                    "basic": "",
                    "value": ""
                },
                "scaling": {
                    "formula": "",
                    "mode": "none"
                },
                "school": {
                    "value": "evo"
                },
                "secondarycasters": {
                    "value": ""
                },
                "secondarycheck": {
                    "value": ""
                },
                "slug": "control-water",
                "source": {
                    "value": ""
                },
                "spellCategorie": {
                    "value": "spell"
                },
                "spellCategory": {
                    "value": ""
                },
                "spellType": {
                    "value": "utility"
                },
                "sustained": {
                    "value": false
                },
                "target": {
                    "value": ""
                },
                "time": {
                    "value": "2"
                },
                "traditions": {
                    "value": [
                        "arcane",
                        "primal"
                    ]
                },
                "traits": {
                    "custom": "",
                    "rarity": {
                        "value": "common"
                    },
                    "value": [
                        "evocation",
                        "water"
                    ]
                }
            },
            "effects": [],
            "flags": {
                "core": {
                    "sourceId": "Compendium.pf2e.spells-srd.zfn5RqAdF63neqpP"
                }
            },
            "img": "systems/pf2e/icons/spells/control-water.jpg",
            "name": "Control Water",
            "sort": 1000000,
            "type": "spell"
        },
        {
            "_id": "5Ds8GMXoIjWg9j7Q",
            "data": {
                "attack": {
                    "value": ""
                },
                "attackEffects": {
                    "custom": "",
                    "value": [
                        "Hallucinatory Brine"
                    ]
                },
                "baseItem": null,
                "bonus": {
                    "value": 33
                },
                "brokenThreshold": {
                    "value": 0
                },
                "bulkCapacity": {
                    "value": ""
                },
                "collapsed": {
                    "value": false
                },
                "containerId": {
                    "value": ""
                },
                "damage": {
                    "damageType": "bludgeoning",
                    "die": "3d10+16"
                },
                "damageRolls": {
                    "slnq4zg9etru3hs16e19": {
                        "damage": "3d10+16",
                        "damageType": "bludgeoning"
                    }
                },
                "description": {
                    "chat": "",
                    "unidentified": "",
                    "value": ""
                },
                "equipped": {
                    "value": false
                },
                "equippedBulk": {
                    "value": ""
                },
                "hardness": {
                    "value": 0
                },
                "hp": {
                    "value": 0
                },
                "identification": {
                    "status": "identified"
                },
                "identified": {
                    "value": false
                },
                "invested": {
                    "value": false
                },
                "maxHp": {
                    "value": 0
                },
                "negateBulk": {
                    "value": "0"
                },
                "preciousMaterial": {
                    "value": ""
                },
                "preciousMaterialGrade": {
                    "value": ""
                },
                "price": {
                    "value": 0
                },
                "property1": {
                    "critDamage": "",
                    "critDamageType": "",
                    "critDice": 0,
                    "critDie": "",
                    "damageType": "",
                    "dice": 0,
                    "die": "",
                    "value": ""
                },
                "property2": {
                    "critDamage": "",
                    "critDamageType": "",
                    "critDice": 0,
                    "critDie": "",
                    "damageType": "",
                    "dice": 0,
                    "die": "",
                    "value": ""
                },
                "property3": {
                    "critDamage": "",
                    "critDamageType": "",
                    "critDice": 0,
                    "critDie": "",
                    "damageType": "",
                    "dice": 0,
                    "die": "",
                    "value": ""
                },
                "quantity": {
                    "value": 1
                },
                "rules": [],
                "size": {
                    "value": "med"
                },
                "slug": null,
                "source": {
                    "value": ""
                },
                "stackGroup": {
                    "value": ""
                },
                "traits": {
                    "custom": "",
                    "rarity": {
                        "value": "common"
                    },
                    "value": [
                        "agile",
                        "magical",
                        "reach-20"
                    ]
                },
                "usage": {
                    "value": "held-in-one-hand"
                },
                "weaponType": {
                    "value": "melee"
                },
                "weight": {
                    "value": 0
                }
            },
            "effects": [],
            "flags": {},
            "img": "icons/svg/mystery-man.svg",
            "name": "Tentacle",
            "sort": 1100000,
            "type": "melee"
        },
        {
            "_id": "XyAMzK7AwDLSUd1X",
            "data": {
                "attack": {
                    "value": ""
                },
                "attackEffects": {
                    "custom": "",
                    "value": [
                        "Hallucinatory Brine"
                    ]
                },
                "baseItem": null,
                "bonus": {
                    "value": 33
                },
                "brokenThreshold": {
                    "value": 0
                },
                "bulkCapacity": {
                    "value": ""
                },
                "collapsed": {
                    "value": false
                },
                "containerId": {
                    "value": ""
                },
                "damage": {
                    "damageType": "bludgeoning",
                    "die": "2d8+16"
                },
                "damageRolls": {
                    "hkamipuzdzmizy5zeuru": {
                        "damage": "2d8+16",
                        "damageType": "bludgeoning"
                    }
                },
                "description": {
                    "chat": "",
                    "unidentified": "",
                    "value": ""
                },
                "equipped": {
                    "value": false
                },
                "equippedBulk": {
                    "value": ""
                },
                "hardness": {
                    "value": 0
                },
                "hp": {
                    "value": 0
                },
                "identification": {
                    "status": "identified"
                },
                "identified": {
                    "value": false
                },
                "invested": {
                    "value": false
                },
                "maxHp": {
                    "value": 0
                },
                "negateBulk": {
                    "value": "0"
                },
                "preciousMaterial": {
                    "value": ""
                },
                "preciousMaterialGrade": {
                    "value": ""
                },
                "price": {
                    "value": 0
                },
                "property1": {
                    "critDamage": "",
                    "critDamageType": "",
                    "critDice": 0,
                    "critDie": "",
                    "damageType": "",
                    "dice": 0,
                    "die": "",
                    "value": ""
                },
                "property2": {
                    "critDamage": "",
                    "critDamageType": "",
                    "critDice": 0,
                    "critDie": "",
                    "damageType": "",
                    "dice": 0,
                    "die": "",
                    "value": ""
                },
                "property3": {
                    "critDamage": "",
                    "critDamageType": "",
                    "critDice": 0,
                    "critDie": "",
                    "damageType": "",
                    "dice": 0,
                    "die": "",
                    "value": ""
                },
                "quantity": {
                    "value": 1
                },
                "rules": [],
                "size": {
                    "value": "med"
                },
                "slug": null,
                "source": {
                    "value": ""
                },
                "stackGroup": {
                    "value": ""
                },
                "traits": {
                    "custom": "",
                    "rarity": {
                        "value": "common"
                    },
                    "value": [
                        "brutal",
                        "magical",
                        "range-increment-100",
                        "water"
                    ]
                },
                "usage": {
                    "value": "held-in-one-hand"
                },
                "weaponType": {
                    "value": "ranged"
                },
                "weight": {
                    "value": 0
                }
            },
            "effects": [],
            "flags": {},
            "img": "icons/svg/mystery-man.svg",
            "name": "Water Blast",
            "sort": 1200000,
            "type": "melee"
        },
        {
            "_id": "JoBMwImgYPvlh4zo",
            "data": {
                "actionCategory": {
                    "value": "interaction"
                },
                "actionType": {
                    "value": "passive"
                },
                "actions": {
                    "value": ""
                },
                "description": {
                    "chat": "",
                    "unidentified": "",
                    "value": "<p>A monster with darkvision can see perfectly well in areas of darkness and dim light, though such vision is in black and white only. Some forms of magical darkness, such as a 4th-level @Compendium[pf2e.spells-srd.Darkness]{Darkness} spell, block normal darkvision. A monster with @Compendium[pf2e.bestiary-ability-glossary-srd.Greater Darkvision]{Greater Darkvision}, however, can see through even these forms of magical darkness.</p>"
                },
                "requirements": {
                    "value": ""
                },
                "rules": [],
                "slug": "darkvision",
                "source": {
                    "value": ""
                },
                "traits": {
                    "custom": "",
                    "rarity": {
                        "value": "common"
                    },
                    "value": []
                },
                "trigger": {
                    "value": ""
                },
                "weapon": {
                    "value": ""
                }
            },
            "effects": [],
            "flags": {
                "core": {
                    "sourceId": "Compendium.pf2e.bestiary-ability-glossary-srd.qCCLZhnp2HhP3Ex6"
                }
            },
            "img": "systems/pf2e/icons/default-icons/action.svg",
            "name": "Darkvision",
            "sort": 1300000,
            "type": "action"
        },
        {
            "_id": "xiOTeaVvejTPBrhk",
            "data": {
                "actionCategory": {
                    "value": "interaction"
                },
                "actionType": {
                    "value": "passive"
                },
                "actions": {
                    "value": ""
                },
                "description": {
                    "chat": "",
                    "unidentified": "",
                    "value": "<p>The monster can cast its at-will spells any number of times without using up spell slots.</p>"
                },
                "requirements": {
                    "value": ""
                },
                "rules": [],
                "slug": "at-will-spells",
                "source": {
                    "value": ""
                },
                "traits": {
                    "custom": "",
                    "rarity": {
                        "value": "common"
                    },
                    "value": []
                },
                "trigger": {
                    "value": ""
                },
                "weapon": {
                    "value": ""
                }
            },
            "effects": [],
            "flags": {
                "core": {
                    "sourceId": "Compendium.pf2e.bestiary-ability-glossary-srd.2YRDYVnC1eljaXKK"
                }
            },
            "img": "systems/pf2e/icons/default-icons/action.svg",
            "name": "At-Will Spells",
            "sort": 1400000,
            "type": "action"
        },
        {
            "_id": "6A6lheQTnhAryrxG",
            "data": {
                "actionCategory": {
                    "value": "interaction"
                },
                "actionType": {
                    "value": "passive"
                },
                "actions": {
                    "value": ""
                },
                "description": {
                    "chat": "",
                    "unidentified": "",
                    "value": "<p>A constant spell affects the monster without the monster needing to cast it, and its duration is unlimited. If a constant spell gets counteracted, the monster can reactivate it by spending the normal spellcasting actions the spell requires.</p>"
                },
                "requirements": {
                    "value": ""
                },
                "rules": [],
                "slug": "constant-spells",
                "source": {
                    "value": ""
                },
                "traits": {
                    "custom": "",
                    "rarity": {
                        "value": "common"
                    },
                    "value": []
                },
                "trigger": {
                    "value": ""
                },
                "weapon": {
                    "value": ""
                }
            },
            "effects": [],
            "flags": {
                "core": {
                    "sourceId": "Compendium.pf2e.bestiary-ability-glossary-srd.kakyXBG5WA8c6Zfd"
                }
            },
            "img": "systems/pf2e/icons/default-icons/action.svg",
            "name": "Constant Spells",
            "sort": 1500000,
            "type": "action"
        },
        {
            "_id": "RHRtFPGTQDqJ0cER",
            "data": {
                "actionCategory": {
                    "value": "defensive"
                },
                "actionType": {
                    "value": "passive"
                },
                "actions": {
                    "value": ""
                },
                "description": {
                    "value": ""
                },
                "requirements": {
                    "value": ""
                },
                "rules": [
                    {
                        "key": "PF2E.RuleElement.FlatModifier",
                        "predicate": {
                            "any": [
                                "magical",
                                "arcane",
                                "primal",
                                "occult",
                                "divine"
                            ]
                        },
                        "selector": "saving-throw",
                        "type": "status",
                        "value": 1
                    }
                ],
                "slug": null,
                "source": {
                    "value": ""
                },
                "traits": {
                    "custom": "",
                    "rarity": {
                        "value": "common"
                    },
                    "value": []
                },
                "trigger": {
                    "value": ""
                },
                "weapon": {
                    "value": ""
                }
            },
            "effects": [],
            "flags": {},
            "img": "icons/svg/mystery-man.svg",
            "name": "+1 Status Bonus on Saves vs Magic",
            "sort": 1600000,
            "type": "action"
        },
        {
            "_id": "yNsJmPBe7WVLrPiX",
            "data": {
                "actionCategory": {
                    "value": "defensive"
                },
                "actionType": {
                    "value": "passive"
                },
                "actions": {
                    "value": ""
                },
                "description": {
                    "chat": "",
                    "unidentified": "",
                    "value": "<p>30 feet.</p>\n<p>A vaspercham's shell distorts nearby magic. Any creature in the aura who Casts a Spell must attempt a DC 37 Will save.</p>\n<hr />\n<p><strong>Critical Success</strong> The spell is unaffected and the caster is temporarily immune to the magic-warping aura for 1 minute.</p>\n<p><strong>Success</strong> The spell is unaffected, but if the spell allows a saving throw, the vaspercham gains a +1 circumstance bonus to save against it.</p>\n<p><strong>Failure</strong> If the spell has a target and there are one or more viable targets within its range, the spell's target changes, determined randomly by the GM. If there is no other possible target within range or the spell has no target, the spell is disrupted.</p>\n<p><strong>Critical Failure</strong> The caster instead Casts another Spell, choosing randomly from their spell repertoire, prepared spells, or available focus spells (as appropriate) and selecting any targets at random.</p>"
                },
                "requirements": {
                    "value": ""
                },
                "rules": [],
                "slug": null,
                "source": {
                    "value": ""
                },
                "traits": {
                    "custom": "",
                    "rarity": {
                        "value": "common"
                    },
                    "value": [
                        "arcane",
                        "aura",
                        "transmutation"
                    ]
                },
                "trigger": {
                    "value": ""
                },
                "usage": {
                    "value": "held-in-one-hand"
                },
                "weapon": {
                    "value": ""
                }
            },
            "effects": [],
            "flags": {},
            "img": "icons/svg/mystery-man.svg",
            "name": "Magic-Warping Aura",
            "sort": 1700000,
            "type": "action"
        },
        {
            "_id": "lL32oAteqyTNi0nT",
            "data": {
                "actionCategory": {
                    "value": "offensive"
                },
                "actionType": {
                    "value": "passive"
                },
                "actions": {
                    "value": ""
                },
                "description": {
                    "chat": "",
                    "unidentified": "",
                    "value": "<p>A creature hit by the vaspercham's Strikes or Mindwarping Tide must attempt a DC 38 Fortitude save. On a failure, the creature is overwhelmed with phantasmal visions, becoming @Compendium[pf2e.conditionitems.Confused]{Confused} for 1 round (1 minute on a critical failure).</p>"
                },
                "requirements": {
                    "value": ""
                },
                "rules": [],
                "slug": null,
                "source": {
                    "value": ""
                },
                "traits": {
                    "custom": "",
                    "rarity": {
                        "value": "common"
                    },
                    "value": [
                        "arcane",
                        "illusion",
                        "mental"
                    ]
                },
                "trigger": {
                    "value": ""
                },
                "usage": {
                    "value": "held-in-one-hand"
                },
                "weapon": {
                    "value": ""
                }
            },
            "effects": [],
            "flags": {},
            "img": "icons/svg/mystery-man.svg",
            "name": "Hallucinatory Brine",
            "sort": 1800000,
            "type": "action"
        },
        {
            "_id": "YwNfN5E1fuqbDqG5",
            "data": {
                "actionCategory": {
                    "value": "offensive"
                },
                "actionType": {
                    "value": "action"
                },
                "actions": {
                    "value": "1"
                },
                "description": {
                    "chat": "",
                    "unidentified": "",
                    "value": "<p>The vaspercham releases an effusion of noxious water from its shell. Creatures within a 15-foot emanation must save against the vaspercham's hallucinatory brine.</p>"
                },
                "requirements": {
                    "value": ""
                },
                "rules": [],
                "slug": null,
                "source": {
                    "value": ""
                },
                "traits": {
                    "custom": "",
                    "rarity": {
                        "value": "common"
                    },
                    "value": [
                        "concentrate"
                    ]
                },
                "trigger": {
                    "value": ""
                },
                "usage": {
                    "value": "held-in-one-hand"
                },
                "weapon": {
                    "value": ""
                }
            },
            "effects": [],
            "flags": {},
            "img": "systems/pf2e/icons/actions/OneAction.png",
            "name": "Mindwarping Tide",
            "sort": 1900000,
            "type": "action"
        },
        {
            "_id": "WbbgLFwKjXAiRHsC",
            "data": {
                "actionCategory": {
                    "value": "offensive"
                },
                "actionType": {
                    "value": "action"
                },
                "actions": {
                    "value": "2"
                },
                "description": {
                    "chat": "",
                    "unidentified": "",
                    "value": "<p>The vaspercham makes four tentacle Strikes, each against a different target. These attacks count toward the vaspercham's multiple attack penalty, but the multiple attack penalty doesn't increase until after the vaspercham makes all of their attacks.</p>"
                },
                "requirements": {
                    "value": ""
                },
                "rules": [],
                "slug": null,
                "source": {
                    "value": ""
                },
                "traits": {
                    "custom": "",
                    "rarity": {
                        "value": "common"
                    },
                    "value": []
                },
                "trigger": {
                    "value": ""
                },
                "usage": {
                    "value": "held-in-one-hand"
                },
                "weapon": {
                    "value": ""
                }
            },
            "effects": [],
            "flags": {},
            "img": "systems/pf2e/icons/actions/TwoActions.png",
            "name": "Whipping Tentacles",
            "sort": 2000000,
            "type": "action"
        },
        {
            "_id": "5BsEmHC8c637JXcO",
            "data": {
                "description": {
                    "chat": "",
                    "unidentified": "",
                    "value": ""
                },
                "item": {
                    "value": 0
                },
                "mod": {
                    "value": 33
                },
                "proficient": {
                    "value": 0
                },
                "rules": [],
                "slug": null,
                "source": {
                    "value": ""
                },
                "traits": {
                    "custom": "",
                    "rarity": {
                        "value": "common"
                    },
                    "value": []
                },
                "usage": {
                    "value": "held-in-one-hand"
                }
            },
            "effects": [],
            "flags": {},
            "img": "icons/svg/mystery-man.svg",
            "name": "Arcana",
            "sort": 2100000,
            "type": "lore"
        },
        {
            "_id": "rVpz67jYztEpfNIT",
            "data": {
                "description": {
                    "chat": "",
                    "unidentified": "",
                    "value": ""
                },
                "item": {
                    "value": 0
                },
                "mod": {
                    "value": 33
                },
                "proficient": {
                    "value": 0
                },
                "rules": [],
                "slug": null,
                "source": {
                    "value": ""
                },
                "traits": {
                    "custom": "",
                    "rarity": {
                        "value": "common"
                    },
                    "value": []
                },
                "usage": {
                    "value": "held-in-one-hand"
                }
            },
            "effects": [],
            "flags": {},
            "img": "icons/svg/mystery-man.svg",
            "name": "Athletics",
            "sort": 2200000,
            "type": "lore"
        },
        {
            "_id": "WyLE83FhBX87eTRP",
            "data": {
                "description": {
                    "chat": "",
                    "unidentified": "",
                    "value": ""
                },
                "item": {
                    "value": 0
                },
                "mod": {
                    "value": 31
                },
                "proficient": {
                    "value": 0
                },
                "rules": [],
                "slug": null,
                "source": {
                    "value": ""
                },
                "traits": {
                    "custom": "",
                    "rarity": {
                        "value": "common"
                    },
                    "value": []
                },
                "usage": {
                    "value": "held-in-one-hand"
                }
            },
            "effects": [],
            "flags": {},
            "img": "icons/svg/mystery-man.svg",
            "name": "Deception",
            "sort": 2300000,
            "type": "lore"
        },
        {
            "_id": "PCKHZd9xN19WzRch",
            "data": {
                "description": {
                    "chat": "",
                    "unidentified": "",
                    "value": ""
                },
                "item": {
                    "value": 0
                },
                "mod": {
                    "value": 29
                },
                "proficient": {
                    "value": 0
                },
                "rules": [],
                "slug": null,
                "source": {
                    "value": ""
                },
                "traits": {
                    "custom": "",
                    "rarity": {
                        "value": "common"
                    },
                    "value": []
                },
                "usage": {
                    "value": "held-in-one-hand"
                }
            },
            "effects": [],
            "flags": {},
            "img": "icons/svg/mystery-man.svg",
            "name": "Intimidation",
            "sort": 2400000,
            "type": "lore"
        },
        {
            "_id": "wtTc3hKG8EYcuNer",
            "data": {
                "description": {
                    "chat": "",
                    "unidentified": "",
                    "value": ""
                },
                "item": {
                    "value": 0
                },
                "mod": {
                    "value": 33
                },
                "proficient": {
                    "value": 0
                },
                "rules": [],
                "slug": null,
                "source": {
                    "value": ""
                },
                "traits": {
                    "custom": "",
                    "rarity": {
                        "value": "common"
                    },
                    "value": []
                },
                "usage": {
                    "value": "held-in-one-hand"
                }
            },
            "effects": [],
            "flags": {},
            "img": "icons/svg/mystery-man.svg",
            "name": "Sea Lore",
            "sort": 2500000,
            "type": "lore"
        }
    ],
    "name": "Vaspercham",
    "permission": {
        "default": 0
    },
    "token": {
        "actorId": "gVNKimslRe1k2hdV",
        "actorLink": false,
        "bar1": {
            "attribute": "attributes.hp"
        },
        "bar2": {},
        "brightLight": 0,
        "brightSight": 0,
        "dimLight": 0,
        "dimSight": 0,
        "displayBars": 20,
        "displayName": 20,
        "disposition": -1,
        "flags": {},
        "height": 3,
        "img": "icons/svg/mystery-man.svg",
        "lightAlpha": 1,
        "lightAngle": 360,
        "lightAnimation": {
            "intensity": 5,
            "speed": 5
        },
        "lockRotation": false,
        "name": "Vaspercham",
        "randomImg": false,
        "rotation": 0,
        "scale": 1,
        "sightAngle": 360,
        "tint": null,
        "vision": false,
        "width": 3
    },
    "type": "npc"
}
