{
    "_id": "rerNA6YZsdxuJYt3",
    "data": {
        "ability": {
            "value": ""
        },
        "area": {
            "value": ""
        },
        "areasize": {
            "value": ""
        },
        "components": {
            "value": "somatic, verbal"
        },
        "cost": {
            "value": ""
        },
        "damage": {
            "applyMod": false,
            "value": ""
        },
        "damageType": {
            "value": ""
        },
        "description": {
            "chat": "",
            "unidentified": "",
            "value": "<p>You loop a thought process in the target's mind, forcing it to repeat the same actions over again. The target must attempt a Will save. If the target fails, whatever actions the target uses on its next turn, it must repeat on its following turn. The actions must be repeated in the same order and as close to the same specifics as possible. For example, if the target makes an attack, it must repeat the attack against the same creature, if possible, and if the target moves, it must move the same distance and direction, if possible, on its next turn.</p>\n<p>If the target can't repeat an action, such as @Compendium[pf2e.actionspf2e.Cast a Spell]{Casting a Spell} that has been exhausted or needing to target a creature that has died, it can act as it chooses for that action but becomes @Compendium[pf2e.conditionitems.Stupefied]{Stupefied 1} until the end of its turn.</p>"
        },
        "duration": {
            "value": "2 rounds"
        },
        "hasCounteractCheck": {
            "value": false
        },
        "level": {
            "value": 1
        },
        "location": {
            "value": ""
        },
        "materials": {
            "value": ""
        },
        "prepared": {
            "value": false
        },
        "primarycheck": {
            "value": ""
        },
        "range": {
            "value": "100 feet"
        },
        "rules": [],
        "save": {
            "basic": "",
            "value": "will"
        },
        "scaling": {
            "formula": "",
            "mode": "none"
        },
        "school": {
            "value": "enc"
        },
        "secondarycasters": {
            "value": ""
        },
        "secondarycheck": {
            "value": ""
        },
        "source": {
            "value": ""
        },
        "spellCategorie": {
            "value": "spell"
        },
        "spellCategory": {
            "value": ""
        },
        "spellType": {
            "value": "save"
        },
        "sustained": {
            "value": false
        },
        "target": {
            "value": "1 creature"
        },
        "time": {
            "value": "2"
        },
        "traditions": {
            "value": [
                "arcane",
                "occult"
            ]
        },
        "traits": {
            "custom": "",
            "rarity": {
                "value": "common"
            },
            "value": [
                "enchantment",
                "incapacitation",
                "mental"
            ]
        }
    },
    "effects": [],
    "flags": {},
    "img": "systems/pf2e/icons/spells/deja-vu.jpg",
    "name": "Déjà Vu",
    "permission": {
        "default": 0
    },
    "type": "spell"
}
