{
    "_id": "hiVL8qsnTJtpouw0",
    "data": {
        "ability": {
            "value": ""
        },
        "area": {
            "areaType": "",
            "value": null
        },
        "areasize": {
            "value": ""
        },
        "components": {
            "value": "somatic, verbal"
        },
        "cost": {
            "value": ""
        },
        "damage": {
            "applyMod": false,
            "value": ""
        },
        "damageType": {
            "value": ""
        },
        "description": {
            "chat": "",
            "unidentified": "",
            "value": "<p><span>You accept otherworldly energies into your body; while you are still recognizably yourself, you gain the features of one of your deity's servitors. Choose an alignment your deity has (chaotic, evil, good, or lawful). You can't cast this spell if you don't have a deity or your deity is true neutral. This spell gains the trait of the alignment you chose.<br /><br />If you were Medium or smaller, you become Large, as the effects of @Compendium[pf2e.spells-srd.Enlarge]{Enlarge}. You must have space to expand into, or the spell is lost. You also gain the following benefits. </span></p>\n<ul>\n<li>40 temporary Hit Points.</li>\n<li>A fly Speed equal to your Speed.</li>\n<li>Weakness 10 to the alignment opposite the one you chose.</li>\n<li>A +1 status bonus to saves against spells.</li>\n<li>Darkvision.</li>\n<li>Your unarmed attacks and weapons deal 1 additional damage of the chosen alignment type.</li>\n<li>One or more unarmed melee attacks. If you chose good or lawful, your fist attacks deal 2d8 damage. If you chose chaotic, you gain a bite unarmed attack that deals 2d10 piercing damage. If you chose evil, you gain a claws unarmed attack that deals 2d8 slashing damage and has the agile and finesse traits.</li>\n</ul>\n<hr />\n<p><strong>Heightened (9th)</strong> The temporary Hit Points increase to 60, the weakness increases to 15, and the duration increases to 10 minutes.</p>"
        },
        "duration": {
            "value": "1 minute"
        },
        "hasCounteractCheck": {
            "value": false
        },
        "level": {
            "value": 7
        },
        "location": {
            "value": ""
        },
        "materials": {
            "value": ""
        },
        "prepared": {
            "value": ""
        },
        "primarycheck": {
            "value": ""
        },
        "range": {
            "value": ""
        },
        "rules": [],
        "save": {
            "basic": "",
            "value": ""
        },
        "scaling": {
            "formula": "",
            "mode": "none"
        },
        "school": {
            "value": "trs"
        },
        "secondarycasters": {
            "value": ""
        },
        "secondarycheck": {
            "value": ""
        },
        "source": {
            "value": ""
        },
        "spellCategorie": {
            "value": "spell"
        },
        "spellCategory": {
            "value": ""
        },
        "spellType": {
            "value": "utility"
        },
        "sustained": {
            "value": false
        },
        "target": {
            "value": ""
        },
        "time": {
            "value": "2"
        },
        "traditions": {
            "value": [
                "divine"
            ]
        },
        "traits": {
            "custom": "",
            "rarity": {
                "value": "common"
            },
            "value": [
                "morph",
                "transmutation"
            ]
        }
    },
    "effects": [],
    "flags": {},
    "img": "systems/pf2e/icons/spells/divine-vessel.jpg",
    "name": "Divine Vessel",
    "permission": {
        "default": 0
    },
    "type": "spell"
}
