{
    "_id": "6s0UW4bujggma9TC",
    "data": {
        "ability": {
            "value": ""
        },
        "area": {
            "areaType": "",
            "value": null
        },
        "areasize": {
            "value": ""
        },
        "components": {
            "value": "material, somatic, verbal"
        },
        "cost": {
            "value": ""
        },
        "damage": {
            "applyMod": false,
            "value": ""
        },
        "damageType": {
            "value": ""
        },
        "description": {
            "chat": "",
            "unidentified": "",
            "value": "<p><span>Choose a single statement you want the targets to believe. The fact could be narrow, such as \"a dragon is circling overhead and wants to kill me\"; wide-reaching, such as \"all humanoids are disguised abominations\"; or conceptual, such as \"if I don't live a kinder life, I'll be punished in the afterlife.\" The targets' experiences color how they react to this \"truth\" and how their behavior changes. If the statement changes what they perceive, they treat the change as a sudden revelation.<br /></span></p>\n<p><span>The effect of the spell depends on the targets' Will saves. If a target is already subject to <em>fabricated truth</em>, your spell tries to counteract it. If the counteract check fails, the outcome of the target's saving throw can't be worse than a success. </span></p>\n<hr />\n<p><strong>Critical Success</strong> The target doesn't believe the statement, and it knows you tried to trick it.</p>\n<p><strong>Success</strong> The target doesn't believe the statement or realize you tried to trick it.</p>\n<p><strong>Failure</strong> The target believes the statement for a duration of 1 week.</p>\n<p><strong>Critical Failure</strong> The target believes the statement with unlimited duration.</p>"
        },
        "duration": {
            "value": "varies"
        },
        "hasCounteractCheck": {
            "value": true
        },
        "level": {
            "value": 10
        },
        "location": {
            "value": ""
        },
        "materials": {
            "value": ""
        },
        "prepared": {
            "value": ""
        },
        "primarycheck": {
            "value": ""
        },
        "range": {
            "value": "100 feet"
        },
        "rules": [],
        "save": {
            "basic": "",
            "value": "will"
        },
        "scaling": {
            "formula": "",
            "mode": "none"
        },
        "school": {
            "value": "enc"
        },
        "secondarycasters": {
            "value": ""
        },
        "secondarycheck": {
            "value": ""
        },
        "source": {
            "value": ""
        },
        "spellCategorie": {
            "value": "spell"
        },
        "spellCategory": {
            "value": ""
        },
        "spellType": {
            "value": "save"
        },
        "sustained": {
            "value": false
        },
        "target": {
            "value": "up to 5 creatures"
        },
        "time": {
            "value": "3"
        },
        "traditions": {
            "value": [
                "occult"
            ]
        },
        "traits": {
            "custom": "",
            "rarity": {
                "value": "common"
            },
            "value": [
                "enchantment",
                "incapacitation",
                "mental"
            ]
        }
    },
    "effects": [],
    "flags": {},
    "img": "systems/pf2e/icons/spells/fabricated-truth.jpg",
    "name": "Fabricated Truth",
    "permission": {
        "default": 0
    },
    "type": "spell"
}
