{
    "_id": "uGXWkR2h8q9MRzEM",
    "data": {
        "ability": {
            "value": ""
        },
        "area": {
            "areaType": "",
            "value": null
        },
        "areasize": {
            "value": ""
        },
        "components": {
            "value": "verbal"
        },
        "cost": {
            "value": ""
        },
        "damage": {
            "applyMod": false,
            "value": "10d4+20"
        },
        "damageType": {
            "value": "healing"
        },
        "description": {
            "chat": "",
            "unidentified": "",
            "value": "<p><strong>Trigger</strong> An attack would bring you to 0 Hit Points.</p>\n<hr />\n<p>You shout in defiance, filling you with a sudden burst of healing. Just before applying the attack's damage, you recover 10d4+20 Hit Points. If this is enough to prevent the attack from bringing you to 0 Hit Points, you don't become @Compendium[pf2e.conditionitems.Unconscious]{Unconscious} or @Compendium[pf2e.conditionitems.Dying]{Dying}. Either way, cheating death is difficult, and you can't use hero's defiance again until you Refocus or the next time you prepare. Hero's defiance cannot be used against effects with the death trait or that would leave no remains, such as disintegrate.</p>"
        },
        "duration": {
            "value": ""
        },
        "hasCounteractCheck": {
            "value": false
        },
        "level": {
            "value": 10
        },
        "location": {
            "value": ""
        },
        "materials": {
            "value": ""
        },
        "prepared": {
            "value": ""
        },
        "primarycheck": {
            "value": ""
        },
        "range": {
            "value": ""
        },
        "rules": [],
        "save": {
            "basic": "",
            "value": ""
        },
        "scaling": {
            "formula": "",
            "mode": "none"
        },
        "school": {
            "value": "nec"
        },
        "secondarycasters": {
            "value": ""
        },
        "secondarycheck": {
            "value": ""
        },
        "source": {
            "value": ""
        },
        "spellCategorie": {
            "value": "focus"
        },
        "spellCategory": {
            "value": ""
        },
        "spellType": {
            "value": "heal"
        },
        "sustained": {
            "value": false
        },
        "target": {
            "value": ""
        },
        "time": {
            "value": "free"
        },
        "traditions": {
            "value": [
                "focus"
            ]
        },
        "traits": {
            "custom": "",
            "rarity": {
                "value": "uncommon"
            },
            "value": [
                "champion",
                "healing",
                "necromancy",
                "positive"
            ]
        }
    },
    "effects": [],
    "flags": {},
    "img": "systems/pf2e/icons/spells/heros-defiance.jpg",
    "name": "Hero's Defiance",
    "permission": {
        "default": 0
    },
    "type": "spell"
}
