{
    "_id": "BKIet436snMNcnez",
    "data": {
        "ability": {
            "value": ""
        },
        "area": {
            "areaType": "",
            "value": null
        },
        "areasize": {
            "value": ""
        },
        "components": {
            "value": "somatic, verbal"
        },
        "cost": {
            "value": ""
        },
        "damage": {
            "applyMod": false,
            "value": "10d8"
        },
        "damageType": {
            "value": "cold"
        },
        "description": {
            "chat": "",
            "unidentified": "",
            "value": "<p>You fire a blue-white ray of freezing air and sleet that deals 10d8 cold damage. Make a spell attack roll against the target.</p>\n<p><strong>Critical Success</strong> The target takes double damage and is @Compendium[pf2e.conditionitems.Drained]{Drained 2}</p>\n<p><strong>Success</strong> The target takes full damage and is @Compendium[pf2e.conditionitems.Drained]{Drained 2}</p>\n<hr />\n<p><strong>Heightened (+1)</strong> The damage increases by 2d8</p>"
        },
        "duration": {
            "value": ""
        },
        "hasCounteractCheck": {
            "value": false
        },
        "level": {
            "value": 8
        },
        "location": {
            "value": ""
        },
        "materials": {
            "value": ""
        },
        "prepared": {
            "value": ""
        },
        "primarycheck": {
            "value": ""
        },
        "range": {
            "value": "120 feet"
        },
        "rules": [],
        "save": {
            "basic": "",
            "value": ""
        },
        "scaling": {
            "formula": "2d8",
            "mode": "level1"
        },
        "school": {
            "value": "evo"
        },
        "secondarycasters": {
            "value": ""
        },
        "secondarycheck": {
            "value": ""
        },
        "source": {
            "value": ""
        },
        "spellCategorie": {
            "value": "spell"
        },
        "spellCategory": {
            "value": ""
        },
        "spellType": {
            "value": "attack"
        },
        "sustained": {
            "value": false
        },
        "target": {
            "value": "1 creature"
        },
        "time": {
            "value": "2"
        },
        "traditions": {
            "value": [
                "arcane",
                "primal"
            ]
        },
        "traits": {
            "custom": "",
            "rarity": {
                "value": "common"
            },
            "value": [
                "attack",
                "cold",
                "evocation"
            ]
        }
    },
    "effects": [],
    "flags": {},
    "img": "systems/pf2e/icons/spells/polar-ray.jpg",
    "name": "Polar Ray",
    "permission": {
        "default": 0
    },
    "type": "spell"
}
