{
    "_id": "Yk3t4ekEiFIoEz9c",
    "data": {
        "ability": {
            "value": ""
        },
        "area": {
            "areaType": "",
            "value": null
        },
        "areasize": {
            "value": ""
        },
        "components": {
            "value": "verbal"
        },
        "cost": {
            "value": ""
        },
        "damage": {
            "applyMod": false,
            "value": ""
        },
        "damageType": {
            "value": ""
        },
        "description": {
            "chat": "",
            "unidentified": "",
            "value": "<p>You utter an arcane word of power that can make the target @Compendium[pf2e.conditionitems.Blinded]{Blinded} upon hearing it. Once targeted, the target is then temporarily immune for 10 minutes. The effect of the spell depends on the target's level.</p>\n<hr />\n<p><strong>11th or Lower</strong> The target is Blinded permanently.</p>\n<p><strong>12th-13th</strong> The target is Blinded for 1d4 minutes.</p>\n<p><strong>14th or Higher</strong> The target is @Compendium[pf2e.conditionitems.Dazzled]{Dazzled} for 1 minute.</p>\n<hr />\n<p><strong>Heightened (+1)</strong> The levels at which each outcome applies increase by 2.</p>"
        },
        "duration": {
            "value": "varies"
        },
        "hasCounteractCheck": {
            "value": false
        },
        "level": {
            "value": 7
        },
        "location": {
            "value": ""
        },
        "materials": {
            "value": ""
        },
        "prepared": {
            "value": ""
        },
        "primarycheck": {
            "value": ""
        },
        "range": {
            "value": "30 feet"
        },
        "rules": [],
        "save": {
            "basic": "",
            "value": ""
        },
        "scaling": {
            "formula": "",
            "mode": "none"
        },
        "school": {
            "value": "enc"
        },
        "secondarycasters": {
            "value": ""
        },
        "secondarycheck": {
            "value": ""
        },
        "source": {
            "value": ""
        },
        "spellCategorie": {
            "value": "spell"
        },
        "spellCategory": {
            "value": ""
        },
        "spellType": {
            "value": "utility"
        },
        "sustained": {
            "value": false
        },
        "target": {
            "value": "1 creature"
        },
        "time": {
            "value": "1"
        },
        "traditions": {
            "value": [
                "arcane"
            ]
        },
        "traits": {
            "custom": "",
            "rarity": {
                "value": "uncommon"
            },
            "value": [
                "auditory",
                "enchantment",
                "mental"
            ]
        }
    },
    "effects": [],
    "flags": {},
    "img": "systems/pf2e/icons/spells/power-word-blind.jpg",
    "name": "Power Word Blind",
    "permission": {
        "default": 0
    },
    "type": "spell"
}
