{
    "_id": "ifXNOhtmU4fKL68v",
    "data": {
        "ability": {
            "value": ""
        },
        "area": {
            "areaType": "",
            "value": null
        },
        "areasize": {
            "value": ""
        },
        "components": {
            "value": "material, somatic"
        },
        "cost": {
            "value": ""
        },
        "damage": {
            "applyMod": false,
            "value": ""
        },
        "damageType": {
            "value": ""
        },
        "description": {
            "chat": "",
            "unidentified": "",
            "value": "<p><span>You strike mention of a specific name from one or more documents. When you cast the spell, give one proper name, be it a creature, location, or object. Any mention of that name within the document becomes blurred, smudged, or otherwise completely illegible. Epithets and unambiguous references to the name are redacted as well; for instance, redacting the name of the goddess @Compendium[pf2e.deities.Sarenrae]{Sarenrae} from a book would also remove references to her title \"the Dawnflower.\"</span></p>\n<hr />\n<p><strong>Heightened (3rd)</strong> Instead of striking out a given name, you can replace it with a different name you choose. Epithets and references are substituted with similar ones relating to the replacement name. Anyone reading the text can attempt a Perception or Society check against your spell DC to notice the altered text, though that doesn't tell them what the original said.</p>\n<p><strong>Heightened (4th)</strong> At your choice, the duration is unlimited.</p>"
        },
        "duration": {
            "value": "1 day"
        },
        "hasCounteractCheck": {
            "value": false
        },
        "level": {
            "value": 1
        },
        "location": {
            "value": ""
        },
        "materials": {
            "value": ""
        },
        "prepared": {
            "value": ""
        },
        "primarycheck": {
            "value": ""
        },
        "range": {
            "value": "30 feet"
        },
        "rules": [],
        "save": {
            "basic": "",
            "value": ""
        },
        "scaling": {
            "formula": "",
            "mode": "none"
        },
        "school": {
            "value": "trs"
        },
        "secondarycasters": {
            "value": ""
        },
        "secondarycheck": {
            "value": ""
        },
        "source": {
            "value": ""
        },
        "spellCategorie": {
            "value": "focus"
        },
        "spellCategory": {
            "value": ""
        },
        "spellType": {
            "value": "utility"
        },
        "sustained": {
            "value": false
        },
        "target": {
            "value": "unattended written materials of up to 1 Bulk or less"
        },
        "time": {
            "value": "2"
        },
        "traditions": {
            "custom": "",
            "value": [
                "focus"
            ]
        },
        "traits": {
            "custom": "",
            "rarity": {
                "value": "uncommon"
            },
            "value": [
                "cleric",
                "transmutation"
            ]
        }
    },
    "effects": [],
    "flags": {},
    "img": "systems/pf2e/icons/spells/redact.jpg",
    "name": "Redact",
    "permission": {
        "default": 0
    },
    "type": "spell"
}
