{
    "_id": "gfKhtVsXF3HKSdmY",
    "data": {
        "ability": {
            "value": ""
        },
        "area": {
            "value": ""
        },
        "areasize": {
            "value": ""
        },
        "components": {
            "value": "somatic, verbal"
        },
        "cost": {
            "value": ""
        },
        "damage": {
            "applyMod": false,
            "value": ""
        },
        "damageType": {
            "value": ""
        },
        "description": {
            "chat": "",
            "unidentified": "",
            "value": "<p>You utter a curse that a creature will meet a certain end-a death by freezing, stabbing, or another means you devise. Choose one type of damage from the following list: acid, bludgeoning, cold, electricity, fire, negative, piercing, slashing, or sonic. The effect is based on the target's Fortitude save.</p>\n<hr />\n<p><strong>Critical Success</strong> The target is unaffected.</p>\n<p><strong>Success</strong> The target gains weakness 2 to the chosen damage type until the end of your next turn.</p>\n<p><strong>Failure</strong> As success, but the duration is 1 minute. If the creature is reduced to 0 HP by the chosen damage and its level is 7 or less, it dies.</p>\n<p><strong>Critical Failure</strong> As failure, but the duration is unlimited.</p>\n<hr />\n<p><strong>Heightened (+2)</strong> The weakness increases by 1, and the maximum level of creature that can be automatically killed increases by 4.</p>"
        },
        "duration": {
            "value": ""
        },
        "hasCounteractCheck": {
            "value": false
        },
        "level": {
            "value": 4
        },
        "location": {
            "value": ""
        },
        "materials": {
            "value": ""
        },
        "prepared": {
            "value": false
        },
        "primarycheck": {
            "value": ""
        },
        "range": {
            "value": "touch"
        },
        "rules": [],
        "save": {
            "basic": "",
            "value": "fortitude"
        },
        "scaling": {
            "formula": "",
            "mode": "none"
        },
        "school": {
            "value": "nec"
        },
        "secondarycasters": {
            "value": ""
        },
        "secondarycheck": {
            "value": ""
        },
        "source": {
            "value": ""
        },
        "spellCategorie": {
            "value": "spell"
        },
        "spellCategory": {
            "value": ""
        },
        "spellType": {
            "value": "attack"
        },
        "sustained": {
            "value": false
        },
        "target": {
            "value": "1 living creature"
        },
        "time": {
            "value": "2"
        },
        "traditions": {
            "value": [
                "arcane",
                "divine",
                "occult"
            ]
        },
        "traits": {
            "custom": "",
            "rarity": {
                "value": "common"
            },
            "value": [
                "curse",
                "death",
                "necromancy"
            ]
        }
    },
    "effects": [],
    "flags": {},
    "img": "systems/pf2e/icons/spells/seal-fate.jpg",
    "name": "Seal Fate",
    "permission": {
        "default": 0
    },
    "type": "spell"
}
