{
    "_id": "Xxdwkt0EEDgP1LGc",
    "data": {
        "ability": {
            "value": ""
        },
        "area": {
            "value": ""
        },
        "areasize": {
            "value": "60-foot emanation"
        },
        "components": {
            "value": "verbal"
        },
        "cost": {
            "value": ""
        },
        "damage": {
            "applyMod": false,
            "value": ""
        },
        "damageType": {
            "value": ""
        },
        "description": {
            "chat": "",
            "unidentified": "",
            "value": "<p>You bolster your allies' physical strength with a hearty exhortation. You and your allies gain a +1 status bonus to Athletics checks and to their DCs against Athletics skill actions such as @Compendium[pf2e.actionspf2e.Disarm]{Disarm}, @Compendium[pf2e.actionspf2e.Shove]{Shove}, and @Compendium[pf2e.actionspf2e.Trip]{Trip}.</p>\n<p>@Compendium[pf2e.spell-effects.Spell Effect: Song of Strength]{Spell Effect: Song of Strength}</p>\n<hr />\n<p><strong>Special</strong> If you have the @Compendium[pf2e.spells-srd.Inspire Heroics]{Inspire Heroics} composition spell, you can use that composition to improve the bonus granted by song of strength in the same way as Inspire Courage or Inspire Defense.</p>\n<p>@Compendium[pf2e.spell-effects.Spell Effect: Inspire Heroics (Strength, +2)]{Success on Inspire Heroics}, @Compendium[pf2e.spell-effects.Spell Effect: Inspire Heroics (Strength, +3)]{Critical success on Inspire Heroics}</p>"
        },
        "duration": {
            "value": "1 round"
        },
        "hasCounteractCheck": {
            "value": false
        },
        "level": {
            "value": 0
        },
        "location": {
            "value": ""
        },
        "materials": {
            "value": ""
        },
        "prepared": {
            "value": ""
        },
        "primarycheck": {
            "value": ""
        },
        "range": {
            "value": ""
        },
        "rules": [],
        "save": {
            "basic": "",
            "value": ""
        },
        "scaling": {
            "formula": "",
            "mode": "none"
        },
        "school": {
            "value": "enc"
        },
        "secondarycasters": {
            "value": ""
        },
        "secondarycheck": {
            "value": ""
        },
        "source": {
            "value": ""
        },
        "spellCategorie": {
            "value": "focus"
        },
        "spellCategory": {
            "value": ""
        },
        "spellType": {
            "value": "utility"
        },
        "sustained": {
            "value": false
        },
        "target": {
            "value": ""
        },
        "time": {
            "value": "1"
        },
        "traditions": {
            "custom": "",
            "value": [
                "occult"
            ]
        },
        "traits": {
            "custom": "",
            "rarity": {
                "value": "common"
            },
            "value": [
                "bard",
                "cantrip",
                "composition",
                "emotion",
                "enchantment",
                "mental"
            ]
        }
    },
    "effects": [],
    "flags": {},
    "img": "systems/pf2e/icons/spells/song-of-strength.jpg",
    "name": "Song of Strength",
    "permission": {
        "default": 0
    },
    "type": "spell"
}
