{
    "_id": "Ht35SDf9PDStJfoC",
    "data": {
        "ability": {
            "value": ""
        },
        "area": {
            "areaType": "",
            "value": null
        },
        "areasize": {
            "value": "60-foot cone"
        },
        "components": {
            "value": "somatic, verbal"
        },
        "cost": {
            "value": ""
        },
        "damage": {
            "applyMod": false,
            "value": "18d6"
        },
        "damageType": {
            "value": "force"
        },
        "description": {
            "chat": "",
            "unidentified": "",
            "value": "<p>Your eldritch song sends pulsing waves of ethereal energy to attack creatures' spirits in the area, dealing 18d6 force damage. Because spirit song affects creatures' spirits, it can damage a target projecting its consciousness (such as via project image) or possessing another creature even if the target's body is elsewhere. The vibrating waves of spiritual song penetrate into, but not through, solid barriers, damaging incorporeal creatures hiding in solid objects in the area but not passing onward to damage creatures in other rooms. Possessed creatures aren't harmed by the song. The song doesn't harm creatures that have no spirit, such as constructs.</p>\n<hr />\n<p><strong>Heightened (+1)</strong> The damage increases by 2d6.</p>"
        },
        "duration": {
            "value": ""
        },
        "hasCounteractCheck": {
            "value": false
        },
        "level": {
            "value": 8
        },
        "location": {
            "value": ""
        },
        "materials": {
            "value": ""
        },
        "prepared": {
            "value": ""
        },
        "primarycheck": {
            "value": ""
        },
        "range": {
            "value": ""
        },
        "rules": [],
        "save": {
            "basic": "basic",
            "value": "fortitude"
        },
        "scaling": {
            "formula": "3d6",
            "mode": "level1"
        },
        "school": {
            "value": "nec"
        },
        "secondarycasters": {
            "value": ""
        },
        "secondarycheck": {
            "value": ""
        },
        "source": {
            "value": ""
        },
        "spellCategorie": {
            "value": "spell"
        },
        "spellCategory": {
            "value": ""
        },
        "spellType": {
            "value": "save"
        },
        "sustained": {
            "value": false
        },
        "target": {
            "value": ""
        },
        "time": {
            "value": "2"
        },
        "traditions": {
            "value": [
                "occult"
            ]
        },
        "traits": {
            "custom": "",
            "rarity": {
                "value": "common"
            },
            "value": [
                "force",
                "necromancy"
            ]
        }
    },
    "effects": [],
    "flags": {},
    "img": "systems/pf2e/icons/spells/spirit-song.jpg",
    "name": "Spirit Song",
    "permission": {
        "default": 0
    },
    "type": "spell"
}
