{
    "_id": "cB17yFc9456Pyfec",
    "data": {
        "ability": {
            "value": ""
        },
        "area": {
            "areaType": "cone",
            "value": 30
        },
        "areasize": {
            "value": "30-foot cone"
        },
        "components": {
            "value": "somatic, verbal"
        },
        "cost": {
            "value": ""
        },
        "damage": {
            "applyMod": false,
            "value": "2d8"
        },
        "damageType": {
            "value": "piercing"
        },
        "description": {
            "chat": "",
            "unidentified": "",
            "value": "<p>You belch forth a swarm of magical vermin. You evoke and shape the creatures from your own imagination, allowing you to change the appearance of the creatures (typically a mix of centipedes, roaches, wasps, and worms), but this doesn't change the effect of the spell. The vermin swarm over anyone in the area, their bites and stings dealing [[/r 2d8 #piercing]] piercing damage (basic Reflex save). A creature that fails its saving throw also becomes @Compendium[pf2e.conditionitems.Sickened]{Sickened 1}. Once the spell ends, the swarm disappears.</p>\n<hr />\n<p><strong>Heightened (+1)</strong> Increase the damage by [[/r 1d8#piercing]].</p>"
        },
        "duration": {
            "value": ""
        },
        "hasCounteractCheck": {
            "value": false
        },
        "level": {
            "value": 2
        },
        "location": {
            "value": ""
        },
        "materials": {
            "value": ""
        },
        "prepared": {
            "value": false
        },
        "primarycheck": {
            "value": ""
        },
        "range": {
            "value": ""
        },
        "rules": [],
        "save": {
            "basic": "basic",
            "value": "reflex"
        },
        "scaling": {
            "formula": "1d8",
            "mode": "level1"
        },
        "school": {
            "value": "evo"
        },
        "secondarycasters": {
            "value": ""
        },
        "secondarycheck": {
            "value": ""
        },
        "source": {
            "value": ""
        },
        "spellCategorie": {
            "value": "spell"
        },
        "spellCategory": {
            "value": ""
        },
        "spellType": {
            "value": "save"
        },
        "sustained": {
            "value": false
        },
        "target": {
            "value": ""
        },
        "time": {
            "value": "2"
        },
        "traditions": {
            "value": [
                "arcane",
                "occult",
                "primal"
            ]
        },
        "traits": {
            "custom": "",
            "rarity": {
                "value": "common"
            },
            "value": [
                "evocation"
            ]
        }
    },
    "effects": [],
    "flags": {},
    "img": "systems/pf2e/icons/spells/vomit-swarm.jpg",
    "name": "Vomit Swarm",
    "permission": {
        "default": 0
    },
    "type": "spell"
}
