{
    "_id": "HFHSh2RWuxa4GhhQ",
    "data": {
        "actionCategory": {
            "value": ""
        },
        "actionType": {
            "value": "passive"
        },
        "actions": {
            "value": ""
        },
        "description": {
            "value": "<p>Your heritage traces to azarketis living deep beneath the sea, and you can handle the chilling depths more easily than most. You gain resistance to cold equal to half your level, and you don’t treat environmental cold as one degree more severe when you are wet. You adapt to pressure changes from being deep underwater automatically without ill effect.</p>"
        },
        "featType": {
            "value": "heritage"
        },
        "level": {
            "value": 1
        },
        "location": "",
        "prerequisites": [],
        "rules": [],
        "source": {
            "value": ""
        },
        "traits": {
            "custom": "",
            "rarity": {
                "value": "common"
            },
            "value": [
                "azarketi"
            ]
        }
    },
    "effects": [],
    "flags": {},
    "img": "systems/pf2e/icons/default-icons/feat.svg",
    "name": "Benthic Azarketi",
    "permission": {
        "default": 0
    },
    "type": "feat"
}
