{
    "_id": "uSAYmU7PO2QoOWhB",
    "data": {
        "actionCategory": {
            "value": ""
        },
        "actionType": {
            "value": "passive"
        },
        "actions": {
            "value": ""
        },
        "description": {
            "value": "<p>You find it difficult to understand and express complex emotions. You take a –1 circumstance penalty to Diplomacy and Performance checks, and on Perception checks to Sense Motive.</p>"
        },
        "featType": {
            "value": "ancestryfeature"
        },
        "level": {
            "value": 1
        },
        "location": "",
        "prerequisites": [],
        "rules": [],
        "source": {
            "value": ""
        },
        "traits": {
            "custom": "",
            "rarity": {
                "value": "common"
            },
            "value": [
                "android"
            ]
        }
    },
    "effects": [],
    "flags": {},
    "img": "systems/pf2e/icons/default-icons/feat.svg",
    "name": "Emotionally Unaware",
    "permission": {
        "default": 0
    },
    "type": "feat"
}
