{
    "_id": "7ZDCShtRg5QZggrU",
    "data": {
        "actionCategory": {
            "value": ""
        },
        "actionType": {
            "value": "passive"
        },
        "actions": {
            "value": ""
        },
        "description": {
            "value": "<p>Your ancestors had to survive in polluted water that made every breath noxious. You gain poison resistance equal to half your level (minimum 1). Furthermore, you can survive outside of water for 72 hours before you begin to suffocate.</p>"
        },
        "featType": {
            "value": "heritage"
        },
        "level": {
            "value": 1
        },
        "location": "",
        "prerequisites": [],
        "rules": [],
        "source": {
            "value": ""
        },
        "traits": {
            "custom": "",
            "rarity": {
                "value": "common"
            },
            "value": [
                "azarketi"
            ]
        }
    },
    "effects": [],
    "flags": {},
    "img": "systems/pf2e/icons/default-icons/feat.svg",
    "name": "Inured Azarketi",
    "permission": {
        "default": 0
    },
    "type": "feat"
}
