{
    "_id": "Gmk7oNITvMVBy78Z",
    "data": {
        "actionCategory": {
            "value": ""
        },
        "actionType": {
            "value": "passive"
        },
        "actions": {
            "value": ""
        },
        "description": {
            "value": "<p>A water elemental ancestor influences your bloodline. You gain the undine trait, in addition to the traits from your ancestry. You gain a swim Speed of 10 feet and the amphibious trait. Like all creatures with the amphibious trait, you can breathe both water and air. You can choose from undine feats and feats from your ancestry whenever you gain an ancestry feat.</p>\n<hr />\n<p>GENIEKIN FEATS</p>\n<p>At 1st level, you gain one ancestry feat, and you gain an additional ancestry feat every 4 levels thereafter (at 5th, 9th, 13th, and 17th levels). As a geniekin you can choose from among the following ancestry feats, in addition to those available to your specific geniekin heritage and your ancestry.</p>"
        },
        "featType": {
            "value": "heritage"
        },
        "level": {
            "value": 1
        },
        "location": "",
        "prerequisites": [],
        "rules": [],
        "source": {
            "value": ""
        },
        "traits": {
            "custom": "",
            "rarity": {
                "value": "common"
            },
            "value": [
                "geniekin",
                "undine",
                "versatile heritage"
            ]
        }
    },
    "effects": [],
    "flags": {},
    "img": "systems/pf2e/icons/default-icons/feat.svg",
    "name": "Undine",
    "permission": {
        "default": 0
    },
    "type": "feat"
}
