{
    "_id": "K124fCpU03SJvmeP",
    "data": {
        "actionCategory": {
            "value": ""
        },
        "actionType": {
            "value": "passive"
        },
        "actions": {
            "value": ""
        },
        "description": {
            "chat": "",
            "unidentified": "",
            "value": "<p>You come from a line of wandering mercenaries, constantly on the march and scavenging food on the trail. If you fail, but not critically fail, to @Compendium[pf2e.actionspf2e.Subsist]{Subsist} in the wilderness, you can still keep yourself fed with poor meals. When exploring, you can @Compendium[pf2e.actionspf2e.Hustle]{Hustle} twice as long before you have to stop.</p>"
        },
        "featType": {
            "value": "heritage"
        },
        "level": {
            "value": 1
        },
        "prerequisites": [],
        "rules": [],
        "source": {
            "value": ""
        },
        "traits": {
            "custom": "",
            "rarity": {
                "value": "common"
            },
            "value": [
                "hobgoblin"
            ]
        }
    },
    "effects": [],
    "flags": {},
    "img": "systems/pf2e/icons/features/ancestry/warmarch-hobgoblin.jpg",
    "name": "Warmarch Hobgoblin",
    "permission": {
        "default": 0
    },
    "type": "feat"
}
