{
    "_id": "SI37oVZxjwXew3E4",
    "data": {
        "actionCategory": {
            "value": ""
        },
        "actionType": {
            "value": "passive"
        },
        "actions": {
            "value": ""
        },
        "description": {
            "chat": "",
            "unidentified": "",
            "value": "<p><strong>[Social]</strong></p>\n<p><strong>Prerequisites</strong><strong>:</strong> Tier 3 with the Envoy's Alliance</p>\n<p><strong>Cost</strong>: 2 Fame</p>\n<p><strong>Effect</strong>: You and your allies treat your effective character levels as 1 lower for the purpose of the @Compendium[pf2e.spells-srd.Raise Dead]{Raise Dead} spell and the @Compendium[pf2e.spells-srd.Resurrect]{Resurrection} ritual.</p>\n<p>This applies to both the level of the spell or ritual required, as well as to calculating the cost of the diamonds necessary to cast the spell or perform the ritual.</p>"
        },
        "featType": {
            "value": "pfsboon"
        },
        "level": {
            "value": "0"
        },
        "prerequisites": {
            "value": ""
        },
        "rules": [],
        "source": {
            "value": ""
        },
        "traits": {
            "custom": "",
            "rarity": {
                "value": "common"
            },
            "selected": {},
            "value": []
        }
    },
    "effects": [],
    "flags": {},
    "img": "systems/pf2e/icons/default-icons/mystery-man.png",
    "name": "Bring Them Back Alive",
    "permission": {
        "default": 0
    },
    "type": "feat"
}
