{
    "_id": "GIdtqEFKKgwPmDBq",
    "data": {
        "actionCategory": {
            "value": ""
        },
        "actionType": {
            "value": "passive"
        },
        "actions": {
            "value": ""
        },
        "description": {
            "chat": "",
            "unidentified": "",
            "value": "<p><strong>[Generic]</strong></p>\n<p><strong>Effect</strong>: The trek from Isger to Molthune taught you tricks for navigating treacherously steep terrain. While this boon is slotted, you treat mountainous terrain and other steep slopes as difficult terrain, rather than as greater difficult terrain.</p>"
        },
        "featType": {
            "value": "pfsboon"
        },
        "level": {
            "value": "0"
        },
        "prerequisites": {
            "value": ""
        },
        "rules": [],
        "source": {
            "value": ""
        },
        "traits": {
            "custom": "",
            "rarity": {
                "value": "common"
            },
            "selected": {},
            "value": []
        }
    },
    "effects": [],
    "flags": {},
    "img": "systems/pf2e/icons/default-icons/mystery-man.png",
    "name": "S1-05 - Experienced Mountaineer",
    "permission": {
        "default": 0
    },
    "type": "feat"
}
