{
    "_id": "DcMAGJWq2G5kGRWn",
    "data": {
        "actionCategory": {
            "value": ""
        },
        "actionType": {
            "value": "passive"
        },
        "actions": {
            "value": ""
        },
        "description": {
            "chat": "",
            "unidentified": "",
            "value": "<p><strong>[Slotless]</strong></p>\n<p><strong>Effect</strong>: Bhopanese culture has numerous traditions that involve bloodletting as a sign of respect or a show of bravery. You participated in at least one of these traditions. This boon will have an effect in future scenarios.</p>"
        },
        "featType": {
            "value": "pfsboon"
        },
        "level": {
            "value": "0"
        },
        "prerequisites": {
            "value": ""
        },
        "rules": [],
        "source": {
            "value": ""
        },
        "traits": {
            "custom": "",
            "rarity": {
                "value": "common"
            },
            "selected": {},
            "value": []
        }
    },
    "effects": [],
    "flags": {},
    "img": "systems/pf2e/icons/default-icons/mystery-man.png",
    "name": "S1-16 - Blood Offering",
    "permission": {
        "default": 0
    },
    "type": "feat"
}
