{
    "_id": "6frkVrsCgTgFhMjl",
    "data": {
        "actionCategory": {
            "value": ""
        },
        "actionType": {
            "value": "passive"
        },
        "actions": {
            "value": ""
        },
        "description": {
            "chat": "",
            "unidentified": "",
            "value": "<p><strong>[Faction]</strong></p>\n<p><strong>Prerequisites:</strong> Tier 0 with the Vigilant Seal</p>\n<p><strong>Cost</strong>: 4 Fame (0 fame if first faction for this PC)</p>\n<p><strong>Effect</strong>: This faction boon represents your developing initial contacts with the Vigilant Seal faction, allowing you to gain Reputation with the faction. While you have this boon slotted, you gain Reputation with the faction after a successfully completed adventure, as detailed in its Primary and Secondary Objectives.</p>\n<p><strong>Normal</strong>: A character gains no Reputation unless they have a faction boon slotted.</p>"
        },
        "featType": {
            "value": "pfsboon"
        },
        "level": {
            "value": "0"
        },
        "prerequisites": {
            "value": ""
        },
        "rules": [],
        "source": {
            "value": ""
        },
        "traits": {
            "custom": "",
            "rarity": {
                "value": "common"
            },
            "selected": {},
            "value": []
        }
    },
    "effects": [],
    "flags": {},
    "img": "systems/pf2e/icons/default-icons/mystery-man.png",
    "name": "Vigilant Seal Champion",
    "permission": {
        "default": 0
    },
    "type": "feat"
}
