{
    "_id": "l98IthkklgLDJXIo",
    "data": {
        "description": {
            "value": "<p><span><em>Holy</em> weapons command powerful celestial energy. A weapon with this rune deals an extra [[/r 1d6 # good]] good damage against evil targets. If you are evil, you are @Compendium[pf2e.conditionitems.Enfeebled]{Enfeebled 2} while carrying or wielding this weapon.<br /></span></p>\n<p><strong>Activate</strong> <span class=\"pf2-icon\">R</span> command; <strong>Frequency</strong> once per day; <strong>Trigger</strong> You critically succeed at an attack roll against an evil creature with the weapon; <strong>Effect</strong> You regain HP equal to double the evil creature's level. This is a good, positive, healing effect.</p>"
        },
        "duration": {
            "expiry": "turn-start",
            "sustained": false,
            "unit": "unlimited",
            "value": -1
        },
        "level": {
            "value": 1
        },
        "rules": [
            {
                "key": "PF2E.RuleElement.EffectTarget",
                "scope": "weapon"
            },
            {
                "key": "PF2E.RuleElement.Note",
                "selector": "{item|data.target}-damage",
                "text": "<strong>Holy</strong>: <strong>Activate</strong> <span class=\"pf2-icon\">R</span> command; <strong>Frequency</strong> once per day; <strong>Trigger</strong> You critically succeed at an attack roll against an evil creature with the weapon; <strong>Effect</strong> You regain HP equal to double the evil creature's level. This is a good, positive, healing effect."
            },
            {
                "damageType": "good",
                "diceNumber": 1,
                "dieSize": "d6",
                "key": "PF2E.RuleElement.DamageDice",
                "selector": "{item|data.target}-damage"
            }
        ],
        "source": {
            "value": ""
        },
        "start": {
            "initiative": null,
            "value": 0
        },
        "target": null,
        "traits": {
            "custom": "",
            "rarity": {
                "value": "common"
            },
            "value": []
        }
    },
    "effects": [],
    "flags": {},
    "img": "systems/pf2e/icons/equipment/runes/weapon-property-runes/weapon-property-runes.jpg",
    "name": "Effect: Blade Ally Holy Rune",
    "permission": {
        "default": 0
    },
    "type": "effect"
}
